autostart = False
[127.0.0.1:7200]
    workingdir = /tmp
    udp = 10000
    [[3640]]
        image = /Data/GNS3/IOS/C3640-JK.BIN
        idlepc = 0x603e26f0
        ghostios = True
        chassis = 3640
    [[ROUTER Julian]]
        model = 3640
        console = 2007
        cnfg = configs/Julian.cfg
        slot0 = NM-1FE-TX
        f0/0 = SW1 3
        slot1 = NM-1FE-TX
        f1/0 = Century f0/0
        x = -118.559920524
        y = 55.7817459305
    [[ROUTER Millenium]]
        model = 3640
        console = 2009
        cnfg = configs/Millenium.cfg
        slot0 = NM-1FE-TX
        f0/0 = Planck f2/0
        x = -117.852813742
        y = -82.811183182
    [[ROUTER Century]]
        model = 3640
        console = 2008
        cnfg = configs/Century.cfg
        slot0 = NM-1FE-TX
        f0/0 = Julian f1/0
        x = 104.885822331
        y = 53.660425587
    [[ROUTER Atomic]]
        model = 3640
        console = 2006
        cnfg = configs/Atomic.cfg
        slot0 = NM-1FE-TX
        f0/0 = Planck f0/0
        slot1 = NM-1FE-TX
        f1/0 = SW1 2
        x = -407.059487248
        y = 54.3675323681
        hx = 3.29289321881
        hy = 38.6396103068
    [[ETHSW SW1]]
        1 = access 1 Planck f1/0
        2 = access 1 Atomic f1/0
        3 = access 1 Julian f0/0
        x = -238.439646201
        y = 61.7817459305
        hx = 8.63603896932
        hy = 28.033008589
    [[ROUTER Planck]]
        model = 3640
        console = 2005
        cnfg = configs/Planck.cfg
        slot0 = NM-1FE-TX
        f0/0 = Atomic f0/0
        slot1 = NM-1FE-TX
        f1/0 = SW1 1
        slot2 = NM-1FE-TX
        f2/0 = Millenium f0/0
        x = -407.059487248
        y = -81.3969696197
        hx = 8.74264068712
        hy = -21.4644660941
[GNS3-DATA]
    configs = configs
    m11 = 1.41421356237
    m22 = 1.41421356237
    [[NOTE 1]]
        text = 192.168.12.0 /24
        x = -441.941738242
        y = -2.70353544372
        color = "#0000ff"
    [[NOTE 2]]
        text = 192.168.15.0 /24
        x = -291.327993849
        y = -61.1923881554
        color = "#0000ff"
    [[NOTE 3]]
        text = 192.168.34.0 /24
        x = -46.6690475583
        y = 110.8355698
        color = "#0000ff"
    [[NOTE 4]]
        text = .5
        x = -143.542676581
        y = -60.9842353537
        color = "#0000ff"
    [[NOTE 5]]
        text = .4
        x = 83.43860018
        y = 52.3538597629
        color = "#0000ff"
    [[NOTE 6]]
        text = .3
        x = -51.6187950266
        y = 52.5548698897
        color = "#0000ff"
    [[NOTE 7]]
        text = .3
        x = -142.128463018
        y = 54.87720036
        color = "#0000ff"
    [[NOTE 8]]
        text = .2
        x = -340.825468532
        y = 54.3711037056
        color = "#0000ff"
    [[NOTE 9]]
        text = .2
        x = -372.645273685
        y = 32.6518036156
        color = "#0000ff"
    [[NOTE 10]]
        text = .1
        x = -374.059487248
        y = -42.1005050634
        color = "#0000ff"
    [[NOTE 11]]
        text = .1
        x = -347.189429563
        y = -62.405591591
        color = "#0000ff"
    [[NOTE 12]]
        text = 192.168.123.0 /24
        x = -300.520382004
        y = 109.622366364
        color = "#0000ff"
    [[NOTE 13]]
        text = f0/0
        x = -36.0951750621
        y = -4.31297853631
        interface = Millenium f0/0
        color = "#323232"
    [[NOTE 14]]
        text = f0/0
        x = -35.2842712475
        y = 25.5355339059
        interface = Century f0/0
        color = "#323232"
    [[NOTE 15]]
        text = f1/0
        x = 65.9289321881
        y = 22.0
        interface = Julian f1/0
        color = "#323232"
    [[NOTE 16]]
        text = f0/0
        x = -33.8681541922
        y = 21.6831185506
        interface = Julian f0/0
        color = "#323232"
    [[NOTE 17]]
        text = 2
        x = -21.6346322933
        y = 13.6885051509
        interface = SW1 2
        color = "#323232"
    [[NOTE 18]]
        text = 1
        x = 0.829940931841
        y = -31.15750726
        interface = SW1 1
        color = "#323232"
    [[NOTE 19]]
        text = 3
        x = 68.4270286952
        y = 13.4884543247
        interface = SW1 3
        color = "#323232"
    [[NOTE 20]]
        text = f0/0
        x = -6.59797974645
        y = -20.1213203436
        interface = Atomic f0/0
        color = "#323232"
    [[NOTE 21]]
        text = f1/0
        x = 65.3858949518
        y = 19.3617473808
        interface = Atomic f1/0
        color = "#323232"
    [[NOTE 22]]
        text = f0/0
        x = -5.18376618407
        y = 40.0796897832
        interface = Planck f0/0
        color = "#323232"
    [[NOTE 23]]
        text = f1/0
        x = 52.8208166632
        y = 42.2874495749
        interface = Planck f1/0
        color = "#323232"
    [[NOTE 24]]
        text = f2/0
        x = 65.3256224404
        y = -1.89160292793
        interface = Planck f2/0
        color = "#323232"
