Jul 19 16:10:47.845 HYPERVISOR: Release 0.2.16-amd64/Linux (tag 2015060118)
Jul 19 16:10:47.846 HYPERVISOR: Started on IP = 127.0.0.1, TCP port = 49951.
Jul 19 16:10:47.876 HYPERVISOR: exec_cmd: hypervisor version 
Jul 19 16:10:47.877 HYPERVISOR: exec_cmd: hypervisor working_dir /media/actionmystique/SAMSUNG-850-Ext4/Labs/GNS3/CCNP/TBSHOOT/Exam-Topology/Jean-Christophe_Manciot/1+/v1-solutions-linux/project-files/dynamips 
Jul 19 16:10:47.877 GENERAL: working_dir=/media/actionmystique/SAMSUNG-850-Ext4/Labs/GNS3/CCNP/TBSHOOT/Exam-Topology/Jean-Christophe_Manciot/1+/v1-solutions-linux/project-files/dynamips
Jul 19 16:10:47.881 HYPERVISOR: exec_cmd: vm create R5 9 c7200 
Jul 19 16:10:47.881 VM: VM R5 created.
Jul 19 16:10:47.882 HYPERVISOR: exec_cmd: vm set_con_tcp_port R5 2015 
Jul 19 16:10:47.882 HYPERVISOR: exec_cmd: c7200 get_mac_addr R5 
Jul 19 16:10:47.883 HYPERVISOR: exec_cmd: vm get_status R5 
Jul 19 16:10:47.883 HYPERVISOR: exec_cmd: vm slot_add_binding R5 0 0 C7200-IO-FE 
Jul 19 16:10:47.883 HYPERVISOR: exec_cmd: vm get_status R5 
Jul 19 16:10:47.884 HYPERVISOR: exec_cmd: vm slot_remove_binding R5 0 0 
Jul 19 16:10:47.884 HYPERVISOR: exec_cmd: vm get_status R5 
Jul 19 16:10:47.884 HYPERVISOR: exec_cmd: vm slot_add_binding R5 0 0 C7200-IO-GE-E 
Jul 19 16:10:47.885 HYPERVISOR: exec_cmd: c7200 set_mac_addr R5 ca09.71f1.0000 
Jul 19 16:10:47.885 HYPERVISOR: exec_cmd: vm set_disk0 R5 1 
Jul 19 16:10:47.886 HYPERVISOR: exec_cmd: vm get_status R5 
Jul 19 16:10:47.886 HYPERVISOR: exec_cmd: vm slot_add_binding R5 6 0 PA-POS-OC3 
Jul 19 16:10:47.886 HYPERVISOR: exec_cmd: vm set_ram R5 512 
Jul 19 16:10:47.887 HYPERVISOR: exec_cmd: vm get_status R5 
Jul 19 16:10:47.887 HYPERVISOR: exec_cmd: vm slot_add_binding R5 3 0 PA-GE 
Jul 19 16:10:47.888 HYPERVISOR: exec_cmd: vm set_ios R5 /media/actionmystique/SAMSUNG-850-Ext4/Images/GNS3/IOS/c7200-adventerprisek9-mz.152-4.M2.image 
Jul 19 16:10:47.888 HYPERVISOR: exec_cmd: vm get_status R5 
Jul 19 16:10:47.888 HYPERVISOR: exec_cmd: vm slot_add_binding R5 4 0 PA-4T+ 
Jul 19 16:10:47.889 HYPERVISOR: exec_cmd: vm get_status R5 
Jul 19 16:10:47.889 HYPERVISOR: exec_cmd: vm set_idle_pc R5 0x6062f0e0 
Jul 19 16:10:47.889 HYPERVISOR: exec_cmd: vm get_status R5 
Jul 19 16:10:47.890 HYPERVISOR: exec_cmd: vm slot_add_binding R5 1 0 PA-GE 
Jul 19 16:10:47.890 HYPERVISOR: exec_cmd: vm get_status R5 
Jul 19 16:10:47.891 HYPERVISOR: exec_cmd: vm slot_add_binding R5 5 0 PA-POS-OC3 
Jul 19 16:10:47.891 HYPERVISOR: exec_cmd: vm get_status R5 
Jul 19 16:10:47.891 HYPERVISOR: exec_cmd: vm slot_add_binding R5 2 0 PA-GE 
Jul 19 16:10:47.892 HYPERVISOR: exec_cmd: vm set_nvram R5 256 
Jul 19 16:10:47.892 HYPERVISOR: exec_cmd: vm set_config R5 configs/i9_startup-config.cfg 
Jul 19 16:10:47.893 HYPERVISOR: exec_cmd: vm set_config R5 configs/i9_startup-config.cfg configs/i9_private-config.cfg 
Jul 19 16:10:48.897 HYPERVISOR: exec_cmd: nio create_udp udp-1494adee-10dd-4a7d-b07f-d4ef62c3fcf5 15043 127.0.0.1 15045 
Jul 19 16:10:48.897 HYPERVISOR: exec_cmd: vm slot_add_nio_binding R5 4 0 udp-1494adee-10dd-4a7d-b07f-d4ef62c3fcf5 
Jul 19 16:10:48.898 HYPERVISOR: exec_cmd: vm get_status R5 
Jul 19 16:10:48.904 HYPERVISOR: exec_cmd: nio create_udp udp-986bd584-ff9f-4637-b849-2ff7ae62ba43 15047 127.0.0.1 15046 
Jul 19 16:10:48.905 HYPERVISOR: exec_cmd: vm slot_add_nio_binding R5 2 0 udp-986bd584-ff9f-4637-b849-2ff7ae62ba43 
Jul 19 16:10:48.905 HYPERVISOR: exec_cmd: vm get_status R5 
Jul 19 16:10:48.933 HYPERVISOR: exec_cmd: nio create_udp udp-025db38a-1fb6-4aa3-9dd1-42e1a3182a9d 15048 127.0.0.1 15049 
Jul 19 16:10:48.934 HYPERVISOR: exec_cmd: vm slot_add_nio_binding R5 1 0 udp-025db38a-1fb6-4aa3-9dd1-42e1a3182a9d 
Jul 19 16:10:48.934 HYPERVISOR: exec_cmd: vm get_status R5 
Jul 19 16:10:48.958 HYPERVISOR: exec_cmd: nio create_udp udp-2f56b2bd-9656-42bb-820b-6cf00328e5d3 15051 127.0.0.1 15050 
Jul 19 16:10:48.958 HYPERVISOR: exec_cmd: vm slot_add_nio_binding R5 3 0 udp-2f56b2bd-9656-42bb-820b-6cf00328e5d3 
Jul 19 16:10:48.959 HYPERVISOR: exec_cmd: vm get_status R5 
Jul 19 16:11:05.909 HYPERVISOR: exec_cmd: vm get_status R5 
Jul 19 16:11:05.915 HYPERVISOR: exec_cmd: vm extract_config R5 
Jul 19 16:11:05.928 HYPERVISOR: exec_cmd: vm delete R5 
Jul 19 16:11:05.928 VM: VM R5 destroyed.
Jul 19 16:11:05.931 HYPERVISOR: exec_cmd: hypervisor stop 
Jul 19 16:11:06.388 HYPERVISOR: Stopped.
Jul 19 16:11:06.388 GENERAL: reset done.
