Jul 19 16:10:47.675 HYPERVISOR: Release 0.2.16-amd64/Linux (tag 2015060118)
Jul 19 16:10:47.675 HYPERVISOR: Started on IP = 127.0.0.1, TCP port = 48114.
Jul 19 16:10:47.682 HYPERVISOR: exec_cmd: hypervisor version 
Jul 19 16:10:47.682 HYPERVISOR: exec_cmd: hypervisor working_dir /media/actionmystique/SAMSUNG-850-Ext4/Labs/GNS3/CCNP/TBSHOOT/Exam-Topology/Jean-Christophe_Manciot/1+/v1-solutions-linux/project-files/dynamips 
Jul 19 16:10:47.682 GENERAL: working_dir=/media/actionmystique/SAMSUNG-850-Ext4/Labs/GNS3/CCNP/TBSHOOT/Exam-Topology/Jean-Christophe_Manciot/1+/v1-solutions-linux/project-files/dynamips
Jul 19 16:10:47.683 HYPERVISOR: exec_cmd: vm create DSW1 1 c3725 
Jul 19 16:10:47.683 VM: VM DSW1 created.
Jul 19 16:10:47.683 HYPERVISOR: exec_cmd: vm set_con_tcp_port DSW1 2005 
Jul 19 16:10:47.683 HYPERVISOR: exec_cmd: c3725 get_mac_addr DSW1 
Jul 19 16:10:47.684 HYPERVISOR: exec_cmd: c3725 set_mac_addr DSW1 c201.2c4b.0000 
Jul 19 16:10:47.684 HYPERVISOR: exec_cmd: vm set_ios DSW1 /media/actionmystique/SAMSUNG-850-Ext4/Images/GNS3/IOS/c3725-adventerprisek9-mz.124-15.T10.image 
Jul 19 16:10:47.685 HYPERVISOR: exec_cmd: vm get_status DSW1 
Jul 19 16:10:47.685 HYPERVISOR: exec_cmd: vm slot_add_binding DSW1 1 0 NM-16ESW 
Jul 19 16:10:47.685 HYPERVISOR: exec_cmd: vm get_status DSW1 
Jul 19 16:10:47.686 HYPERVISOR: exec_cmd: vm set_idle_pc DSW1 0x6026b804 
Jul 19 16:10:47.686 HYPERVISOR: exec_cmd: vm set_nvram DSW1 256 
Jul 19 16:10:47.687 HYPERVISOR: exec_cmd: vm set_disk0 DSW1 1 
Jul 19 16:10:47.687 HYPERVISOR: exec_cmd: vm slot_add_binding DSW1 0 16 WIC-2T 
Jul 19 16:10:47.687 HYPERVISOR: exec_cmd: vm set_config DSW1 configs/i1_startup-config.cfg 
Jul 19 16:10:47.688 HYPERVISOR: exec_cmd: vm set_config DSW1 configs/i1_startup-config.cfg configs/i1_private-config.cfg 
Jul 19 16:10:48.386 HYPERVISOR: exec_cmd: nio create_udp udp-8c03ef6a-811d-43ef-8a36-d5950115c913 15000 127.0.0.1 15001 
Jul 19 16:10:48.387 HYPERVISOR: exec_cmd: vm slot_add_nio_binding DSW1 1 3 udp-8c03ef6a-811d-43ef-8a36-d5950115c913 
Jul 19 16:10:48.388 HYPERVISOR: exec_cmd: vm get_status DSW1 
Jul 19 16:10:48.473 HYPERVISOR: exec_cmd: nio create_udp udp-e7878f64-dd9a-459d-9da9-6549262dadb9 15002 127.0.0.1 15003 
Jul 19 16:10:48.474 HYPERVISOR: exec_cmd: vm slot_add_nio_binding DSW1 1 4 udp-e7878f64-dd9a-459d-9da9-6549262dadb9 
Jul 19 16:10:48.474 HYPERVISOR: exec_cmd: vm get_status DSW1 
Jul 19 16:10:48.561 HYPERVISOR: exec_cmd: nio create_udp udp-0a52e293-311c-49fd-b19c-6caf7567b041 15014 127.0.0.1 15013 
Jul 19 16:10:48.562 HYPERVISOR: exec_cmd: vm slot_add_nio_binding DSW1 1 9 udp-0a52e293-311c-49fd-b19c-6caf7567b041 
Jul 19 16:10:48.562 HYPERVISOR: exec_cmd: vm get_status DSW1 
Jul 19 16:10:48.585 HYPERVISOR: exec_cmd: nio create_udp udp-54753b11-3ca3-440c-9b1c-c8e5a11336c6 15012 127.0.0.1 15015 
Jul 19 16:10:48.586 HYPERVISOR: exec_cmd: vm slot_add_nio_binding DSW1 1 10 udp-54753b11-3ca3-440c-9b1c-c8e5a11336c6 
Jul 19 16:10:48.586 HYPERVISOR: exec_cmd: vm get_status DSW1 
Jul 19 16:10:48.638 HYPERVISOR: exec_cmd: nio create_udp udp-d5e6c218-9fb2-420b-b45f-55104a4e51a7 15019 127.0.0.1 15016 
Jul 19 16:10:48.641 HYPERVISOR: exec_cmd: vm slot_add_nio_binding DSW1 1 1 udp-d5e6c218-9fb2-420b-b45f-55104a4e51a7 
Jul 19 16:10:48.644 HYPERVISOR: exec_cmd: vm get_status DSW1 
Jul 19 16:10:48.849 HYPERVISOR: exec_cmd: nio create_udp udp-6ddde3a8-1665-462b-88e5-c6c01d333fc2 15040 127.0.0.1 15041 
Jul 19 16:10:48.849 HYPERVISOR: exec_cmd: vm slot_add_nio_binding DSW1 1 11 udp-6ddde3a8-1665-462b-88e5-c6c01d333fc2 
Jul 19 16:10:48.850 HYPERVISOR: exec_cmd: vm get_status DSW1 
Jul 19 16:10:48.859 HYPERVISOR: exec_cmd: nio create_udp udp-b4282ae1-d56d-488b-a377-4842a490b0bf 15042 127.0.0.1 15044 
Jul 19 16:10:48.860 HYPERVISOR: exec_cmd: vm slot_add_nio_binding DSW1 1 12 udp-b4282ae1-d56d-488b-a377-4842a490b0bf 
Jul 19 16:10:48.861 HYPERVISOR: exec_cmd: vm get_status DSW1 
Jul 19 16:11:05.909 HYPERVISOR: exec_cmd: vm get_status DSW1 
Jul 19 16:11:05.914 HYPERVISOR: exec_cmd: vm extract_config DSW1 
Jul 19 16:11:05.926 HYPERVISOR: exec_cmd: vm delete DSW1 
Jul 19 16:11:05.926 VM: VM DSW1 destroyed.
Jul 19 16:11:05.930 HYPERVISOR: exec_cmd: hypervisor stop 
Jul 19 16:11:06.201 HYPERVISOR: Stopped.
Jul 19 16:11:06.201 GENERAL: reset done.
