Nov 27 15:46:04.138 HYPERVISOR: Release 0.2.17-amd64/Linux (tag 2017072410)
Nov 27 15:46:04.138 HYPERVISOR: Started on IP = 127.0.0.1, TCP port = 53457.
Nov 27 15:46:04.158 HYPERVISOR: exec_cmd: hypervisor version 
Nov 27 15:46:04.159 HYPERVISOR: exec_cmd: hypervisor working_dir /media/actionmystique/SAMSUNG5-VMs/Labs/GNS3/TT 2-linux-/project-files/dynamips 
Nov 27 15:46:04.159 GENERAL: working_dir=/media/actionmystique/SAMSUNG5-VMs/Labs/GNS3/TT 2-linux-/project-files/dynamips
Nov 27 15:46:04.160 HYPERVISOR: exec_cmd: vm create SW1 1 c3725 
Nov 27 15:46:04.160 VM: VM SW1 created.
Nov 27 15:46:04.161 HYPERVISOR: exec_cmd: vm set_con_tcp_port SW1 2001 
Nov 27 15:46:04.162 HYPERVISOR: exec_cmd: c3725 get_mac_addr SW1 
Nov 27 15:46:04.163 HYPERVISOR: exec_cmd: c3725 set_mac_addr SW1 aaaa.aaaa.aaaa 
Nov 27 15:46:04.164 HYPERVISOR: exec_cmd: vm get_status SW1 
Nov 27 15:46:04.164 HYPERVISOR: exec_cmd: vm slot_add_binding SW1 1 0 NM-16ESW 
Nov 27 15:46:04.166 HYPERVISOR: exec_cmd: vm get_status SW1 
Nov 27 15:46:04.166 HYPERVISOR: exec_cmd: vm set_idle_pc SW1 0x614ac2c4 
Nov 27 15:46:04.167 HYPERVISOR: exec_cmd: vm slot_add_binding SW1 0 16 WIC-2T 
Nov 27 15:46:04.169 HYPERVISOR: exec_cmd: vm set_ios SW1 /media/actionmystique/SAMSUNG5-VMs/Images/GNS3/IOS/c3725-adventerprisek9-mz.124-15.T10.image 
Nov 27 15:46:04.170 HYPERVISOR: exec_cmd: vm set_exec_area SW1 16 
Nov 27 15:46:04.171 HYPERVISOR: exec_cmd: vm set_disk0 SW1 1 
Nov 27 15:46:04.172 HYPERVISOR: exec_cmd: vm set_nvram SW1 256 
Nov 27 15:46:04.173 HYPERVISOR: exec_cmd: vm set_config SW1 configs/i1_startup-config.cfg 
Nov 27 15:46:04.174 HYPERVISOR: exec_cmd: vm set_config SW1 configs/i1_startup-config.cfg configs/i1_private-config.cfg 
Nov 27 15:46:04.276 HYPERVISOR: exec_cmd: nio create_null null-2ca38e1a-9a7e-452a-82b3-8c04367e2979 
Nov 27 15:46:04.277 HYPERVISOR: exec_cmd: vm slot_add_nio_binding SW1 1 0 null-2ca38e1a-9a7e-452a-82b3-8c04367e2979 
Nov 27 15:46:04.278 HYPERVISOR: exec_cmd: vm get_status SW1 
Nov 27 15:46:04.361 HYPERVISOR: exec_cmd: nio create_udp udp-f8d563bf-2a92-4d82-9fcc-d3cd2e71c90f 15005 127.0.0.1 15004 
Nov 27 15:46:04.367 HYPERVISOR: exec_cmd: vm slot_add_nio_binding SW1 1 5 udp-f8d563bf-2a92-4d82-9fcc-d3cd2e71c90f 
Nov 27 15:46:04.374 HYPERVISOR: exec_cmd: vm get_status SW1 
Nov 27 15:46:04.413 HYPERVISOR: exec_cmd: nio create_udp udp-bd3e8b89-9ccd-4bbc-a4c8-fc8d0674d00f 15008 127.0.0.1 15007 
Nov 27 15:46:04.413 HYPERVISOR: exec_cmd: vm slot_add_nio_binding SW1 1 1 udp-bd3e8b89-9ccd-4bbc-a4c8-fc8d0674d00f 
Nov 27 15:46:04.414 HYPERVISOR: exec_cmd: vm get_status SW1 
Nov 27 15:46:04.427 HYPERVISOR: exec_cmd: nio create_udp udp-778c41da-8623-4189-a38b-1f961e5d40c8 15006 127.0.0.1 15009 
Nov 27 15:46:04.430 HYPERVISOR: exec_cmd: vm slot_add_nio_binding SW1 1 6 udp-778c41da-8623-4189-a38b-1f961e5d40c8 
Nov 27 15:46:04.430 HYPERVISOR: exec_cmd: vm get_status SW1 
Nov 27 15:46:19.016 HYPERVISOR: exec_cmd: vm get_status SW1 
Nov 27 15:46:19.017 HYPERVISOR: exec_cmd: vm extract_config SW1 
Nov 27 15:46:19.020 HYPERVISOR: exec_cmd: vm delete SW1 
Nov 27 15:46:19.020 VM: VM SW1 destroyed.
Nov 27 15:46:19.021 HYPERVISOR: exec_cmd: hypervisor stop 
Nov 27 15:46:19.171 HYPERVISOR: Stopped.
Nov 27 15:46:19.171 GENERAL: reset done.
