Dec 04 11:06:58.583 HYPERVISOR: Release 0.2.17-amd64/Linux (tag 2017072410)
Dec 04 11:06:58.583 HYPERVISOR: Started on IP = 127.0.0.1, TCP port = 36025.
Dec 04 11:06:58.599 HYPERVISOR: exec_cmd: hypervisor version 
Dec 04 11:06:58.599 HYPERVISOR: exec_cmd: hypervisor working_dir /media/actionmystique/SAMSUNG5-VMs/Labs/GNS3/git-Public-Labs-Collection/CCNP/TBSHOOT/L3-Technologies/IPv6/Routing-Protocols/OSPFv3/Jean-Christophe_Manciot/1+/TT 1-solutions-linux/project-files/dynamips 
Dec 04 11:06:58.599 GENERAL: working_dir=/media/actionmystique/SAMSUNG5-VMs/Labs/GNS3/git-Public-Labs-Collection/CCNP/TBSHOOT/L3-Technologies/IPv6/Routing-Protocols/OSPFv3/Jean-Christophe_Manciot/1+/TT 1-solutions-linux/project-files/dynamips
Dec 04 11:06:58.599 HYPERVISOR: exec_cmd: vm create ESW1 1 c3725 
Dec 04 11:06:58.600 VM: VM ESW1 created.
Dec 04 11:06:58.600 HYPERVISOR: exec_cmd: vm set_con_tcp_port ESW1 2004 
Dec 04 11:06:58.600 HYPERVISOR: exec_cmd: c3725 get_mac_addr ESW1 
Dec 04 11:06:58.601 HYPERVISOR: exec_cmd: vm set_nvram ESW1 256 
Dec 04 11:06:58.601 HYPERVISOR: exec_cmd: vm set_ios ESW1 /media/actionmystique/SAMSUNG5-VMs/Images/GNS3/IOS/c3725-adventerprisek9-mz.124-15.T10.image 
Dec 04 11:06:58.602 HYPERVISOR: exec_cmd: c3725 set_mac_addr ESW1 c201.1b91.0000 
Dec 04 11:06:58.603 HYPERVISOR: exec_cmd: vm get_status ESW1 
Dec 04 11:06:58.603 HYPERVISOR: exec_cmd: vm slot_add_binding ESW1 1 0 NM-16ESW 
Dec 04 11:06:58.607 HYPERVISOR: exec_cmd: vm get_status ESW1 
Dec 04 11:06:58.608 HYPERVISOR: exec_cmd: vm set_idle_pc ESW1 0x6026b804 
Dec 04 11:06:58.610 HYPERVISOR: exec_cmd: vm set_disk0 ESW1 1 
Dec 04 11:06:58.611 HYPERVISOR: exec_cmd: vm slot_add_binding ESW1 0 16 WIC-2T 
Dec 04 11:06:58.612 HYPERVISOR: exec_cmd: vm set_config ESW1 configs/ios_base_startup-config.txt 
Dec 04 11:06:58.613 HYPERVISOR: exec_cmd: vm set_config ESW1 configs/ios_base_startup-config.txt configs/ios_base_private-config.txt 
Dec 04 11:06:58.877 HYPERVISOR: exec_cmd: nio create_udp udp-86083ad8-e275-4db8-bb35-cff3c334844e 15003 127.0.0.1 15008 
Dec 04 11:06:58.889 HYPERVISOR: exec_cmd: vm slot_add_nio_binding ESW1 1 0 udp-86083ad8-e275-4db8-bb35-cff3c334844e 
Dec 04 11:06:58.895 HYPERVISOR: exec_cmd: vm get_status ESW1 
Dec 04 11:06:58.936 HYPERVISOR: exec_cmd: nio create_udp udp-7007151f-2d71-4404-961c-fb8d7eaf91bf 15011 127.0.0.1 15009 
Dec 04 11:06:58.943 HYPERVISOR: exec_cmd: vm slot_add_nio_binding ESW1 1 1 udp-7007151f-2d71-4404-961c-fb8d7eaf91bf 
Dec 04 11:06:58.944 HYPERVISOR: exec_cmd: vm get_status ESW1 
