Nov 26 20:53:21.262 HYPERVISOR: Release 0.2.17-amd64/Linux (tag 2017072410)
Nov 26 20:53:21.262 HYPERVISOR: Started on IP = 127.0.0.1, TCP port = 59685.
Nov 26 20:53:21.283 HYPERVISOR: exec_cmd: hypervisor version 
Nov 26 20:53:21.285 HYPERVISOR: exec_cmd: hypervisor working_dir /media/actionmystique/SAMSUNG5-VMs/Labs/GNS3/VPN Tunnels/project-files/dynamips 
Nov 26 20:53:21.285 GENERAL: working_dir=/media/actionmystique/SAMSUNG5-VMs/Labs/GNS3/VPN Tunnels/project-files/dynamips
Nov 26 20:53:21.286 HYPERVISOR: exec_cmd: vm create I11 8 c7200 
Nov 26 20:53:21.286 VM: VM I11 created.
Nov 26 20:53:21.288 HYPERVISOR: exec_cmd: vm set_con_tcp_port I11 2012 
Nov 26 20:53:21.289 HYPERVISOR: exec_cmd: vm set_aux_tcp_port I11 2112 
Nov 26 20:53:21.291 HYPERVISOR: exec_cmd: c7200 get_mac_addr I11 
Nov 26 20:53:21.292 HYPERVISOR: exec_cmd: vm get_status I11 
Nov 26 20:53:21.294 HYPERVISOR: exec_cmd: vm slot_add_binding I11 0 0 C7200-IO-FE 
Nov 26 20:53:21.301 HYPERVISOR: exec_cmd: vm get_status I11 
Nov 26 20:53:21.317 HYPERVISOR: exec_cmd: vm slot_remove_binding I11 0 0 
Nov 26 20:53:21.327 HYPERVISOR: exec_cmd: vm get_status I11 
Nov 26 20:53:21.334 HYPERVISOR: exec_cmd: vm slot_add_binding I11 0 0 C7200-IO-GE-E 
Nov 26 20:53:21.344 HYPERVISOR: exec_cmd: vm set_ram I11 512 
Nov 26 20:53:21.346 HYPERVISOR: exec_cmd: vm get_status I11 
Nov 26 20:53:21.353 HYPERVISOR: exec_cmd: vm set_idle_pc I11 0x60188e14 
Nov 26 20:53:21.364 HYPERVISOR: exec_cmd: vm get_status I11 
Nov 26 20:53:21.367 HYPERVISOR: exec_cmd: vm slot_add_binding I11 1 0 PA-8T 
Nov 26 20:53:21.369 HYPERVISOR: exec_cmd: vm set_ios I11 /media/actionmystique/SAMSUNG5-VMs/Images/GNS3/IOS/c7200-adventerprisek9-mz.152-4.M2.image 
Nov 26 20:53:21.371 HYPERVISOR: exec_cmd: vm set_config I11 configs/i8_startup-config.cfg 
Nov 26 20:53:22.732 HYPERVISOR: exec_cmd: nio create_udp udp-78f3d78e-2eff-4a5a-8668-d132c7959dee 15017 127.0.0.1 15019 
Nov 26 20:53:22.733 HYPERVISOR: exec_cmd: vm slot_add_nio_binding I11 1 1 udp-78f3d78e-2eff-4a5a-8668-d132c7959dee 
Nov 26 20:53:22.733 HYPERVISOR: exec_cmd: vm get_status I11 
Nov 26 20:53:22.739 HYPERVISOR: exec_cmd: nio create_udp udp-d97eb3c5-18da-41f8-88af-ddeeabe6c628 15020 127.0.0.1 15021 
Nov 26 20:53:22.742 HYPERVISOR: exec_cmd: vm slot_add_nio_binding I11 0 0 udp-d97eb3c5-18da-41f8-88af-ddeeabe6c628 
Nov 26 20:53:22.743 HYPERVISOR: exec_cmd: vm get_status I11 
Nov 26 20:53:22.784 HYPERVISOR: exec_cmd: nio create_udp udp-0d8fe1e1-c93a-4019-8470-5c1b835ba6aa 15022 127.0.0.1 15023 
Nov 26 20:53:22.785 HYPERVISOR: exec_cmd: vm slot_add_nio_binding I11 1 0 udp-0d8fe1e1-c93a-4019-8470-5c1b835ba6aa 
Nov 26 20:53:22.785 HYPERVISOR: exec_cmd: vm get_status I11 
Nov 26 20:53:22.907 HYPERVISOR: exec_cmd: nio create_udp udp-9ce7b170-b644-4013-92ab-3603d78b5054 15035 127.0.0.1 15034 
Nov 26 20:53:22.908 HYPERVISOR: exec_cmd: vm slot_add_nio_binding I11 1 2 udp-9ce7b170-b644-4013-92ab-3603d78b5054 
Nov 26 20:53:22.909 HYPERVISOR: exec_cmd: vm get_status I11 
Nov 26 20:53:23.377 HYPERVISOR: exec_cmd: nio create_udp udp-369bea16-f360-4b7e-b171-866be15fc3d4 15077 127.0.0.1 15080 
Nov 26 20:53:23.377 HYPERVISOR: exec_cmd: vm slot_add_nio_binding I11 1 4 udp-369bea16-f360-4b7e-b171-866be15fc3d4 
Nov 26 20:53:23.377 HYPERVISOR: exec_cmd: vm get_status I11 
Nov 26 20:53:23.412 HYPERVISOR: exec_cmd: nio create_udp udp-4f01ae0f-e3a7-48fc-b49b-1b3b18c10c98 15083 127.0.0.1 15082 
Nov 26 20:53:23.413 HYPERVISOR: exec_cmd: vm slot_add_nio_binding I11 1 3 udp-4f01ae0f-e3a7-48fc-b49b-1b3b18c10c98 
Nov 26 20:53:23.416 HYPERVISOR: exec_cmd: vm get_status I11 
Nov 26 20:53:27.554 HYPERVISOR: exec_cmd: vm extract_config I11 
Nov 26 20:54:29.872 HYPERVISOR: exec_cmd: vm get_status I11 
Nov 26 20:54:29.878 HYPERVISOR: exec_cmd: vm extract_config I11 
Nov 26 20:54:29.883 HYPERVISOR: exec_cmd: vm delete I11 
Nov 26 20:54:29.883 VM: VM I11 destroyed.
Nov 26 20:54:29.889 HYPERVISOR: exec_cmd: hypervisor stop 
Nov 26 20:54:30.349 HYPERVISOR: Stopped.
Nov 26 20:54:30.349 GENERAL: reset done.
