Nov 27 16:14:38.984 HYPERVISOR: Release 0.2.17-amd64/Linux (tag 2017072410)
Nov 27 16:14:38.984 HYPERVISOR: Started on IP = 127.0.0.1, TCP port = 46705.
Nov 27 16:14:39.010 HYPERVISOR: exec_cmd: hypervisor version 
Nov 27 16:14:39.011 HYPERVISOR: exec_cmd: hypervisor working_dir /media/actionmystique/SAMSUNG5-VMs/Labs/GNS3/TT 2-linux-/project-files/dynamips 
Nov 27 16:14:39.011 GENERAL: working_dir=/media/actionmystique/SAMSUNG5-VMs/Labs/GNS3/TT 2-linux-/project-files/dynamips
Nov 27 16:14:39.012 HYPERVISOR: exec_cmd: vm create SW2 2 c3725 
Nov 27 16:14:39.012 VM: VM SW2 created.
Nov 27 16:14:39.013 HYPERVISOR: exec_cmd: vm set_con_tcp_port SW2 2002 
Nov 27 16:14:39.014 HYPERVISOR: exec_cmd: c3725 get_mac_addr SW2 
Nov 27 16:14:39.014 HYPERVISOR: exec_cmd: vm set_nvram SW2 256 
Nov 27 16:14:39.015 HYPERVISOR: exec_cmd: vm get_status SW2 
Nov 27 16:14:39.016 HYPERVISOR: exec_cmd: vm set_idle_pc SW2 0x614ac2c4 
Nov 27 16:14:39.017 HYPERVISOR: exec_cmd: c3725 set_mac_addr SW2 eeee.eeee.eeee 
Nov 27 16:14:39.018 HYPERVISOR: exec_cmd: vm set_exec_area SW2 16 
Nov 27 16:14:39.019 HYPERVISOR: exec_cmd: vm get_status SW2 
Nov 27 16:14:39.020 HYPERVISOR: exec_cmd: vm slot_add_binding SW2 1 0 NM-16ESW 
Nov 27 16:14:39.021 HYPERVISOR: exec_cmd: vm set_disk0 SW2 1 
Nov 27 16:14:39.022 HYPERVISOR: exec_cmd: vm set_ios SW2 /media/actionmystique/SAMSUNG5-VMs/Images/GNS3/IOS/c3725-adventerprisek9-mz.124-15.T10.image 
Nov 27 16:14:39.023 HYPERVISOR: exec_cmd: vm slot_add_binding SW2 0 16 WIC-2T 
Nov 27 16:14:39.024 HYPERVISOR: exec_cmd: vm set_config SW2 configs/i2_startup-config.cfg 
Nov 27 16:14:39.025 HYPERVISOR: exec_cmd: vm set_config SW2 configs/i2_startup-config.cfg configs/i2_private-config.cfg 
Nov 27 16:14:39.201 HYPERVISOR: exec_cmd: nio create_udp udp-c5af57c9-1dc4-484b-b4f7-1f5ce77d7450 15002 127.0.0.1 15001 
Nov 27 16:14:39.202 HYPERVISOR: exec_cmd: vm slot_add_nio_binding SW2 1 2 udp-c5af57c9-1dc4-484b-b4f7-1f5ce77d7450 
Nov 27 16:14:39.208 HYPERVISOR: exec_cmd: vm get_status SW2 
Nov 27 16:14:39.216 HYPERVISOR: exec_cmd: nio create_udp udp-71e9ec7e-ae60-43eb-9b91-59cebd090f0a 15004 127.0.0.1 15000 
Nov 27 16:14:39.218 HYPERVISOR: exec_cmd: vm slot_add_nio_binding SW2 1 0 udp-71e9ec7e-ae60-43eb-9b91-59cebd090f0a 
Nov 27 16:14:39.218 HYPERVISOR: exec_cmd: vm get_status SW2 
Nov 27 16:14:39.227 HYPERVISOR: exec_cmd: nio create_udp udp-3c150e08-93be-4c99-a301-959c20762f7a 15005 127.0.0.1 15003 
Nov 27 16:14:39.229 HYPERVISOR: exec_cmd: vm slot_add_nio_binding SW2 1 1 udp-3c150e08-93be-4c99-a301-959c20762f7a 
Nov 27 16:14:39.229 HYPERVISOR: exec_cmd: vm get_status SW2 
Nov 27 16:14:55.964 HYPERVISOR: exec_cmd: vm get_status SW2 
Nov 27 16:14:55.965 HYPERVISOR: exec_cmd: vm extract_config SW2 
Nov 27 16:14:55.968 HYPERVISOR: exec_cmd: vm delete SW2 
Nov 27 16:14:55.968 VM: VM SW2 destroyed.
Nov 27 16:14:55.969 HYPERVISOR: exec_cmd: hypervisor stop 
Nov 27 16:14:56.025 HYPERVISOR: Stopped.
Nov 27 16:14:56.025 GENERAL: reset done.
