Nov 28 08:12:54.399 HYPERVISOR: Release 0.2.17-amd64/Linux (tag 2017072410)
Nov 28 08:12:54.399 HYPERVISOR: Started on IP = 127.0.0.1, TCP port = 47289.
Nov 28 08:12:54.434 HYPERVISOR: exec_cmd: hypervisor version 
Nov 28 08:12:54.434 HYPERVISOR: exec_cmd: hypervisor working_dir /media/actionmystique/SAMSUNG5-VMs/Labs/GNS3/git-Public-Labs-Collection/CCNP/TBSHOOT/L3-Technologies/IPv4/PBR/Jean-Christophe_Manciot/1+/TT 1-solutions-linux/project-files/dynamips 
Nov 28 08:12:54.434 GENERAL: working_dir=/media/actionmystique/SAMSUNG5-VMs/Labs/GNS3/git-Public-Labs-Collection/CCNP/TBSHOOT/L3-Technologies/IPv4/PBR/Jean-Christophe_Manciot/1+/TT 1-solutions-linux/project-files/dynamips
Nov 28 08:12:54.435 HYPERVISOR: exec_cmd: vm create ESW2 2 c3725 
Nov 28 08:12:54.435 VM: VM ESW2 created.
Nov 28 08:12:54.435 HYPERVISOR: exec_cmd: vm set_con_tcp_port ESW2 2005 
Nov 28 08:12:54.435 HYPERVISOR: exec_cmd: c3725 get_mac_addr ESW2 
Nov 28 08:12:54.436 HYPERVISOR: exec_cmd: vm set_disk0 ESW2 1 
Nov 28 08:12:54.436 HYPERVISOR: exec_cmd: vm get_status ESW2 
Nov 28 08:12:54.442 HYPERVISOR: exec_cmd: vm slot_add_binding ESW2 1 0 NM-16ESW 
Nov 28 08:12:54.443 HYPERVISOR: exec_cmd: vm set_ios ESW2 /media/actionmystique/SAMSUNG5-VMs/Images/GNS3/IOS/c3725-adventerprisek9-mz.124-15.T10.image 
Nov 28 08:12:54.443 HYPERVISOR: exec_cmd: c3725 set_mac_addr ESW2 c202.1bd4.0000 
Nov 28 08:12:54.444 HYPERVISOR: exec_cmd: vm slot_add_binding ESW2 0 16 WIC-2T 
Nov 28 08:12:54.445 HYPERVISOR: exec_cmd: vm get_status ESW2 
Nov 28 08:12:54.445 HYPERVISOR: exec_cmd: vm set_idle_pc ESW2 0x6026b804 
Nov 28 08:12:54.445 HYPERVISOR: exec_cmd: vm set_nvram ESW2 256 
Nov 28 08:12:54.446 HYPERVISOR: exec_cmd: vm set_config ESW2 configs/ios_base_startup-config.txt 
Nov 28 08:12:54.446 HYPERVISOR: exec_cmd: vm set_config ESW2 configs/ios_base_startup-config.txt configs/ios_base_private-config.txt 
Nov 28 08:12:54.715 HYPERVISOR: exec_cmd: nio create_udp udp-984d0980-b826-409a-9cd4-e43ae4f1d38a 15019 127.0.0.1 15017 
Nov 28 08:12:54.715 HYPERVISOR: exec_cmd: vm slot_add_nio_binding ESW2 1 0 udp-984d0980-b826-409a-9cd4-e43ae4f1d38a 
Nov 28 08:12:54.716 HYPERVISOR: exec_cmd: vm get_status ESW2 
