Dec 04 11:07:43.748 HYPERVISOR: Release 0.2.17-amd64/Linux (tag 2017072410)
Dec 04 11:07:43.748 HYPERVISOR: Started on IP = 127.0.0.1, TCP port = 50167.
Dec 04 11:07:43.771 HYPERVISOR: exec_cmd: hypervisor version 
Dec 04 11:07:43.772 HYPERVISOR: exec_cmd: hypervisor working_dir /media/actionmystique/SAMSUNG5-VMs/Labs/GNS3/TT 2-linux-/project-files/dynamips 
Dec 04 11:07:43.772 GENERAL: working_dir=/media/actionmystique/SAMSUNG5-VMs/Labs/GNS3/TT 2-linux-/project-files/dynamips
Dec 04 11:07:43.772 HYPERVISOR: exec_cmd: vm create ESW4 4 c3725 
Dec 04 11:07:43.772 VM: VM ESW4 created.
Dec 04 11:07:43.774 HYPERVISOR: exec_cmd: vm set_con_tcp_port ESW4 2009 
Dec 04 11:07:43.774 HYPERVISOR: exec_cmd: c3725 get_mac_addr ESW4 
Dec 04 11:07:43.775 HYPERVISOR: exec_cmd: vm set_nvram ESW4 256 
Dec 04 11:07:43.776 HYPERVISOR: exec_cmd: vm set_ios ESW4 /media/actionmystique/SAMSUNG5-VMs/Images/GNS3/IOS/c3725-adventerprisek9-mz.124-15.T10.image 
Dec 04 11:07:43.778 HYPERVISOR: exec_cmd: c3725 set_mac_addr ESW4 c204.68ae.0000 
Dec 04 11:07:43.779 HYPERVISOR: exec_cmd: vm get_status ESW4 
Dec 04 11:07:43.780 HYPERVISOR: exec_cmd: vm slot_add_binding ESW4 1 0 NM-16ESW 
Dec 04 11:07:43.782 HYPERVISOR: exec_cmd: vm get_status ESW4 
Dec 04 11:07:43.783 HYPERVISOR: exec_cmd: vm set_idle_pc ESW4 0x614ac27c 
Dec 04 11:07:43.784 HYPERVISOR: exec_cmd: vm set_disk0 ESW4 1 
Dec 04 11:07:43.793 HYPERVISOR: exec_cmd: vm slot_add_binding ESW4 0 16 WIC-2T 
Dec 04 11:07:43.795 HYPERVISOR: exec_cmd: vm set_config ESW4 configs/ios_base_startup-config.txt 
Dec 04 11:07:43.796 HYPERVISOR: exec_cmd: vm set_config ESW4 configs/ios_base_startup-config.txt configs/ios_base_private-config.txt 
Dec 04 11:07:44.152 HYPERVISOR: exec_cmd: nio create_udp udp-6344628c-fed3-48c1-a10f-b5620cd3e723 15014 127.0.0.1 15012 
Dec 04 11:07:44.152 HYPERVISOR: exec_cmd: vm slot_add_nio_binding ESW4 1 0 udp-6344628c-fed3-48c1-a10f-b5620cd3e723 
Dec 04 11:07:44.153 HYPERVISOR: exec_cmd: vm get_status ESW4 
Dec 04 11:07:44.163 HYPERVISOR: exec_cmd: nio create_udp udp-00a3ab61-1fa0-4625-9d47-24dc9a84f849 15013 127.0.0.1 15015 
Dec 04 11:07:44.163 HYPERVISOR: exec_cmd: vm slot_add_nio_binding ESW4 1 1 udp-00a3ab61-1fa0-4625-9d47-24dc9a84f849 
Dec 04 11:07:44.164 HYPERVISOR: exec_cmd: vm get_status ESW4 
Dec 04 11:07:56.120 HYPERVISOR: exec_cmd: vm get_status ESW4 
Dec 04 11:07:56.123 HYPERVISOR: exec_cmd: vm extract_config ESW4 
Dec 04 11:07:56.125 HYPERVISOR: exec_cmd: vm delete ESW4 
Dec 04 11:07:56.125 VM: VM ESW4 destroyed.
Dec 04 11:07:56.129 HYPERVISOR: exec_cmd: hypervisor stop 
Dec 04 11:07:56.282 HYPERVISOR: Stopped.
Dec 04 11:07:56.282 GENERAL: reset done.
