Nov 26 22:08:10.817 HYPERVISOR: Release 0.2.17-amd64/Linux (tag 2017072410)
Nov 26 22:08:10.817 HYPERVISOR: Started on IP = 127.0.0.1, TCP port = 36611.
Nov 26 22:08:10.821 HYPERVISOR: exec_cmd: hypervisor version 
Nov 26 22:08:10.822 HYPERVISOR: exec_cmd: hypervisor working_dir /media/actionmystique/SAMSUNG5-VMs/Labs/GNS3/git-Public-Labs-Collection/CCNP/TBSHOOT/Infrastructure-Services/DHCP-NAT/Jean-Christophe_Manciot/1+/DHCPv4/TT 2-solutions-linux/project-files/dynamips 
Nov 26 22:08:10.822 GENERAL: working_dir=/media/actionmystique/SAMSUNG5-VMs/Labs/GNS3/git-Public-Labs-Collection/CCNP/TBSHOOT/Infrastructure-Services/DHCP-NAT/Jean-Christophe_Manciot/1+/DHCPv4/TT 2-solutions-linux/project-files/dynamips
Nov 26 22:08:10.822 HYPERVISOR: exec_cmd: vm create ESW1 1 c3725 
Nov 26 22:08:10.822 VM: VM ESW1 created.
Nov 26 22:08:10.823 HYPERVISOR: exec_cmd: vm set_con_tcp_port ESW1 2001 
Nov 26 22:08:10.823 HYPERVISOR: exec_cmd: vm set_aux_tcp_port ESW1 2501 
Nov 26 22:08:10.824 HYPERVISOR: exec_cmd: c3725 get_mac_addr ESW1 
Nov 26 22:08:10.824 HYPERVISOR: exec_cmd: vm slot_add_binding ESW1 0 16 WIC-2T 
Nov 26 22:08:10.825 HYPERVISOR: exec_cmd: vm get_status ESW1 
Nov 26 22:08:10.825 HYPERVISOR: exec_cmd: vm set_idle_pc ESW1 0x60c05928 
Nov 26 22:08:10.826 HYPERVISOR: exec_cmd: vm get_status ESW1 
Nov 26 22:08:10.826 HYPERVISOR: exec_cmd: vm slot_add_binding ESW1 1 0 NM-16ESW 
Nov 26 22:08:10.827 HYPERVISOR: exec_cmd: vm set_nvram ESW1 256 
Nov 26 22:08:10.827 HYPERVISOR: exec_cmd: vm set_ios ESW1 /media/actionmystique/SAMSUNG5-VMs/Images/GNS3/IOS/c3725-adventerprisek9-mz.124-15.T10.image 
Nov 26 22:08:10.827 HYPERVISOR: exec_cmd: vm set_disk0 ESW1 1 
Nov 26 22:08:10.828 HYPERVISOR: exec_cmd: c3725 set_mac_addr ESW1 c201.281a.0000 
Nov 26 22:08:10.828 HYPERVISOR: exec_cmd: vm set_config ESW1 configs/i1_startup-config.cfg 
Nov 26 22:08:10.829 HYPERVISOR: exec_cmd: vm set_config ESW1 configs/i1_startup-config.cfg configs/i1_private-config.cfg 
Nov 26 22:08:10.948 HYPERVISOR: exec_cmd: nio create_udp udp-0734ead3-14fb-4342-9c9a-3ccd17c22f9b 15005 127.0.0.1 15004 
Nov 26 22:08:10.955 HYPERVISOR: exec_cmd: vm slot_add_nio_binding ESW1 1 2 udp-0734ead3-14fb-4342-9c9a-3ccd17c22f9b 
Nov 26 22:08:10.957 HYPERVISOR: exec_cmd: vm get_status ESW1 
Nov 26 22:08:10.973 HYPERVISOR: exec_cmd: nio create_udp udp-a92597ac-d6f8-4ec4-aa28-98d7fc581e96 15006 127.0.0.1 15002 
Nov 26 22:08:10.973 HYPERVISOR: exec_cmd: vm slot_add_nio_binding ESW1 1 1 udp-a92597ac-d6f8-4ec4-aa28-98d7fc581e96 
Nov 26 22:08:10.974 HYPERVISOR: exec_cmd: vm get_status ESW1 
Nov 26 22:08:10.989 HYPERVISOR: exec_cmd: nio create_udp udp-7ca290f4-fa8d-4cfa-9923-ca473ac6c031 15007 127.0.0.1 15003 
Nov 26 22:08:10.989 HYPERVISOR: exec_cmd: vm slot_add_nio_binding ESW1 1 0 udp-7ca290f4-fa8d-4cfa-9923-ca473ac6c031 
Nov 26 22:08:10.990 HYPERVISOR: exec_cmd: vm get_status ESW1 
