Nov 26 20:12:28.794 HYPERVISOR: Release 0.2.17-amd64/Linux (tag 2017072410)
Nov 26 20:12:28.794 HYPERVISOR: Started on IP = 127.0.0.1, TCP port = 46947.
Nov 26 20:12:28.822 HYPERVISOR: exec_cmd: hypervisor version 
Nov 26 20:12:28.824 HYPERVISOR: exec_cmd: hypervisor working_dir /media/actionmystique/SAMSUNG5-VMs/Labs/GNS3/OSPF-EIGRP/project-files/dynamips 
Nov 26 20:12:28.824 GENERAL: working_dir=/media/actionmystique/SAMSUNG5-VMs/Labs/GNS3/OSPF-EIGRP/project-files/dynamips
Nov 26 20:12:28.829 HYPERVISOR: exec_cmd: vm create I105 18 c7200 
Nov 26 20:12:28.829 VM: VM I105 created.
Nov 26 20:12:28.839 HYPERVISOR: exec_cmd: vm set_con_tcp_port I105 2018 
Nov 26 20:12:28.842 HYPERVISOR: exec_cmd: vm set_aux_tcp_port I105 2118 
Nov 26 20:12:28.843 HYPERVISOR: exec_cmd: c7200 get_mac_addr I105 
Nov 26 20:12:28.844 HYPERVISOR: exec_cmd: vm get_status I105 
Nov 26 20:12:28.846 HYPERVISOR: exec_cmd: vm slot_add_binding I105 0 0 C7200-IO-FE 
Nov 26 20:12:28.854 HYPERVISOR: exec_cmd: vm set_ios I105 /media/actionmystique/SAMSUNG5-VMs/Images/GNS3/IOS/c7200-adventerprisek9-mz.152-4.M2.image 
Nov 26 20:12:28.863 HYPERVISOR: exec_cmd: vm get_status I105 
Nov 26 20:12:28.865 HYPERVISOR: exec_cmd: vm slot_add_binding I105 1 0 PA-8T 
Nov 26 20:12:28.868 HYPERVISOR: exec_cmd: vm get_status I105 
Nov 26 20:12:28.869 HYPERVISOR: exec_cmd: vm set_idle_pc I105 0x60188e14 
Nov 26 20:12:28.871 HYPERVISOR: exec_cmd: vm get_status I105 
Nov 26 20:12:28.872 HYPERVISOR: exec_cmd: vm slot_remove_binding I105 0 0 
Nov 26 20:12:28.873 HYPERVISOR: exec_cmd: vm get_status I105 
Nov 26 20:12:28.875 HYPERVISOR: exec_cmd: vm slot_add_binding I105 0 0 C7200-IO-GE-E 
Nov 26 20:12:28.882 HYPERVISOR: exec_cmd: vm set_ram I105 512 
Nov 26 20:12:28.893 HYPERVISOR: exec_cmd: vm set_config I105 configs/i18_startup-config.cfg 
Nov 26 20:12:29.955 HYPERVISOR: exec_cmd: vm extract_config I105 
Nov 26 20:12:30.553 HYPERVISOR: exec_cmd: nio create_udp udp-5c8a8a94-312b-459f-8905-29633485a39e 15057 127.0.0.1 15056 
Nov 26 20:12:30.555 HYPERVISOR: exec_cmd: vm slot_add_nio_binding I105 1 0 udp-5c8a8a94-312b-459f-8905-29633485a39e 
Nov 26 20:12:30.555 HYPERVISOR: exec_cmd: vm get_status I105 
Nov 26 20:12:30.572 HYPERVISOR: exec_cmd: nio create_udp udp-b8bdf429-0e57-40ca-881c-8b98da09e25e 15058 127.0.0.1 15060 
Nov 26 20:12:30.573 HYPERVISOR: exec_cmd: vm slot_add_nio_binding I105 1 1 udp-b8bdf429-0e57-40ca-881c-8b98da09e25e 
Nov 26 20:12:30.577 HYPERVISOR: exec_cmd: vm get_status I105 
Nov 26 20:12:30.628 HYPERVISOR: exec_cmd: nio create_udp udp-8ed84215-7d58-4a02-9548-83a794518c53 15065 127.0.0.1 15064 
Nov 26 20:12:30.631 HYPERVISOR: exec_cmd: vm slot_add_nio_binding I105 0 0 udp-8ed84215-7d58-4a02-9548-83a794518c53 
Nov 26 20:12:30.632 HYPERVISOR: exec_cmd: vm get_status I105 
Nov 26 20:14:16.139 HYPERVISOR: exec_cmd: vm get_status I105 
Nov 26 20:14:16.153 HYPERVISOR: exec_cmd: vm extract_config I105 
Nov 26 20:14:16.167 HYPERVISOR: exec_cmd: vm delete I105 
Nov 26 20:14:16.167 VM: VM I105 destroyed.
Nov 26 20:14:16.180 HYPERVISOR: exec_cmd: hypervisor stop 
Nov 26 20:14:16.416 HYPERVISOR: Stopped.
Nov 26 20:14:16.416 GENERAL: reset done.
