Nov 26 20:12:28.433 HYPERVISOR: Release 0.2.17-amd64/Linux (tag 2017072410)
Nov 26 20:12:28.433 HYPERVISOR: Started on IP = 127.0.0.1, TCP port = 51969.
Nov 26 20:12:28.454 HYPERVISOR: exec_cmd: hypervisor version 
Nov 26 20:12:28.456 HYPERVISOR: exec_cmd: hypervisor working_dir /media/actionmystique/SAMSUNG5-VMs/Labs/GNS3/OSPF-EIGRP/project-files/dynamips 
Nov 26 20:12:28.456 GENERAL: working_dir=/media/actionmystique/SAMSUNG5-VMs/Labs/GNS3/OSPF-EIGRP/project-files/dynamips
Nov 26 20:12:28.458 HYPERVISOR: exec_cmd: vm create ASBR3 4 c7200 
Nov 26 20:12:28.459 VM: VM ASBR3 created.
Nov 26 20:12:28.461 HYPERVISOR: exec_cmd: vm set_con_tcp_port ASBR3 2002 
Nov 26 20:12:28.462 HYPERVISOR: exec_cmd: vm set_aux_tcp_port ASBR3 2101 
Nov 26 20:12:28.463 HYPERVISOR: exec_cmd: c7200 get_mac_addr ASBR3 
Nov 26 20:12:28.464 HYPERVISOR: exec_cmd: vm get_status ASBR3 
Nov 26 20:12:28.465 HYPERVISOR: exec_cmd: vm slot_add_binding ASBR3 0 0 C7200-IO-FE 
Nov 26 20:12:28.466 HYPERVISOR: exec_cmd: vm set_ios ASBR3 /media/actionmystique/SAMSUNG5-VMs/Images/GNS3/IOS/c7200-adventerprisek9-mz.152-4.M2.image 
Nov 26 20:12:28.467 HYPERVISOR: exec_cmd: vm get_status ASBR3 
Nov 26 20:12:28.467 HYPERVISOR: exec_cmd: vm slot_add_binding ASBR3 1 0 PA-8T 
Nov 26 20:12:28.468 HYPERVISOR: exec_cmd: vm get_status ASBR3 
Nov 26 20:12:28.468 HYPERVISOR: exec_cmd: vm set_idle_pc ASBR3 0x60188e14 
Nov 26 20:12:28.468 HYPERVISOR: exec_cmd: vm get_status ASBR3 
Nov 26 20:12:28.469 HYPERVISOR: exec_cmd: vm slot_remove_binding ASBR3 0 0 
Nov 26 20:12:28.470 HYPERVISOR: exec_cmd: vm get_status ASBR3 
Nov 26 20:12:28.472 HYPERVISOR: exec_cmd: vm slot_add_binding ASBR3 0 0 C7200-IO-GE-E 
Nov 26 20:12:28.473 HYPERVISOR: exec_cmd: vm set_con_tcp_port ASBR3 2002 
Nov 26 20:12:28.474 HYPERVISOR: exec_cmd: vm set_ram ASBR3 512 
Nov 26 20:12:28.475 HYPERVISOR: exec_cmd: vm set_config ASBR3 configs/i4_startup-config.cfg 
Nov 26 20:12:29.832 HYPERVISOR: exec_cmd: nio create_udp udp-322eae30-fd8b-4a91-9432-e71d3a387e74 15000 127.0.0.1 15003 
Nov 26 20:12:29.836 HYPERVISOR: exec_cmd: vm slot_add_nio_binding ASBR3 1 0 udp-322eae30-fd8b-4a91-9432-e71d3a387e74 
Nov 26 20:12:29.838 HYPERVISOR: exec_cmd: vm get_status ASBR3 
Nov 26 20:12:29.928 HYPERVISOR: exec_cmd: nio create_udp udp-d15d0db7-9058-42ba-b755-117631fc6946 15001 127.0.0.1 15006 
Nov 26 20:12:29.929 HYPERVISOR: exec_cmd: vm slot_add_nio_binding ASBR3 0 0 udp-d15d0db7-9058-42ba-b755-117631fc6946 
Nov 26 20:12:29.930 HYPERVISOR: exec_cmd: vm get_status ASBR3 
Nov 26 20:12:29.953 HYPERVISOR: exec_cmd: vm extract_config ASBR3 
Nov 26 20:12:30.298 HYPERVISOR: exec_cmd: nio create_udp udp-bbb80f99-f1fc-47f3-b3c6-28e2b46da8da 15031 127.0.0.1 15033 
Nov 26 20:12:30.299 HYPERVISOR: exec_cmd: vm slot_add_nio_binding ASBR3 1 1 udp-bbb80f99-f1fc-47f3-b3c6-28e2b46da8da 
Nov 26 20:12:30.300 HYPERVISOR: exec_cmd: vm get_status ASBR3 
Nov 26 20:12:30.329 HYPERVISOR: exec_cmd: nio create_udp udp-58d7c3d1-4b74-4628-99bf-9ea7136088c9 15035 127.0.0.1 15034 
Nov 26 20:12:30.330 HYPERVISOR: exec_cmd: vm slot_add_nio_binding ASBR3 1 3 udp-58d7c3d1-4b74-4628-99bf-9ea7136088c9 
Nov 26 20:12:30.333 HYPERVISOR: exec_cmd: vm get_status ASBR3 
Nov 26 20:12:30.357 HYPERVISOR: exec_cmd: nio create_udp udp-78237dcd-ce58-4bd9-9114-ed9ca90126b2 15038 127.0.0.1 15040 
Nov 26 20:12:30.360 HYPERVISOR: exec_cmd: vm slot_add_nio_binding ASBR3 1 2 udp-78237dcd-ce58-4bd9-9114-ed9ca90126b2 
Nov 26 20:12:30.361 HYPERVISOR: exec_cmd: vm get_status ASBR3 
Nov 26 20:14:16.134 HYPERVISOR: exec_cmd: vm get_status ASBR3 
Nov 26 20:14:16.147 HYPERVISOR: exec_cmd: vm extract_config ASBR3 
Nov 26 20:14:16.163 HYPERVISOR: exec_cmd: vm delete ASBR3 
Nov 26 20:14:16.163 VM: VM ASBR3 destroyed.
Nov 26 20:14:16.175 HYPERVISOR: exec_cmd: hypervisor stop 
Nov 26 20:14:16.558 HYPERVISOR: Stopped.
Nov 26 20:14:16.558 GENERAL: reset done.
