Nov 29 15:24:55.748 HYPERVISOR: Release 0.2.17-amd64/Linux (tag 2017072410)
Nov 29 15:24:55.748 HYPERVISOR: Started on IP = 127.0.0.1, TCP port = 37371.
Nov 29 15:24:55.762 HYPERVISOR: exec_cmd: hypervisor version 
Nov 29 15:24:55.763 HYPERVISOR: exec_cmd: hypervisor working_dir /media/actionmystique/SAMSUNG5-VMs/Labs/GNS3/git-Public-Labs-Collection/CCNP/TBSHOOT/L3-Technologies/IPv4/Routing-Protocols/Redistribution/Jean-Christophe_Manciot/1+/TT 2-linux/project-files/dynamips 
Nov 29 15:24:55.763 GENERAL: working_dir=/media/actionmystique/SAMSUNG5-VMs/Labs/GNS3/git-Public-Labs-Collection/CCNP/TBSHOOT/L3-Technologies/IPv4/Routing-Protocols/Redistribution/Jean-Christophe_Manciot/1+/TT 2-linux/project-files/dynamips
Nov 29 15:24:55.764 HYPERVISOR: exec_cmd: vm create ESW1 1 c3725 
Nov 29 15:24:55.764 VM: VM ESW1 created.
Nov 29 15:24:55.767 HYPERVISOR: exec_cmd: vm set_con_tcp_port ESW1 2004 
Nov 29 15:24:55.768 HYPERVISOR: exec_cmd: c3725 get_mac_addr ESW1 
Nov 29 15:24:55.770 HYPERVISOR: exec_cmd: vm get_status ESW1 
Nov 29 15:24:55.771 HYPERVISOR: exec_cmd: vm set_idle_pc ESW1 0x614ac27c 
Nov 29 15:24:55.772 HYPERVISOR: exec_cmd: vm set_disk0 ESW1 1 
Nov 29 15:24:55.773 HYPERVISOR: exec_cmd: vm slot_add_binding ESW1 0 16 WIC-2T 
Nov 29 15:24:55.774 HYPERVISOR: exec_cmd: vm get_status ESW1 
Nov 29 15:24:55.776 HYPERVISOR: exec_cmd: vm slot_add_binding ESW1 1 0 NM-16ESW 
Nov 29 15:24:55.777 HYPERVISOR: exec_cmd: vm set_nvram ESW1 256 
Nov 29 15:24:55.783 HYPERVISOR: exec_cmd: vm set_ios ESW1 /media/actionmystique/SAMSUNG5-VMs/Images/GNS3/IOS/c3725-adventerprisek9-mz.124-15.T10.image 
Nov 29 15:24:55.788 HYPERVISOR: exec_cmd: c3725 set_mac_addr ESW1 c201.1b91.0000 
Nov 29 15:24:55.794 HYPERVISOR: exec_cmd: vm set_config ESW1 configs/ios_base_startup-config.txt 
Nov 29 15:24:55.796 HYPERVISOR: exec_cmd: vm set_config ESW1 configs/ios_base_startup-config.txt configs/ios_base_private-config.txt 
Nov 29 15:24:56.121 HYPERVISOR: exec_cmd: nio create_udp udp-c4fb50ea-aa7d-4cf2-9970-cb7a2738b26c 15013 127.0.0.1 15012 
Nov 29 15:24:56.121 HYPERVISOR: exec_cmd: vm slot_add_nio_binding ESW1 1 0 udp-c4fb50ea-aa7d-4cf2-9970-cb7a2738b26c 
Nov 29 15:24:56.121 HYPERVISOR: exec_cmd: vm get_status ESW1 
Nov 29 15:24:56.142 HYPERVISOR: exec_cmd: nio create_udp udp-99fa2718-ac1f-4ea2-8912-c5c52bf1cfd8 15015 127.0.0.1 15014 
Nov 29 15:24:56.143 HYPERVISOR: exec_cmd: vm slot_add_nio_binding ESW1 1 1 udp-99fa2718-ac1f-4ea2-8912-c5c52bf1cfd8 
Nov 29 15:24:56.143 HYPERVISOR: exec_cmd: vm get_status ESW1 
