Nov 28 08:37:53.943 HYPERVISOR: Release 0.2.17-amd64/Linux (tag 2017072410)
Nov 28 08:37:53.943 HYPERVISOR: Started on IP = 127.0.0.1, TCP port = 43199.
Nov 28 08:37:53.966 HYPERVISOR: exec_cmd: hypervisor version 
Nov 28 08:37:53.966 HYPERVISOR: exec_cmd: hypervisor working_dir /media/actionmystique/SAMSUNG5-VMs/Labs/GNS3/TT 3-linux-/project-files/dynamips 
Nov 28 08:37:53.966 GENERAL: working_dir=/media/actionmystique/SAMSUNG5-VMs/Labs/GNS3/TT 3-linux-/project-files/dynamips
Nov 28 08:37:53.967 HYPERVISOR: exec_cmd: vm create ESW3 3 c3725 
Nov 28 08:37:53.967 VM: VM ESW3 created.
Nov 28 08:37:53.967 HYPERVISOR: exec_cmd: vm set_con_tcp_port ESW3 2006 
Nov 28 08:37:53.967 HYPERVISOR: exec_cmd: c3725 get_mac_addr ESW3 
Nov 28 08:37:53.968 HYPERVISOR: exec_cmd: vm set_disk0 ESW3 1 
Nov 28 08:37:53.968 HYPERVISOR: exec_cmd: vm get_status ESW3 
Nov 28 08:37:53.968 HYPERVISOR: exec_cmd: vm slot_add_binding ESW3 1 0 NM-16ESW 
Nov 28 08:37:53.969 HYPERVISOR: exec_cmd: vm set_ios ESW3 /media/actionmystique/SAMSUNG5-VMs/Images/GNS3/IOS/c3725-adventerprisek9-mz.124-15.T10.image 
Nov 28 08:37:53.969 HYPERVISOR: exec_cmd: c3725 set_mac_addr ESW3 c203.1bfb.0000 
Nov 28 08:37:53.969 HYPERVISOR: exec_cmd: vm slot_add_binding ESW3 0 16 WIC-2T 
Nov 28 08:37:53.970 HYPERVISOR: exec_cmd: vm get_status ESW3 
Nov 28 08:37:53.970 HYPERVISOR: exec_cmd: vm set_idle_pc ESW3 0x614ac27c 
Nov 28 08:37:53.970 HYPERVISOR: exec_cmd: vm set_nvram ESW3 256 
Nov 28 08:37:53.971 HYPERVISOR: exec_cmd: vm set_config ESW3 configs/ios_base_startup-config.txt 
Nov 28 08:37:53.971 HYPERVISOR: exec_cmd: vm set_config ESW3 configs/ios_base_startup-config.txt configs/ios_base_private-config.txt 
Nov 28 08:37:54.103 HYPERVISOR: exec_cmd: nio create_tap tap-e1ce5677-3948-4c71-9bbf-acfd701a0669 tap0 
Nov 28 08:37:54.106 HYPERVISOR: exec_cmd: vm slot_add_nio_binding ESW3 1 1 tap-e1ce5677-3948-4c71-9bbf-acfd701a0669 
Nov 28 08:37:54.107 HYPERVISOR: exec_cmd: vm get_status ESW3 
Nov 28 08:37:54.219 HYPERVISOR: exec_cmd: nio create_udp udp-31999953-1618-45e3-b243-0e9b24933a5e 15011 127.0.0.1 15010 
Nov 28 08:37:54.220 HYPERVISOR: exec_cmd: vm slot_add_nio_binding ESW3 1 0 udp-31999953-1618-45e3-b243-0e9b24933a5e 
Nov 28 08:37:54.220 HYPERVISOR: exec_cmd: vm get_status ESW3 
Nov 28 08:38:06.197 HYPERVISOR: exec_cmd: vm get_status ESW3 
Nov 28 08:38:06.198 HYPERVISOR: exec_cmd: vm extract_config ESW3 
Nov 28 08:38:06.201 HYPERVISOR: exec_cmd: vm delete ESW3 
Nov 28 08:38:06.201 VM: VM ESW3 destroyed.
Nov 28 08:38:06.206 HYPERVISOR: exec_cmd: hypervisor stop 
Nov 28 08:38:06.473 HYPERVISOR: Stopped.
Nov 28 08:38:06.473 GENERAL: reset done.
