Nov 28 08:37:28.643 HYPERVISOR: Release 0.2.17-amd64/Linux (tag 2017072410)
Nov 28 08:37:28.643 HYPERVISOR: Started on IP = 127.0.0.1, TCP port = 48761.
Nov 28 08:37:28.650 HYPERVISOR: exec_cmd: hypervisor version 
Nov 28 08:37:28.650 HYPERVISOR: exec_cmd: hypervisor working_dir /media/actionmystique/SAMSUNG5-VMs/Labs/GNS3/git-Public-Labs-Collection/CCNP/TBSHOOT/L3-Technologies/IPv4/Routing-Protocols/EIGRP/Jean-Christophe_Manciot/1+/TT 3-linux/project-files/dynamips 
Nov 28 08:37:28.650 GENERAL: working_dir=/media/actionmystique/SAMSUNG5-VMs/Labs/GNS3/git-Public-Labs-Collection/CCNP/TBSHOOT/L3-Technologies/IPv4/Routing-Protocols/EIGRP/Jean-Christophe_Manciot/1+/TT 3-linux/project-files/dynamips
Nov 28 08:37:28.651 HYPERVISOR: exec_cmd: vm create ESW1 1 c3725 
Nov 28 08:37:28.651 VM: VM ESW1 created.
Nov 28 08:37:28.651 HYPERVISOR: exec_cmd: vm set_con_tcp_port ESW1 2004 
Nov 28 08:37:28.651 HYPERVISOR: exec_cmd: c3725 get_mac_addr ESW1 
Nov 28 08:37:28.652 HYPERVISOR: exec_cmd: vm set_disk0 ESW1 1 
Nov 28 08:37:28.652 HYPERVISOR: exec_cmd: vm set_ios ESW1 /media/actionmystique/SAMSUNG5-VMs/Images/GNS3/IOS/c3725-adventerprisek9-mz.124-15.T10.image 
Nov 28 08:37:28.653 HYPERVISOR: exec_cmd: c3725 set_mac_addr ESW1 c201.1b91.0000 
Nov 28 08:37:28.653 HYPERVISOR: exec_cmd: vm get_status ESW1 
Nov 28 08:37:28.654 HYPERVISOR: exec_cmd: vm set_idle_pc ESW1 0x614ac27c 
Nov 28 08:37:28.654 HYPERVISOR: exec_cmd: vm get_status ESW1 
Nov 28 08:37:28.654 HYPERVISOR: exec_cmd: vm slot_add_binding ESW1 1 0 NM-16ESW 
Nov 28 08:37:28.655 HYPERVISOR: exec_cmd: vm slot_add_binding ESW1 0 16 WIC-2T 
Nov 28 08:37:28.655 HYPERVISOR: exec_cmd: vm set_nvram ESW1 256 
Nov 28 08:37:28.656 HYPERVISOR: exec_cmd: vm set_config ESW1 configs/ios_base_startup-config.txt 
Nov 28 08:37:28.657 HYPERVISOR: exec_cmd: vm set_config ESW1 configs/ios_base_startup-config.txt configs/ios_base_private-config.txt 
Nov 28 08:37:28.744 HYPERVISOR: exec_cmd: nio create_udp udp-53c2b6b8-0076-4be5-85b2-85f47e5fbba4 15004 127.0.0.1 15006 
Nov 28 08:37:28.745 HYPERVISOR: exec_cmd: vm slot_add_nio_binding ESW1 1 0 udp-53c2b6b8-0076-4be5-85b2-85f47e5fbba4 
Nov 28 08:37:28.746 HYPERVISOR: exec_cmd: vm get_status ESW1 
Nov 28 08:37:28.820 HYPERVISOR: exec_cmd: nio create_udp udp-746326fd-575f-4b1f-8d7f-2650b88121af 15007 127.0.0.1 15005 
Nov 28 08:37:28.821 HYPERVISOR: exec_cmd: vm slot_add_nio_binding ESW1 1 1 udp-746326fd-575f-4b1f-8d7f-2650b88121af 
Nov 28 08:37:28.822 HYPERVISOR: exec_cmd: vm get_status ESW1 
