Nov 28 08:36:16.852 HYPERVISOR: Release 0.2.17-amd64/Linux (tag 2017072410)
Nov 28 08:36:16.852 HYPERVISOR: Started on IP = 127.0.0.1, TCP port = 34501.
Nov 28 08:36:16.870 HYPERVISOR: exec_cmd: hypervisor version 
Nov 28 08:36:16.871 HYPERVISOR: exec_cmd: hypervisor working_dir /media/actionmystique/SAMSUNG5-VMs/Labs/GNS3/git-Public-Labs-Collection/CCNP/TBSHOOT/L3-Technologies/IPv4/Routing-Protocols/EIGRP/Jean-Christophe_Manciot/1+/TT 2-linux/project-files/dynamips 
Nov 28 08:36:16.871 GENERAL: working_dir=/media/actionmystique/SAMSUNG5-VMs/Labs/GNS3/git-Public-Labs-Collection/CCNP/TBSHOOT/L3-Technologies/IPv4/Routing-Protocols/EIGRP/Jean-Christophe_Manciot/1+/TT 2-linux/project-files/dynamips
Nov 28 08:36:16.872 HYPERVISOR: exec_cmd: vm create ESW2 2 c3725 
Nov 28 08:36:16.872 VM: VM ESW2 created.
Nov 28 08:36:16.872 HYPERVISOR: exec_cmd: vm set_con_tcp_port ESW2 2005 
Nov 28 08:36:16.873 HYPERVISOR: exec_cmd: c3725 get_mac_addr ESW2 
Nov 28 08:36:16.874 HYPERVISOR: exec_cmd: vm set_disk0 ESW2 1 
Nov 28 08:36:16.874 HYPERVISOR: exec_cmd: vm set_ios ESW2 /media/actionmystique/SAMSUNG5-VMs/Images/GNS3/IOS/c3725-adventerprisek9-mz.124-15.T10.image 
Nov 28 08:36:16.875 HYPERVISOR: exec_cmd: c3725 set_mac_addr ESW2 c202.1bd4.0000 
Nov 28 08:36:16.876 HYPERVISOR: exec_cmd: vm get_status ESW2 
Nov 28 08:36:16.877 HYPERVISOR: exec_cmd: vm set_idle_pc ESW2 0x614ac27c 
Nov 28 08:36:16.877 HYPERVISOR: exec_cmd: vm get_status ESW2 
Nov 28 08:36:16.878 HYPERVISOR: exec_cmd: vm slot_add_binding ESW2 1 0 NM-16ESW 
Nov 28 08:36:16.878 HYPERVISOR: exec_cmd: vm slot_add_binding ESW2 0 16 WIC-2T 
Nov 28 08:36:16.879 HYPERVISOR: exec_cmd: vm set_nvram ESW2 256 
Nov 28 08:36:16.880 HYPERVISOR: exec_cmd: vm set_config ESW2 configs/ios_base_startup-config.txt 
Nov 28 08:36:16.881 HYPERVISOR: exec_cmd: vm set_config ESW2 configs/ios_base_startup-config.txt configs/ios_base_private-config.txt 
Nov 28 08:36:17.008 HYPERVISOR: exec_cmd: nio create_udp udp-f1eb0931-2cc3-4f07-978b-06b3f5270be0 15009 127.0.0.1 15008 
Nov 28 08:36:17.012 HYPERVISOR: exec_cmd: vm slot_add_nio_binding ESW2 1 0 udp-f1eb0931-2cc3-4f07-978b-06b3f5270be0 
Nov 28 08:36:17.012 HYPERVISOR: exec_cmd: vm get_status ESW2 
