Nov 27 16:21:47.855 HYPERVISOR: Release 0.2.17-amd64/Linux (tag 2017072410)
Nov 27 16:21:47.855 HYPERVISOR: Started on IP = 127.0.0.1, TCP port = 59469.
Nov 27 16:21:47.875 HYPERVISOR: exec_cmd: hypervisor version 
Nov 27 16:21:47.876 HYPERVISOR: exec_cmd: hypervisor working_dir /media/actionmystique/SAMSUNG5-VMs/Labs/GNS3/TT 2-solutions-linux-/project-files/dynamips 
Nov 27 16:21:47.876 GENERAL: working_dir=/media/actionmystique/SAMSUNG5-VMs/Labs/GNS3/TT 2-solutions-linux-/project-files/dynamips
Nov 27 16:21:47.877 HYPERVISOR: exec_cmd: vm create SW1 1 c3725 
Nov 27 16:21:47.877 VM: VM SW1 created.
Nov 27 16:21:47.878 HYPERVISOR: exec_cmd: vm set_con_tcp_port SW1 2001 
Nov 27 16:21:47.878 HYPERVISOR: exec_cmd: c3725 get_mac_addr SW1 
Nov 27 16:21:47.879 HYPERVISOR: exec_cmd: vm set_nvram SW1 256 
Nov 27 16:21:47.880 HYPERVISOR: exec_cmd: vm get_status SW1 
Nov 27 16:21:47.881 HYPERVISOR: exec_cmd: vm set_idle_pc SW1 0x60c056e4 
Nov 27 16:21:47.882 HYPERVISOR: exec_cmd: c3725 set_mac_addr SW1 aaaa.aaaa.aaaa 
Nov 27 16:21:47.883 HYPERVISOR: exec_cmd: vm set_exec_area SW1 16 
Nov 27 16:21:47.884 HYPERVISOR: exec_cmd: vm get_status SW1 
Nov 27 16:21:47.885 HYPERVISOR: exec_cmd: vm slot_add_binding SW1 1 0 NM-16ESW 
Nov 27 16:21:47.886 HYPERVISOR: exec_cmd: vm set_disk0 SW1 1 
Nov 27 16:21:47.887 HYPERVISOR: exec_cmd: vm set_ios SW1 /media/actionmystique/SAMSUNG5-VMs/Images/GNS3/IOS/c3725-adventerprisek9-mz.124-15.T10.image 
Nov 27 16:21:47.888 HYPERVISOR: exec_cmd: vm slot_add_binding SW1 0 16 WIC-2T 
Nov 27 16:21:47.890 HYPERVISOR: exec_cmd: vm set_config SW1 configs/i1_startup-config.cfg 
Nov 27 16:21:47.891 HYPERVISOR: exec_cmd: vm set_config SW1 configs/i1_startup-config.cfg configs/i1_private-config.cfg 
Nov 27 16:21:48.117 HYPERVISOR: exec_cmd: nio create_udp udp-2790727e-73cd-49e5-9a04-b4d2c4d39fb2 15006 127.0.0.1 15005 
Nov 27 16:21:48.117 HYPERVISOR: exec_cmd: vm slot_add_nio_binding SW1 1 1 udp-2790727e-73cd-49e5-9a04-b4d2c4d39fb2 
Nov 27 16:21:48.118 HYPERVISOR: exec_cmd: vm get_status SW1 
Nov 27 16:21:48.151 HYPERVISOR: exec_cmd: nio create_udp udp-f73c6697-5f98-4345-ac18-23540f3aa375 15008 127.0.0.1 15009 
Nov 27 16:21:48.152 HYPERVISOR: exec_cmd: vm slot_add_nio_binding SW1 1 5 udp-f73c6697-5f98-4345-ac18-23540f3aa375 
Nov 27 16:21:48.152 HYPERVISOR: exec_cmd: vm get_status SW1 
Nov 27 16:21:48.177 HYPERVISOR: exec_cmd: nio create_udp udp-e356937d-a2f2-4063-83cf-30f4a95a9e7f 15012 127.0.0.1 15011 
Nov 27 16:21:48.177 HYPERVISOR: exec_cmd: vm slot_add_nio_binding SW1 0 0 udp-e356937d-a2f2-4063-83cf-30f4a95a9e7f 
Nov 27 16:21:48.178 HYPERVISOR: exec_cmd: vm get_status SW1 
Nov 27 16:21:48.201 HYPERVISOR: exec_cmd: nio create_udp udp-4afdbd15-0f57-4f35-a474-34d9855c5c0d 15010 127.0.0.1 15013 
Nov 27 16:21:48.201 HYPERVISOR: exec_cmd: vm slot_add_nio_binding SW1 1 0 udp-4afdbd15-0f57-4f35-a474-34d9855c5c0d 
Nov 27 16:21:48.202 HYPERVISOR: exec_cmd: vm get_status SW1 
Nov 27 16:22:03.941 HYPERVISOR: exec_cmd: vm get_status SW1 
Nov 27 16:22:03.943 HYPERVISOR: exec_cmd: vm extract_config SW1 
Nov 27 16:22:03.946 HYPERVISOR: exec_cmd: vm delete SW1 
Nov 27 16:22:03.946 VM: VM SW1 destroyed.
Nov 27 16:22:03.948 HYPERVISOR: exec_cmd: hypervisor stop 
Nov 27 16:22:04.389 HYPERVISOR: Stopped.
Nov 27 16:22:04.389 GENERAL: reset done.
