Nov 27 16:22:47.871 HYPERVISOR: Release 0.2.17-amd64/Linux (tag 2017072410)
Nov 27 16:22:47.871 HYPERVISOR: Started on IP = 127.0.0.1, TCP port = 43215.
Nov 27 16:22:47.892 HYPERVISOR: exec_cmd: hypervisor version 
Nov 27 16:22:47.893 HYPERVISOR: exec_cmd: hypervisor working_dir /media/actionmystique/SAMSUNG5-VMs/Labs/GNS3/git-Public-Labs-Collection/CCNP/TBSHOOT/L3-Technologies/IPv4/High-Availability/VRRP/Jean-Christophe_Manciot/1+/TT 1-linux/project-files/dynamips 
Nov 27 16:22:47.893 GENERAL: working_dir=/media/actionmystique/SAMSUNG5-VMs/Labs/GNS3/git-Public-Labs-Collection/CCNP/TBSHOOT/L3-Technologies/IPv4/High-Availability/VRRP/Jean-Christophe_Manciot/1+/TT 1-linux/project-files/dynamips
Nov 27 16:22:47.894 HYPERVISOR: exec_cmd: vm create SW3 3 c3725 
Nov 27 16:22:47.894 VM: VM SW3 created.
Nov 27 16:22:47.894 HYPERVISOR: exec_cmd: vm set_con_tcp_port SW3 2003 
Nov 27 16:22:47.895 HYPERVISOR: exec_cmd: c3725 get_mac_addr SW3 
Nov 27 16:22:47.896 HYPERVISOR: exec_cmd: vm set_nvram SW3 256 
Nov 27 16:22:47.896 HYPERVISOR: exec_cmd: vm get_status SW3 
Nov 27 16:22:47.897 HYPERVISOR: exec_cmd: vm set_idle_pc SW3 0x60c056e4 
Nov 27 16:22:47.898 HYPERVISOR: exec_cmd: c3725 set_mac_addr SW3 cccc.cccc.cccc 
Nov 27 16:22:47.898 HYPERVISOR: exec_cmd: vm set_exec_area SW3 16 
Nov 27 16:22:47.899 HYPERVISOR: exec_cmd: vm get_status SW3 
Nov 27 16:22:47.900 HYPERVISOR: exec_cmd: vm slot_add_binding SW3 1 0 NM-16ESW 
Nov 27 16:22:47.900 HYPERVISOR: exec_cmd: vm set_ios SW3 /media/actionmystique/SAMSUNG5-VMs/Images/GNS3/IOS/c3725-adventerprisek9-mz.124-15.T10.image 
Nov 27 16:22:47.901 HYPERVISOR: exec_cmd: vm slot_add_binding SW3 0 16 WIC-2T 
Nov 27 16:22:47.902 HYPERVISOR: exec_cmd: vm set_disk0 SW3 1 
Nov 27 16:22:47.905 HYPERVISOR: exec_cmd: vm set_config SW3 configs/i3_startup-config.cfg 
Nov 27 16:22:47.907 HYPERVISOR: exec_cmd: vm set_config SW3 configs/i3_startup-config.cfg configs/i3_private-config.cfg 
Nov 27 16:22:48.099 HYPERVISOR: exec_cmd: nio create_udp udp-ec244555-4d9b-45cd-ab33-b51ce78a4b4f 15002 127.0.0.1 15001 
Nov 27 16:22:48.100 HYPERVISOR: exec_cmd: vm slot_add_nio_binding SW3 1 6 udp-ec244555-4d9b-45cd-ab33-b51ce78a4b4f 
Nov 27 16:22:48.101 HYPERVISOR: exec_cmd: vm get_status SW3 
Nov 27 16:22:48.109 HYPERVISOR: exec_cmd: nio create_udp udp-97e5600b-15e4-4237-92c5-b5f197d8fd3b 15000 127.0.0.1 15004 
Nov 27 16:22:48.111 HYPERVISOR: exec_cmd: vm slot_add_nio_binding SW3 1 5 udp-97e5600b-15e4-4237-92c5-b5f197d8fd3b 
Nov 27 16:22:48.111 HYPERVISOR: exec_cmd: vm get_status SW3 
Nov 27 16:22:48.119 HYPERVISOR: exec_cmd: nio create_udp udp-2b7b0837-3f8f-49e8-8dc8-de5b5e3448e1 15003 127.0.0.1 15005 
Nov 27 16:22:48.120 HYPERVISOR: exec_cmd: vm slot_add_nio_binding SW3 1 1 udp-2b7b0837-3f8f-49e8-8dc8-de5b5e3448e1 
Nov 27 16:22:48.121 HYPERVISOR: exec_cmd: vm get_status SW3 
Nov 27 16:22:48.204 HYPERVISOR: exec_cmd: nio create_udp udp-863c38cb-5f87-459a-a2fd-91557b9512c7 15010 127.0.0.1 15013 
Nov 27 16:22:48.205 HYPERVISOR: exec_cmd: vm slot_add_nio_binding SW3 1 2 udp-863c38cb-5f87-459a-a2fd-91557b9512c7 
Nov 27 16:22:48.205 HYPERVISOR: exec_cmd: vm get_status SW3 
