Nov 27 16:22:47.934 HYPERVISOR: Release 0.2.17-amd64/Linux (tag 2017072410)
Nov 27 16:22:47.934 HYPERVISOR: Started on IP = 127.0.0.1, TCP port = 57165.
Nov 27 16:22:47.948 HYPERVISOR: exec_cmd: hypervisor version 
Nov 27 16:22:47.948 HYPERVISOR: exec_cmd: hypervisor working_dir /media/actionmystique/SAMSUNG5-VMs/Labs/GNS3/git-Public-Labs-Collection/CCNP/TBSHOOT/L3-Technologies/IPv4/High-Availability/VRRP/Jean-Christophe_Manciot/1+/TT 1-linux/project-files/dynamips 
Nov 27 16:22:47.948 GENERAL: working_dir=/media/actionmystique/SAMSUNG5-VMs/Labs/GNS3/git-Public-Labs-Collection/CCNP/TBSHOOT/L3-Technologies/IPv4/High-Availability/VRRP/Jean-Christophe_Manciot/1+/TT 1-linux/project-files/dynamips
Nov 27 16:22:47.949 HYPERVISOR: exec_cmd: vm create SW2 2 c3725 
Nov 27 16:22:47.949 VM: VM SW2 created.
Nov 27 16:22:47.949 HYPERVISOR: exec_cmd: vm set_con_tcp_port SW2 2002 
Nov 27 16:22:47.949 HYPERVISOR: exec_cmd: c3725 get_mac_addr SW2 
Nov 27 16:22:47.950 HYPERVISOR: exec_cmd: vm set_nvram SW2 256 
Nov 27 16:22:47.950 HYPERVISOR: exec_cmd: vm get_status SW2 
Nov 27 16:22:47.951 HYPERVISOR: exec_cmd: vm set_idle_pc SW2 0x60c056e4 
Nov 27 16:22:47.951 HYPERVISOR: exec_cmd: c3725 set_mac_addr SW2 eeee.eeee.eeee 
Nov 27 16:22:47.951 HYPERVISOR: exec_cmd: vm set_exec_area SW2 16 
Nov 27 16:22:47.952 HYPERVISOR: exec_cmd: vm get_status SW2 
Nov 27 16:22:47.952 HYPERVISOR: exec_cmd: vm slot_add_binding SW2 1 0 NM-16ESW 
Nov 27 16:22:47.953 HYPERVISOR: exec_cmd: vm set_ios SW2 /media/actionmystique/SAMSUNG5-VMs/Images/GNS3/IOS/c3725-adventerprisek9-mz.124-15.T10.image 
Nov 27 16:22:47.953 HYPERVISOR: exec_cmd: vm slot_add_binding SW2 0 16 WIC-2T 
Nov 27 16:22:47.953 HYPERVISOR: exec_cmd: vm set_disk0 SW2 1 
Nov 27 16:22:47.954 HYPERVISOR: exec_cmd: vm set_config SW2 configs/i2_startup-config.cfg 
Nov 27 16:22:47.955 HYPERVISOR: exec_cmd: vm set_config SW2 configs/i2_startup-config.cfg configs/i2_private-config.cfg 
Nov 27 16:22:48.163 HYPERVISOR: exec_cmd: nio create_udp udp-bc8e08e2-39f2-450c-bf8e-d70c96ebdd0e 15008 127.0.0.1 15009 
Nov 27 16:22:48.164 HYPERVISOR: exec_cmd: vm slot_add_nio_binding SW2 1 0 udp-bc8e08e2-39f2-450c-bf8e-d70c96ebdd0e 
Nov 27 16:22:48.164 HYPERVISOR: exec_cmd: vm get_status SW2 
Nov 27 16:22:48.197 HYPERVISOR: exec_cmd: nio create_udp udp-c607aed4-4906-4050-b60e-3b02aba7466c 15011 127.0.0.1 15012 
Nov 27 16:22:48.197 HYPERVISOR: exec_cmd: vm slot_add_nio_binding SW2 1 1 udp-c607aed4-4906-4050-b60e-3b02aba7466c 
Nov 27 16:22:48.198 HYPERVISOR: exec_cmd: vm get_status SW2 
Nov 27 16:22:48.213 HYPERVISOR: exec_cmd: nio create_udp udp-f3bed6d9-5189-4bd7-9bfd-7ccb5eaab1b8 15013 127.0.0.1 15010 
Nov 27 16:22:48.213 HYPERVISOR: exec_cmd: vm slot_add_nio_binding SW2 1 2 udp-f3bed6d9-5189-4bd7-9bfd-7ccb5eaab1b8 
Nov 27 16:22:48.214 HYPERVISOR: exec_cmd: vm get_status SW2 
