Nov 27 16:22:47.906 HYPERVISOR: Release 0.2.17-amd64/Linux (tag 2017072410)
Nov 27 16:22:47.906 HYPERVISOR: Started on IP = 127.0.0.1, TCP port = 49007.
Nov 27 16:22:47.932 HYPERVISOR: exec_cmd: hypervisor version 
Nov 27 16:22:47.932 HYPERVISOR: exec_cmd: hypervisor working_dir /media/actionmystique/SAMSUNG5-VMs/Labs/GNS3/git-Public-Labs-Collection/CCNP/TBSHOOT/L3-Technologies/IPv4/High-Availability/VRRP/Jean-Christophe_Manciot/1+/TT 1-linux/project-files/dynamips 
Nov 27 16:22:47.932 GENERAL: working_dir=/media/actionmystique/SAMSUNG5-VMs/Labs/GNS3/git-Public-Labs-Collection/CCNP/TBSHOOT/L3-Technologies/IPv4/High-Availability/VRRP/Jean-Christophe_Manciot/1+/TT 1-linux/project-files/dynamips
Nov 27 16:22:47.932 HYPERVISOR: exec_cmd: vm create Core 4 c3725 
Nov 27 16:22:47.932 VM: VM Core created.
Nov 27 16:22:47.933 HYPERVISOR: exec_cmd: vm set_con_tcp_port Core 2005 
Nov 27 16:22:47.933 HYPERVISOR: exec_cmd: c3725 get_mac_addr Core 
Nov 27 16:22:47.933 HYPERVISOR: exec_cmd: vm set_ram Core 256 
Nov 27 16:22:47.934 HYPERVISOR: exec_cmd: vm set_nvram Core 256 
Nov 27 16:22:47.934 HYPERVISOR: exec_cmd: vm get_status Core 
Nov 27 16:22:47.935 HYPERVISOR: exec_cmd: vm set_idle_pc Core 0x60c056e4 
Nov 27 16:22:47.935 HYPERVISOR: exec_cmd: c3725 set_mac_addr Core c204.0c3e.0000 
Nov 27 16:22:47.936 HYPERVISOR: exec_cmd: vm get_status Core 
Nov 27 16:22:47.936 HYPERVISOR: exec_cmd: vm slot_add_binding Core 1 0 NM-16ESW 
Nov 27 16:22:47.936 HYPERVISOR: exec_cmd: vm set_ios Core /media/actionmystique/SAMSUNG5-VMs/Images/GNS3/IOS/c3725-adventerprisek9-mz.124-15.T10.image 
Nov 27 16:22:47.937 HYPERVISOR: exec_cmd: vm slot_add_binding Core 0 16 WIC-2T 
Nov 27 16:22:47.937 HYPERVISOR: exec_cmd: vm set_disk0 Core 1 
Nov 27 16:22:47.938 HYPERVISOR: exec_cmd: vm set_config Core configs/i4_startup-config.cfg 
Nov 27 16:22:47.938 HYPERVISOR: exec_cmd: vm set_config Core configs/i4_startup-config.cfg configs/i4_private-config.cfg 
Nov 27 16:22:48.128 HYPERVISOR: exec_cmd: nio create_udp udp-4e2276c5-578e-4f21-901f-9596442ad658 15005 127.0.0.1 15003 
Nov 27 16:22:48.129 HYPERVISOR: exec_cmd: vm slot_add_nio_binding Core 1 1 udp-4e2276c5-578e-4f21-901f-9596442ad658 
Nov 27 16:22:48.129 HYPERVISOR: exec_cmd: vm get_status Core 
Nov 27 16:22:48.156 HYPERVISOR: exec_cmd: nio create_udp udp-a17bbdda-6e22-40f0-80ae-065225d38b10 15006 127.0.0.1 15007 
Nov 27 16:22:48.157 HYPERVISOR: exec_cmd: vm slot_add_nio_binding Core 1 0 udp-a17bbdda-6e22-40f0-80ae-065225d38b10 
Nov 27 16:22:48.157 HYPERVISOR: exec_cmd: vm get_status Core 
