Apr 11 14:04:21.731 HYPERVISOR: Release 0.2.14-amd64/Linux (tag 2014092320)
Apr 11 14:04:21.731 HYPERVISOR: Started on IP = 127.0.0.1, TCP port = 7200.
Apr 11 14:04:21.736 HYPERVISOR: exec_cmd: hypervisor version 
Apr 11 14:04:21.736 HYPERVISOR: exec_cmd: hypervisor uuid 
Apr 11 14:04:21.737 HYPERVISOR: exec_cmd: hypervisor working_dir /home/actionmystique/Google Drive/Missions/Certifications/Cisco/Labs/GNS3/CCNP/TBSHOOT/L3 Technologies/Routing/Jean-Christophe/1+/Routed Port/TT 1-linux/TT 1-linux-files/dynamips 
Apr 11 14:04:21.737 GENERAL: working_dir=/home/actionmystique/Google Drive/Missions/Certifications/Cisco/Labs/GNS3/CCNP/TBSHOOT/L3 Technologies/Routing/Jean-Christophe/1+/Routed Port/TT 1-linux/TT 1-linux-files/dynamips
Apr 11 14:04:21.737 HYPERVISOR: exec_cmd: vm create ESW1 1 c3725 
Apr 11 14:04:21.737 VM: VM ESW1 created.
Apr 11 14:04:21.737 HYPERVISOR: exec_cmd: vm set_con_tcp_port ESW1 2001 
Apr 11 14:04:21.737 HYPERVISOR: exec_cmd: vm set_aux_tcp_port ESW1 2501 
Apr 11 14:04:21.737 HYPERVISOR: exec_cmd: c3725 get_mac_addr ESW1 
Apr 11 14:04:21.738 HYPERVISOR: exec_cmd: vm set_ios ESW1 /media/actionmystique/SAMSUNG-Ext4/Images/GNS3/IOS/c3725-adventerprisek9-mz.124-15.T10.image 
Apr 11 14:04:21.738 HYPERVISOR: exec_cmd: vm set_sparse_mem ESW1 1 
Apr 11 14:04:21.738 HYPERVISOR: exec_cmd: vm set_ram_mmap ESW1 1 
Apr 11 14:04:21.738 HYPERVISOR: exec_cmd: c3725 set_mac_addr ESW1 c201.3297.0000 
Apr 11 14:04:21.738 HYPERVISOR: exec_cmd: vm create Ghost 0 c7200 
Apr 11 14:04:21.738 VM: VM Ghost created.
Apr 11 14:04:21.738 HYPERVISOR: exec_cmd: vm set_ios Ghost /media/actionmystique/SAMSUNG-Ext4/Images/GNS3/IOS/c3725-adventerprisek9-mz.124-15.T10.image 
Apr 11 14:04:21.738 HYPERVISOR: exec_cmd: vm set_ghost_status Ghost 1 
Apr 11 14:04:21.739 HYPERVISOR: exec_cmd: vm set_ghost_file Ghost c3725-adventerprisek9-mz.124-15.T10.image-128.ghost 
Apr 11 14:04:21.739 HYPERVISOR: exec_cmd: vm get_status Ghost 
Apr 11 14:04:21.741 HYPERVISOR: exec_cmd: vm start Ghost 
Apr 11 14:04:22.288 HYPERVISOR: exec_cmd: vm get_status Ghost 
Apr 11 14:04:22.288 HYPERVISOR: exec_cmd: vm stop Ghost 
Apr 11 14:04:22.416 VM: VM Ghost shutdown.
Apr 11 14:04:22.417 HYPERVISOR: exec_cmd: vm clean_delete Ghost 
Apr 11 14:04:22.417 VM: VM Ghost destroyed.
Apr 11 14:04:22.418 HYPERVISOR: exec_cmd: vm set_ghost_status ESW1 2 
Apr 11 14:04:22.418 HYPERVISOR: exec_cmd: vm set_ghost_file ESW1 c3725-adventerprisek9-mz.124-15.T10.image-128.ghost 
Apr 11 14:04:22.445 HYPERVISOR: exec_cmd: vm set_config ESW1 configs/i1_startup-config.cfg 
Apr 11 14:04:22.445 HYPERVISOR: exec_cmd: vm set_config ESW1 configs/i1_startup-config.cfg configs/i1_private-config.cfg 
Apr 11 14:04:22.445 HYPERVISOR: exec_cmd: vm set_nvram ESW1 256 
Apr 11 14:04:22.446 HYPERVISOR: exec_cmd: vm get_status ESW1 
Apr 11 14:04:22.446 HYPERVISOR: exec_cmd: vm set_idle_pc ESW1 0x614ac2c4 
Apr 11 14:04:22.446 HYPERVISOR: exec_cmd: vm get_status ESW1 
Apr 11 14:04:22.446 HYPERVISOR: exec_cmd: vm slot_add_binding ESW1 1 0 NM-16ESW 
Apr 11 14:04:22.446 HYPERVISOR: exec_cmd: vm get_status ESW1 
Apr 11 14:04:22.446 HYPERVISOR: exec_cmd: vm slot_add_binding ESW1 0 16 WIC-2T 
Apr 11 14:04:22.446 HYPERVISOR: exec_cmd: vm set_disk0 ESW1 1 
Apr 11 14:04:22.459 HYPERVISOR: exec_cmd: nio create_udp_auto nio_udp_auto0 127.0.0.1 10001 20000 
Apr 11 14:04:22.460 HYPERVISOR: exec_cmd: nio create_udp_auto nio_udp_auto1 127.0.0.1 10001 20000 
Apr 11 14:04:22.462 HYPERVISOR: exec_cmd: nio create_udp_auto nio_udp_auto2 127.0.0.1 10001 20000 
Apr 11 14:04:22.481 HYPERVISOR: exec_cmd: nio connect_udp_auto nio_udp_auto0 127.0.0.1 20500 
Apr 11 14:04:22.481 HYPERVISOR: exec_cmd: vm slot_add_nio_binding ESW1 1 2 nio_udp_auto0 
Apr 11 14:04:22.481 HYPERVISOR: exec_cmd: vm get_status ESW1 
Apr 11 14:04:22.488 HYPERVISOR: exec_cmd: nio connect_udp_auto nio_udp_auto1 127.0.0.1 20501 
Apr 11 14:04:22.488 HYPERVISOR: exec_cmd: vm slot_add_nio_binding ESW1 1 1 nio_udp_auto1 
Apr 11 14:04:22.488 HYPERVISOR: exec_cmd: vm get_status ESW1 
Apr 11 14:04:22.494 HYPERVISOR: exec_cmd: nio connect_udp_auto nio_udp_auto2 127.0.0.1 40001 
Apr 11 14:04:22.494 HYPERVISOR: exec_cmd: vm slot_add_nio_binding ESW1 1 0 nio_udp_auto2 
Apr 11 14:04:22.494 HYPERVISOR: exec_cmd: vm get_status ESW1 
Apr 11 14:24:19.579 HYPERVISOR: exec_cmd: vm extract_config ESW1 
Apr 11 14:24:25.882 HYPERVISOR: exec_cmd: vm extract_config ESW1 
Apr 11 14:24:25.887 HYPERVISOR: exec_cmd: hypervisor stop 
