Nov 29 18:57:41.608 HYPERVISOR: Release 0.2.17-amd64/Linux (tag 2017072410)
Nov 29 18:57:41.609 HYPERVISOR: Started on IP = 127.0.0.1, TCP port = 44367.
Nov 29 18:57:41.610 HYPERVISOR: exec_cmd: hypervisor version 
Nov 29 18:57:41.610 HYPERVISOR: exec_cmd: hypervisor working_dir /media/actionmystique/SAMSUNG5-VMs/Labs/GNS3/git-Public-Labs-Collection/CCNP/TBSHOOT/L3-Technologies/IPv6/Addressing/Jean-Christophe_Manciot/1+/TT 1-linux/project-files/dynamips 
Nov 29 18:57:41.610 GENERAL: working_dir=/media/actionmystique/SAMSUNG5-VMs/Labs/GNS3/git-Public-Labs-Collection/CCNP/TBSHOOT/L3-Technologies/IPv6/Addressing/Jean-Christophe_Manciot/1+/TT 1-linux/project-files/dynamips
Nov 29 18:57:41.611 HYPERVISOR: exec_cmd: vm create ESW2 2 c3725 
Nov 29 18:57:41.611 VM: VM ESW2 created.
Nov 29 18:57:41.611 HYPERVISOR: exec_cmd: vm set_con_tcp_port ESW2 2002 
Nov 29 18:57:41.611 HYPERVISOR: exec_cmd: vm set_aux_tcp_port ESW2 2502 
Nov 29 18:57:41.611 HYPERVISOR: exec_cmd: c3725 get_mac_addr ESW2 
Nov 29 18:57:41.612 HYPERVISOR: exec_cmd: vm slot_add_binding ESW2 0 16 WIC-2T 
Nov 29 18:57:41.612 HYPERVISOR: exec_cmd: vm set_ios ESW2 /media/actionmystique/SAMSUNG5-VMs/Images/GNS3/IOS/c3725-adventerprisek9-mz.124-15.T10.image 
Nov 29 18:57:41.613 HYPERVISOR: exec_cmd: vm get_status ESW2 
Nov 29 18:57:41.613 HYPERVISOR: exec_cmd: vm set_idle_pc ESW2 0x6026b804 
Nov 29 18:57:41.613 HYPERVISOR: exec_cmd: vm get_status ESW2 
Nov 29 18:57:41.614 HYPERVISOR: exec_cmd: vm slot_add_binding ESW2 1 0 NM-16ESW 
Nov 29 18:57:41.614 HYPERVISOR: exec_cmd: c3725 set_mac_addr ESW2 c202.28c2.0000 
Nov 29 18:57:41.614 HYPERVISOR: exec_cmd: vm set_disk0 ESW2 1 
Nov 29 18:57:41.615 HYPERVISOR: exec_cmd: vm set_nvram ESW2 256 
Nov 29 18:57:41.615 HYPERVISOR: exec_cmd: vm set_config ESW2 configs/i2_startup-config.cfg 
Nov 29 18:57:41.615 HYPERVISOR: exec_cmd: vm set_config ESW2 configs/i2_startup-config.cfg configs/i2_private-config.cfg 
Nov 29 18:57:41.736 HYPERVISOR: exec_cmd: nio create_tap tap-0a3c11e8-043c-4b77-8b49-d9b05b4b4ae2 tap2 
Nov 29 18:57:41.738 HYPERVISOR: exec_cmd: vm slot_add_nio_binding ESW2 1 0 tap-0a3c11e8-043c-4b77-8b49-d9b05b4b4ae2 
Nov 29 18:57:41.739 HYPERVISOR: exec_cmd: vm get_status ESW2 
Nov 29 18:57:41.826 HYPERVISOR: exec_cmd: nio create_udp udp-e56c2b9c-8230-4e3f-a872-e68ef97984fb 15009 127.0.0.1 15010 
Nov 29 18:57:41.826 HYPERVISOR: exec_cmd: vm slot_add_nio_binding ESW2 1 2 udp-e56c2b9c-8230-4e3f-a872-e68ef97984fb 
Nov 29 18:57:41.827 HYPERVISOR: exec_cmd: vm get_status ESW2 
