Nov 29 15:24:36.568 HYPERVISOR: Release 0.2.17-amd64/Linux (tag 2017072410)
Nov 29 15:24:36.568 HYPERVISOR: Started on IP = 127.0.0.1, TCP port = 40785.
Nov 29 15:24:36.601 HYPERVISOR: exec_cmd: hypervisor version 
Nov 29 15:24:36.601 HYPERVISOR: exec_cmd: hypervisor working_dir /media/actionmystique/SAMSUNG5-VMs/Labs/GNS3/TT 1-solutions-linux-/project-files/dynamips 
Nov 29 15:24:36.601 GENERAL: working_dir=/media/actionmystique/SAMSUNG5-VMs/Labs/GNS3/TT 1-solutions-linux-/project-files/dynamips
Nov 29 15:24:36.602 HYPERVISOR: exec_cmd: vm create ESW4 4 c3725 
Nov 29 15:24:36.602 VM: VM ESW4 created.
Nov 29 15:24:36.602 HYPERVISOR: exec_cmd: vm set_con_tcp_port ESW4 2009 
Nov 29 15:24:36.602 HYPERVISOR: exec_cmd: c3725 get_mac_addr ESW4 
Nov 29 15:24:36.603 HYPERVISOR: exec_cmd: vm get_status ESW4 
Nov 29 15:24:36.603 HYPERVISOR: exec_cmd: vm slot_add_binding ESW4 1 0 NM-16ESW 
Nov 29 15:24:36.603 HYPERVISOR: exec_cmd: c3725 set_mac_addr ESW4 c204.68ae.0000 
Nov 29 15:24:36.604 HYPERVISOR: exec_cmd: vm set_disk0 ESW4 1 
Nov 29 15:24:36.605 HYPERVISOR: exec_cmd: vm set_nvram ESW4 256 
Nov 29 15:24:36.606 HYPERVISOR: exec_cmd: vm set_ios ESW4 /media/actionmystique/SAMSUNG5-VMs/Images/GNS3/IOS/c3725-adventerprisek9-mz.124-15.T10.image 
Nov 29 15:24:36.607 HYPERVISOR: exec_cmd: vm get_status ESW4 
Nov 29 15:24:36.608 HYPERVISOR: exec_cmd: vm set_idle_pc ESW4 0x60c06d20 
Nov 29 15:24:36.609 HYPERVISOR: exec_cmd: vm slot_add_binding ESW4 0 16 WIC-2T 
Nov 29 15:24:36.610 HYPERVISOR: exec_cmd: vm set_config ESW4 configs/ios_base_startup-config.txt 
Nov 29 15:24:36.611 HYPERVISOR: exec_cmd: vm set_config ESW4 configs/ios_base_startup-config.txt configs/ios_base_private-config.txt 
Nov 29 15:24:36.920 HYPERVISOR: exec_cmd: nio create_udp udp-6b497f78-2da3-4029-b48c-631dcd8531d1 15013 127.0.0.1 15012 
Nov 29 15:24:36.921 HYPERVISOR: exec_cmd: vm slot_add_nio_binding ESW4 1 0 udp-6b497f78-2da3-4029-b48c-631dcd8531d1 
Nov 29 15:24:36.921 HYPERVISOR: exec_cmd: vm get_status ESW4 
Nov 29 15:24:36.928 HYPERVISOR: exec_cmd: nio create_udp udp-818411a3-bc71-42b4-94c9-de013b311b06 15015 127.0.0.1 15014 
Nov 29 15:24:36.929 HYPERVISOR: exec_cmd: vm slot_add_nio_binding ESW4 1 1 udp-818411a3-bc71-42b4-94c9-de013b311b06 
Nov 29 15:24:36.929 HYPERVISOR: exec_cmd: vm get_status ESW4 
Nov 29 15:24:54.868 HYPERVISOR: exec_cmd: vm get_status ESW4 
Nov 29 15:24:54.870 HYPERVISOR: exec_cmd: vm extract_config ESW4 
Nov 29 15:24:54.873 HYPERVISOR: exec_cmd: vm delete ESW4 
Nov 29 15:24:54.873 VM: VM ESW4 destroyed.
Nov 29 15:24:54.875 HYPERVISOR: exec_cmd: hypervisor stop 
Nov 29 15:24:55.115 HYPERVISOR: Stopped.
Nov 29 15:24:55.115 GENERAL: reset done.
