Nov 26 21:03:04.697 HYPERVISOR: Release 0.2.17-amd64/Linux (tag 2017072410)
Nov 26 21:03:04.697 HYPERVISOR: Started on IP = 127.0.0.1, TCP port = 52163.
Nov 26 21:03:04.734 HYPERVISOR: exec_cmd: hypervisor version 
Nov 26 21:03:04.744 HYPERVISOR: exec_cmd: hypervisor working_dir /media/actionmystique/SAMSUNG5-VMs/Labs/GNS3/PVST+ EIGRP DHCP/project-files/dynamips 
Nov 26 21:03:04.744 GENERAL: working_dir=/media/actionmystique/SAMSUNG5-VMs/Labs/GNS3/PVST+ EIGRP DHCP/project-files/dynamips
Nov 26 21:03:04.747 HYPERVISOR: exec_cmd: vm create SW10 9 c3725 
Nov 26 21:03:04.747 VM: VM SW10 created.
Nov 26 21:03:04.749 HYPERVISOR: exec_cmd: vm set_con_tcp_port SW10 2019 
Nov 26 21:03:04.758 HYPERVISOR: exec_cmd: vm set_aux_tcp_port SW10 2519 
Nov 26 21:03:04.760 HYPERVISOR: exec_cmd: c3725 get_mac_addr SW10 
Nov 26 21:03:04.762 HYPERVISOR: exec_cmd: vm set_ios SW10 /media/actionmystique/SAMSUNG5-VMs/Images/GNS3/IOS/c3725-adventerprisek9-mz.124-15.T5.image 
Nov 26 21:03:04.768 HYPERVISOR: exec_cmd: vm get_status SW10 
Nov 26 21:03:04.776 HYPERVISOR: exec_cmd: vm set_idle_pc SW10 0x62af9f1c 
Nov 26 21:03:04.780 HYPERVISOR: exec_cmd: vm get_status SW10 
Nov 26 21:03:04.781 HYPERVISOR: exec_cmd: vm slot_add_binding SW10 1 0 NM-16ESW 
Nov 26 21:03:04.782 HYPERVISOR: exec_cmd: vm set_config SW10 configs/i9_startup-config.cfg 
Nov 26 21:03:05.253 HYPERVISOR: exec_cmd: nio create_udp udp-0c6013a5-1ed8-4e26-82b8-ede7eb9b586f 30008 127.0.0.1 20008 
Nov 26 21:03:05.253 HYPERVISOR: exec_cmd: vm slot_add_nio_binding SW10 1 4 udp-0c6013a5-1ed8-4e26-82b8-ede7eb9b586f 
Nov 26 21:03:05.254 HYPERVISOR: exec_cmd: vm get_status SW10 
Nov 26 21:03:05.369 HYPERVISOR: exec_cmd: vm extract_config SW10 
Nov 26 21:03:05.631 HYPERVISOR: exec_cmd: nio create_udp udp-26708fdb-0e71-4860-bb75-3597972a802d 15026 127.0.0.1 15027 
Nov 26 21:03:05.632 HYPERVISOR: exec_cmd: vm slot_add_nio_binding SW10 1 2 udp-26708fdb-0e71-4860-bb75-3597972a802d 
Nov 26 21:03:05.632 HYPERVISOR: exec_cmd: vm get_status SW10 
Nov 26 21:03:05.652 HYPERVISOR: exec_cmd: nio create_udp udp-c624813a-e986-4643-bee7-9a84936b5c48 15029 127.0.0.1 15028 
Nov 26 21:03:05.656 HYPERVISOR: exec_cmd: vm slot_add_nio_binding SW10 1 3 udp-c624813a-e986-4643-bee7-9a84936b5c48 
Nov 26 21:03:05.657 HYPERVISOR: exec_cmd: vm get_status SW10 
Nov 26 21:03:05.720 HYPERVISOR: exec_cmd: nio create_udp udp-08a7bc9f-0c0a-4e97-a8b5-c6fd1af183e9 15035 127.0.0.1 15034 
Nov 26 21:03:05.721 HYPERVISOR: exec_cmd: vm slot_add_nio_binding SW10 1 1 udp-08a7bc9f-0c0a-4e97-a8b5-c6fd1af183e9 
Nov 26 21:03:05.722 HYPERVISOR: exec_cmd: vm get_status SW10 
Nov 26 21:03:42.414 HYPERVISOR: exec_cmd: vm get_status SW10 
Nov 26 21:03:42.418 HYPERVISOR: exec_cmd: vm extract_config SW10 
Nov 26 21:03:42.462 HYPERVISOR: exec_cmd: vm delete SW10 
Nov 26 21:03:42.462 VM: VM SW10 destroyed.
Nov 26 21:03:42.468 HYPERVISOR: exec_cmd: hypervisor stop 
Nov 26 21:03:42.764 HYPERVISOR: Stopped.
Nov 26 21:03:42.764 GENERAL: reset done.
