Nov 26 20:47:07.015 HYPERVISOR: Release 0.2.17-amd64/Linux (tag 2017072410)
Nov 26 20:47:07.015 HYPERVISOR: Started on IP = 127.0.0.1, TCP port = 51219.
Nov 26 20:47:07.022 HYPERVISOR: exec_cmd: hypervisor version 
Nov 26 20:47:07.022 HYPERVISOR: exec_cmd: hypervisor working_dir /media/actionmystique/SAMSUNG5-VMs/Labs/GNS3/EtherChannel Cost Change/project-files/dynamips 
Nov 26 20:47:07.022 GENERAL: working_dir=/media/actionmystique/SAMSUNG5-VMs/Labs/GNS3/EtherChannel Cost Change/project-files/dynamips
Nov 26 20:47:07.022 HYPERVISOR: exec_cmd: vm create R1 1 c7200 
Nov 26 20:47:07.023 VM: VM R1 created.
Nov 26 20:47:07.023 HYPERVISOR: exec_cmd: vm set_con_tcp_port R1 2119 
Nov 26 20:47:07.023 HYPERVISOR: exec_cmd: vm set_aux_tcp_port R1 2519 
Nov 26 20:47:07.023 HYPERVISOR: exec_cmd: c7200 get_mac_addr R1 
Nov 26 20:47:07.024 HYPERVISOR: exec_cmd: vm get_status R1 
Nov 26 20:47:07.024 HYPERVISOR: exec_cmd: vm slot_add_binding R1 0 0 C7200-IO-FE 
Nov 26 20:47:07.024 HYPERVISOR: exec_cmd: vm get_status R1 
Nov 26 20:47:07.025 HYPERVISOR: exec_cmd: vm slot_remove_binding R1 0 0 
Nov 26 20:47:07.025 HYPERVISOR: exec_cmd: vm get_status R1 
Nov 26 20:47:07.026 HYPERVISOR: exec_cmd: vm slot_add_binding R1 0 0 C7200-IO-GE-E 
Nov 26 20:47:07.026 HYPERVISOR: exec_cmd: vm get_status R1 
Nov 26 20:47:07.026 HYPERVISOR: exec_cmd: vm slot_add_binding R1 2 0 PA-GE 
Nov 26 20:47:07.027 HYPERVISOR: exec_cmd: vm set_ram R1 512 
Nov 26 20:47:07.027 HYPERVISOR: exec_cmd: vm get_status R1 
Nov 26 20:47:07.027 HYPERVISOR: exec_cmd: vm set_idle_pc R1 0x60188e14 
Nov 26 20:47:07.028 HYPERVISOR: exec_cmd: vm get_status R1 
Nov 26 20:47:07.028 HYPERVISOR: exec_cmd: vm slot_add_binding R1 1 0 PA-GE 
Nov 26 20:47:07.028 HYPERVISOR: exec_cmd: vm get_status R1 
Nov 26 20:47:07.029 HYPERVISOR: exec_cmd: vm slot_add_binding R1 3 0 PA-GE 
Nov 26 20:47:07.029 HYPERVISOR: exec_cmd: vm set_ios R1 /media/actionmystique/SAMSUNG5-VMs/Images/GNS3/IOS/c7200-adventerprisek9-mz.152-4.M2.image 
Nov 26 20:47:07.029 HYPERVISOR: exec_cmd: vm set_config R1 configs/i1_startup-config.cfg 
Nov 26 20:47:07.152 HYPERVISOR: exec_cmd: nio create_udp udp-a8545aec-e400-4355-b43a-54ba0459b811 15001 127.0.0.1 15000 
Nov 26 20:47:07.155 HYPERVISOR: exec_cmd: vm extract_config R1 
Nov 26 20:47:07.155 HYPERVISOR: exec_cmd: vm slot_add_nio_binding R1 0 0 udp-a8545aec-e400-4355-b43a-54ba0459b811 
Nov 26 20:47:07.156 HYPERVISOR: exec_cmd: vm get_status R1 
Nov 26 20:47:07.189 HYPERVISOR: exec_cmd: nio create_udp udp-0b8208c8-45ca-4222-a9dc-bde95152d8ae 15002 127.0.0.1 15004 
Nov 26 20:47:07.195 HYPERVISOR: exec_cmd: vm slot_add_nio_binding R1 1 0 udp-0b8208c8-45ca-4222-a9dc-bde95152d8ae 
Nov 26 20:47:07.196 HYPERVISOR: exec_cmd: vm get_status R1 
Nov 26 20:47:07.207 HYPERVISOR: exec_cmd: nio create_udp udp-6fe33b19-f893-49a3-81a6-e502ce74d658 15003 127.0.0.1 15006 
Nov 26 20:47:07.211 HYPERVISOR: exec_cmd: vm slot_add_nio_binding R1 2 0 udp-6fe33b19-f893-49a3-81a6-e502ce74d658 
Nov 26 20:47:07.212 HYPERVISOR: exec_cmd: vm get_status R1 
Nov 26 20:47:07.244 HYPERVISOR: exec_cmd: nio create_udp udp-5a83c390-7d32-4bb0-a7dd-79614351daf4 15005 127.0.0.1 15007 
Nov 26 20:47:07.245 HYPERVISOR: exec_cmd: vm slot_add_nio_binding R1 3 0 udp-5a83c390-7d32-4bb0-a7dd-79614351daf4 
Nov 26 20:47:07.245 HYPERVISOR: exec_cmd: vm get_status R1 
Nov 26 20:48:27.450 HYPERVISOR: exec_cmd: vm get_status R1 
Nov 26 20:48:27.451 HYPERVISOR: exec_cmd: vm extract_config R1 
Nov 26 20:48:27.451 HYPERVISOR: exec_cmd: vm delete R1 
Nov 26 20:48:27.451 VM: VM R1 destroyed.
Nov 26 20:48:27.452 HYPERVISOR: exec_cmd: hypervisor stop 
Nov 26 20:48:27.609 HYPERVISOR: Stopped.
Nov 26 20:48:27.609 GENERAL: reset done.
