tclsh
foreach address {
192.168.1.1
192.168.2.1
192.168.3.1
192.168.4.1
192.168.4.129
172.16.12.1
172.16.12.2
172.16.13.1
172.16.13.3
172.16.23.2
172.16.23.3
172.16.34.3
172.16.34.4
} {
ping $address }
exit
