Nov 28 08:53:58.009 HYPERVISOR: Release 0.2.17-amd64/Linux (tag 2017072410)
Nov 28 08:53:58.009 HYPERVISOR: Started on IP = 127.0.0.1, TCP port = 36855.
Nov 28 08:53:58.026 HYPERVISOR: exec_cmd: hypervisor version 
Nov 28 08:53:58.027 HYPERVISOR: exec_cmd: hypervisor working_dir /media/actionmystique/SAMSUNG5-VMs/Labs/GNS3/TT 2-solutions-linux-/project-files/dynamips 
Nov 28 08:53:58.027 GENERAL: working_dir=/media/actionmystique/SAMSUNG5-VMs/Labs/GNS3/TT 2-solutions-linux-/project-files/dynamips
Nov 28 08:53:58.027 HYPERVISOR: exec_cmd: vm create ESW4 4 c3725 
Nov 28 08:53:58.027 VM: VM ESW4 created.
Nov 28 08:53:58.027 HYPERVISOR: exec_cmd: vm set_con_tcp_port ESW4 2009 
Nov 28 08:53:58.028 HYPERVISOR: exec_cmd: c3725 get_mac_addr ESW4 
Nov 28 08:53:58.028 HYPERVISOR: exec_cmd: vm set_disk0 ESW4 1 
Nov 28 08:53:58.028 HYPERVISOR: exec_cmd: vm get_status ESW4 
Nov 28 08:53:58.029 HYPERVISOR: exec_cmd: vm slot_add_binding ESW4 1 0 NM-16ESW 
Nov 28 08:53:58.029 HYPERVISOR: exec_cmd: vm set_ios ESW4 /media/actionmystique/SAMSUNG5-VMs/Images/GNS3/IOS/c3725-adventerprisek9-mz.124-15.T10.image 
Nov 28 08:53:58.029 HYPERVISOR: exec_cmd: c3725 set_mac_addr ESW4 c204.11f4.0000 
Nov 28 08:53:58.030 HYPERVISOR: exec_cmd: vm slot_add_binding ESW4 0 16 WIC-2T 
Nov 28 08:53:58.030 HYPERVISOR: exec_cmd: vm get_status ESW4 
Nov 28 08:53:58.031 HYPERVISOR: exec_cmd: vm set_idle_pc ESW4 0x6026b804 
Nov 28 08:53:58.031 HYPERVISOR: exec_cmd: vm set_nvram ESW4 256 
Nov 28 08:53:58.031 HYPERVISOR: exec_cmd: vm set_config ESW4 configs/ios_base_startup-config.txt 
Nov 28 08:53:58.032 HYPERVISOR: exec_cmd: vm set_config ESW4 configs/ios_base_startup-config.txt configs/ios_base_private-config.txt 
Nov 28 08:53:58.371 HYPERVISOR: exec_cmd: nio create_udp udp-a8780160-8f94-485c-8dfc-94bb349b3ba7 15016 127.0.0.1 15014 
Nov 28 08:53:58.372 HYPERVISOR: exec_cmd: vm slot_add_nio_binding ESW4 1 0 udp-a8780160-8f94-485c-8dfc-94bb349b3ba7 
Nov 28 08:53:58.372 HYPERVISOR: exec_cmd: vm get_status ESW4 
Nov 28 08:53:58.387 HYPERVISOR: exec_cmd: nio create_udp udp-54c7a84d-989e-4359-83fa-11d7fb132895 15017 127.0.0.1 15015 
Nov 28 08:53:58.387 HYPERVISOR: exec_cmd: vm slot_add_nio_binding ESW4 1 1 udp-54c7a84d-989e-4359-83fa-11d7fb132895 
Nov 28 08:53:58.388 HYPERVISOR: exec_cmd: vm get_status ESW4 
Nov 28 08:54:16.540 HYPERVISOR: exec_cmd: vm get_status ESW4 
Nov 28 08:54:16.541 HYPERVISOR: exec_cmd: vm extract_config ESW4 
Nov 28 08:54:16.544 HYPERVISOR: exec_cmd: vm delete ESW4 
Nov 28 08:54:16.544 VM: VM ESW4 destroyed.
Nov 28 08:54:16.545 HYPERVISOR: exec_cmd: hypervisor stop 
Nov 28 08:54:16.546 HYPERVISOR: Stopped.
Nov 28 08:54:16.546 GENERAL: reset done.
