Nov 28 08:53:51.150 HYPERVISOR: Release 0.2.17-amd64/Linux (tag 2017072410)
Nov 28 08:53:51.150 HYPERVISOR: Started on IP = 127.0.0.1, TCP port = 35501.
Nov 28 08:53:51.153 HYPERVISOR: exec_cmd: hypervisor version 
Nov 28 08:53:51.153 HYPERVISOR: exec_cmd: hypervisor working_dir /media/actionmystique/SAMSUNG5-VMs/Labs/GNS3/git-Public-Labs-Collection/CCNP/TBSHOOT/L3-Technologies/IPv4/Routing-Protocols/OSPFv2/Jean-Christophe_Manciot/1+/TT 2-solutions-linux/project-files/dynamips 
Nov 28 08:53:51.153 GENERAL: working_dir=/media/actionmystique/SAMSUNG5-VMs/Labs/GNS3/git-Public-Labs-Collection/CCNP/TBSHOOT/L3-Technologies/IPv4/Routing-Protocols/OSPFv2/Jean-Christophe_Manciot/1+/TT 2-solutions-linux/project-files/dynamips
Nov 28 08:53:51.153 HYPERVISOR: exec_cmd: vm create ESW1 1 c3725 
Nov 28 08:53:51.154 VM: VM ESW1 created.
Nov 28 08:53:51.154 HYPERVISOR: exec_cmd: vm set_con_tcp_port ESW1 2004 
Nov 28 08:53:51.154 HYPERVISOR: exec_cmd: c3725 get_mac_addr ESW1 
Nov 28 08:53:51.155 HYPERVISOR: exec_cmd: vm set_disk0 ESW1 1 
Nov 28 08:53:51.155 HYPERVISOR: exec_cmd: vm get_status ESW1 
Nov 28 08:53:51.156 HYPERVISOR: exec_cmd: vm slot_add_binding ESW1 1 0 NM-16ESW 
Nov 28 08:53:51.157 HYPERVISOR: exec_cmd: vm set_ios ESW1 /media/actionmystique/SAMSUNG5-VMs/Images/GNS3/IOS/c3725-adventerprisek9-mz.124-15.T10.image 
Nov 28 08:53:51.158 HYPERVISOR: exec_cmd: c3725 set_mac_addr ESW1 c201.1b91.0000 
Nov 28 08:53:51.158 HYPERVISOR: exec_cmd: vm slot_add_binding ESW1 0 16 WIC-2T 
Nov 28 08:53:51.159 HYPERVISOR: exec_cmd: vm get_status ESW1 
Nov 28 08:53:51.159 HYPERVISOR: exec_cmd: vm set_idle_pc ESW1 0x0 
Nov 28 08:53:51.160 HYPERVISOR: exec_cmd: vm set_nvram ESW1 256 
Nov 28 08:53:51.161 HYPERVISOR: exec_cmd: vm set_config ESW1 configs/ios_base_startup-config.txt 
Nov 28 08:53:51.163 HYPERVISOR: exec_cmd: vm set_config ESW1 configs/ios_base_startup-config.txt configs/ios_base_private-config.txt 
Nov 28 08:53:51.387 HYPERVISOR: exec_cmd: nio create_udp udp-488c3ffd-b0c8-4572-8b60-17244b34f634 15006 127.0.0.1 15008 
Nov 28 08:53:51.388 HYPERVISOR: exec_cmd: vm slot_add_nio_binding ESW1 1 0 udp-488c3ffd-b0c8-4572-8b60-17244b34f634 
Nov 28 08:53:51.388 HYPERVISOR: exec_cmd: vm get_status ESW1 
Nov 28 08:53:51.413 HYPERVISOR: exec_cmd: nio create_udp udp-65ecfee8-718e-4a9e-b647-1db8cb089a46 15007 127.0.0.1 15009 
Nov 28 08:53:51.414 HYPERVISOR: exec_cmd: vm slot_add_nio_binding ESW1 1 1 udp-65ecfee8-718e-4a9e-b647-1db8cb089a46 
Nov 28 08:53:51.414 HYPERVISOR: exec_cmd: vm get_status ESW1 
