Nov 29 15:27:08.472 HYPERVISOR: Release 0.2.17-amd64/Linux (tag 2017072410)
Nov 29 15:27:08.472 HYPERVISOR: Started on IP = 127.0.0.1, TCP port = 35461.
Nov 29 15:27:08.486 HYPERVISOR: exec_cmd: hypervisor version 
Nov 29 15:27:08.487 HYPERVISOR: exec_cmd: hypervisor working_dir /media/actionmystique/SAMSUNG5-VMs/Labs/GNS3/git-Public-Labs-Collection/CCNP/TBSHOOT/L3-Technologies/IPv4/Routing-Protocols/Redistribution/Jean-Christophe_Manciot/1+/TT 4-linux/project-files/dynamips 
Nov 29 15:27:08.487 GENERAL: working_dir=/media/actionmystique/SAMSUNG5-VMs/Labs/GNS3/git-Public-Labs-Collection/CCNP/TBSHOOT/L3-Technologies/IPv4/Routing-Protocols/Redistribution/Jean-Christophe_Manciot/1+/TT 4-linux/project-files/dynamips
Nov 29 15:27:08.492 HYPERVISOR: exec_cmd: vm create ESW8 8 c3725 
Nov 29 15:27:08.492 VM: VM ESW8 created.
Nov 29 15:27:08.495 HYPERVISOR: exec_cmd: vm set_con_tcp_port ESW8 2020 
Nov 29 15:27:08.496 HYPERVISOR: exec_cmd: c3725 get_mac_addr ESW8 
Nov 29 15:27:08.496 HYPERVISOR: exec_cmd: vm get_status ESW8 
Nov 29 15:27:08.497 HYPERVISOR: exec_cmd: vm set_idle_pc ESW8 0x6026b804 
Nov 29 15:27:08.497 HYPERVISOR: exec_cmd: vm get_status ESW8 
Nov 29 15:27:08.498 HYPERVISOR: exec_cmd: vm slot_add_binding ESW8 1 0 NM-16ESW 
Nov 29 15:27:08.498 HYPERVISOR: exec_cmd: c3725 set_mac_addr ESW8 c208.2754.0000 
Nov 29 15:27:08.499 HYPERVISOR: exec_cmd: vm set_disk0 ESW8 1 
Nov 29 15:27:08.499 HYPERVISOR: exec_cmd: vm slot_add_binding ESW8 0 16 WIC-2T 
Nov 29 15:27:08.499 HYPERVISOR: exec_cmd: vm set_nvram ESW8 256 
Nov 29 15:27:08.500 HYPERVISOR: exec_cmd: vm set_ios ESW8 /media/actionmystique/SAMSUNG5-VMs/Images/GNS3/IOS/c3725-adventerprisek9-mz.124-15.T10.image 
Nov 29 15:27:08.500 HYPERVISOR: exec_cmd: vm set_config ESW8 configs/i8_startup-config.cfg 
Nov 29 15:27:08.798 HYPERVISOR: exec_cmd: nio create_udp udp-7fdd790c-7505-4aa9-9476-80b10106d94c 15015 127.0.0.1 15013 
Nov 29 15:27:08.798 HYPERVISOR: exec_cmd: vm slot_add_nio_binding ESW8 1 1 udp-7fdd790c-7505-4aa9-9476-80b10106d94c 
Nov 29 15:27:08.799 HYPERVISOR: exec_cmd: vm get_status ESW8 
Nov 29 15:27:08.816 HYPERVISOR: exec_cmd: nio create_udp udp-b6d8df2e-cc86-40eb-8443-a8242fe9eb5e 15016 127.0.0.1 15017 
Nov 29 15:27:08.817 HYPERVISOR: exec_cmd: vm slot_add_nio_binding ESW8 1 0 udp-b6d8df2e-cc86-40eb-8443-a8242fe9eb5e 
Nov 29 15:27:08.817 HYPERVISOR: exec_cmd: vm get_status ESW8 
Nov 29 15:27:31.068 HYPERVISOR: exec_cmd: vm get_status ESW8 
Nov 29 15:27:31.071 HYPERVISOR: exec_cmd: vm extract_config ESW8 
Nov 29 15:27:31.081 HYPERVISOR: exec_cmd: vm delete ESW8 
Nov 29 15:27:31.081 VM: VM ESW8 destroyed.
Nov 29 15:27:31.107 HYPERVISOR: exec_cmd: hypervisor stop 
Nov 29 15:27:31.508 HYPERVISOR: Stopped.
Nov 29 15:27:31.508 GENERAL: reset done.
