Nov 29 15:29:15.034 HYPERVISOR: Release 0.2.17-amd64/Linux (tag 2017072410)
Nov 29 15:29:15.034 HYPERVISOR: Started on IP = 127.0.0.1, TCP port = 58113.
Nov 29 15:29:15.074 HYPERVISOR: exec_cmd: hypervisor version 
Nov 29 15:29:15.075 HYPERVISOR: exec_cmd: hypervisor working_dir /media/actionmystique/SAMSUNG5-VMs/Labs/GNS3/TT 4-linux-/project-files/dynamips 
Nov 29 15:29:15.075 GENERAL: working_dir=/media/actionmystique/SAMSUNG5-VMs/Labs/GNS3/TT 4-linux-/project-files/dynamips
Nov 29 15:29:15.075 HYPERVISOR: exec_cmd: vm create ESW2 2 c3725 
Nov 29 15:29:15.075 VM: VM ESW2 created.
Nov 29 15:29:15.076 HYPERVISOR: exec_cmd: vm set_con_tcp_port ESW2 2005 
Nov 29 15:29:15.077 HYPERVISOR: exec_cmd: c3725 get_mac_addr ESW2 
Nov 29 15:29:15.078 HYPERVISOR: exec_cmd: vm set_nvram ESW2 256 
Nov 29 15:29:15.079 HYPERVISOR: exec_cmd: vm slot_add_binding ESW2 0 16 WIC-2T 
Nov 29 15:29:15.080 HYPERVISOR: exec_cmd: c3725 set_mac_addr ESW2 c202.1bd4.0000 
Nov 29 15:29:15.080 HYPERVISOR: exec_cmd: vm set_disk0 ESW2 1 
Nov 29 15:29:15.081 HYPERVISOR: exec_cmd: vm set_ios ESW2 /media/actionmystique/SAMSUNG5-VMs/Images/GNS3/IOS/c3725-adventerprisek9-mz.124-15.T10.image 
Nov 29 15:29:15.082 HYPERVISOR: exec_cmd: vm get_status ESW2 
Nov 29 15:29:15.083 HYPERVISOR: exec_cmd: vm set_idle_pc ESW2 0x6026b804 
Nov 29 15:29:15.083 HYPERVISOR: exec_cmd: vm get_status ESW2 
Nov 29 15:29:15.084 HYPERVISOR: exec_cmd: vm slot_add_binding ESW2 1 0 NM-16ESW 
Nov 29 15:29:15.085 HYPERVISOR: exec_cmd: vm set_config ESW2 configs/ios_base_startup-config.txt 
Nov 29 15:29:15.086 HYPERVISOR: exec_cmd: vm set_config ESW2 configs/ios_base_startup-config.txt configs/ios_base_private-config.txt 
Nov 29 15:29:15.634 HYPERVISOR: exec_cmd: nio create_udp udp-abcda12e-60f0-4691-a6ac-bd407a147fcc 15004 127.0.0.1 15002 
Nov 29 15:29:15.635 HYPERVISOR: exec_cmd: vm slot_add_nio_binding ESW2 1 0 udp-abcda12e-60f0-4691-a6ac-bd407a147fcc 
Nov 29 15:29:15.635 HYPERVISOR: exec_cmd: vm get_status ESW2 
Nov 29 15:29:34.464 HYPERVISOR: exec_cmd: vm get_status ESW2 
Nov 29 15:29:34.468 HYPERVISOR: exec_cmd: vm extract_config ESW2 
Nov 29 15:29:34.471 HYPERVISOR: exec_cmd: vm delete ESW2 
Nov 29 15:29:34.471 VM: VM ESW2 destroyed.
Nov 29 15:29:34.475 HYPERVISOR: exec_cmd: hypervisor stop 
Nov 29 15:29:34.592 HYPERVISOR: Stopped.
Nov 29 15:29:34.592 GENERAL: reset done.
