Aug 31 18:28:02.244 HYPERVISOR: Release 0.2.16-amd64/Linux (tag 2015060118)
Aug 31 18:28:02.244 HYPERVISOR: Started on IP = 127.0.0.1, TCP port = 34287.
Aug 31 18:28:02.270 HYPERVISOR: exec_cmd: hypervisor version 
Aug 31 18:28:02.271 HYPERVISOR: exec_cmd: hypervisor working_dir /media/actionmystique/SAMSUNG-850-Ext4/Labs/GNS3/Route Reflectors/project-files/dynamips 
Aug 31 18:28:02.271 GENERAL: working_dir=/media/actionmystique/SAMSUNG-850-Ext4/Labs/GNS3/Route Reflectors/project-files/dynamips
Aug 31 18:28:02.275 HYPERVISOR: exec_cmd: vm create Client_Munich 7 c7200 
Aug 31 18:28:02.275 VM: VM Client_Munich created.
Aug 31 18:28:02.276 HYPERVISOR: exec_cmd: vm set_con_tcp_port Client_Munich 2108 
Aug 31 18:28:02.277 HYPERVISOR: exec_cmd: vm set_aux_tcp_port Client_Munich 2508 
Aug 31 18:28:02.277 HYPERVISOR: exec_cmd: c7200 get_mac_addr Client_Munich 
Aug 31 18:28:02.278 HYPERVISOR: exec_cmd: vm get_status Client_Munich 
Aug 31 18:28:02.278 HYPERVISOR: exec_cmd: vm slot_add_binding Client_Munich 0 0 C7200-IO-FE 
Aug 31 18:28:02.279 HYPERVISOR: exec_cmd: vm set_ram Client_Munich 512 
Aug 31 18:28:02.279 HYPERVISOR: exec_cmd: vm get_status Client_Munich 
Aug 31 18:28:02.280 HYPERVISOR: exec_cmd: vm slot_remove_binding Client_Munich 0 0 
Aug 31 18:28:02.281 HYPERVISOR: exec_cmd: vm get_status Client_Munich 
Aug 31 18:28:02.281 HYPERVISOR: exec_cmd: vm slot_add_binding Client_Munich 0 0 C7200-IO-GE-E 
Aug 31 18:28:02.282 HYPERVISOR: exec_cmd: vm set_ios Client_Munich /media/actionmystique/SAMSUNG-850-Ext4/Images/GNS3/IOS/c7200-adventerprisek9-mz.152-4.M2.image 
Aug 31 18:28:02.283 HYPERVISOR: exec_cmd: vm get_status Client_Munich 
Aug 31 18:28:02.283 HYPERVISOR: exec_cmd: vm set_idle_pc Client_Munich 0x6062d534 
Aug 31 18:28:02.284 HYPERVISOR: exec_cmd: vm set_config Client_Munich configs/i7_startup-config.cfg 
Aug 31 18:28:02.700 HYPERVISOR: exec_cmd: vm extract_config Client_Munich 
Aug 31 18:28:02.767 HYPERVISOR: exec_cmd: nio create_udp udp-764fcdcb-3d0e-4a00-9180-b85331c654aa 15009 127.0.0.1 15008 
Aug 31 18:28:02.771 HYPERVISOR: exec_cmd: vm slot_add_nio_binding Client_Munich 0 0 udp-764fcdcb-3d0e-4a00-9180-b85331c654aa 
Aug 31 18:28:02.772 HYPERVISOR: exec_cmd: vm get_status Client_Munich 
Aug 31 18:28:07.802 HYPERVISOR: exec_cmd: vm set_ghost_status Client_Munich 2 
Aug 31 18:28:07.803 HYPERVISOR: exec_cmd: vm set_ghost_file Client_Munich c7200-adventerprisek9-mz.152-4.M2.image-512.ghost 
Aug 31 18:28:07.804 HYPERVISOR: exec_cmd: vm get_status Client_Munich 
Aug 31 18:28:07.804 HYPERVISOR: exec_cmd: vm start Client_Munich 
Aug 31 18:40:58.216 HYPERVISOR: exec_cmd: vm extract_config Client_Munich 
Aug 31 18:46:15.798 HYPERVISOR: exec_cmd: vm extract_config Client_Munich 
Aug 31 18:46:18.945 HYPERVISOR: exec_cmd: vm get_status Client_Munich 
Aug 31 18:46:18.948 HYPERVISOR: exec_cmd: vm stop Client_Munich 
Aug 31 18:46:19.022 VM: VM Client_Munich shutdown.
Aug 31 18:46:19.023 HYPERVISOR: exec_cmd: vm extract_config Client_Munich 
Aug 31 18:46:36.236 HYPERVISOR: exec_cmd: vm get_status Client_Munich 
Aug 31 18:46:36.240 HYPERVISOR: exec_cmd: vm extract_config Client_Munich 
Aug 31 18:46:36.245 HYPERVISOR: exec_cmd: vm delete Client_Munich 
Aug 31 18:46:36.245 VM: VM Client_Munich destroyed.
Aug 31 18:46:36.249 HYPERVISOR: exec_cmd: hypervisor stop 
Aug 31 18:46:36.291 HYPERVISOR: Stopped.
Aug 31 18:46:36.291 GENERAL: reset done.
