Nov 28 08:36:50.245 HYPERVISOR: Release 0.2.17-amd64/Linux (tag 2017072410)
Nov 28 08:36:50.245 HYPERVISOR: Started on IP = 127.0.0.1, TCP port = 45717.
Nov 28 08:36:50.252 HYPERVISOR: exec_cmd: hypervisor version 
Nov 28 08:36:50.252 HYPERVISOR: exec_cmd: hypervisor working_dir /media/actionmystique/SAMSUNG5-VMs/Labs/GNS3/git-Public-Labs-Collection/CCNP/TBSHOOT/L3-Technologies/IPv4/Routing-Protocols/EIGRP/Jean-Christophe_Manciot/1+/TT 2-solutions-linux/project-files/dynamips 
Nov 28 08:36:50.252 GENERAL: working_dir=/media/actionmystique/SAMSUNG5-VMs/Labs/GNS3/git-Public-Labs-Collection/CCNP/TBSHOOT/L3-Technologies/IPv4/Routing-Protocols/EIGRP/Jean-Christophe_Manciot/1+/TT 2-solutions-linux/project-files/dynamips
Nov 28 08:36:50.253 HYPERVISOR: exec_cmd: vm create ESW3 3 c3725 
Nov 28 08:36:50.253 VM: VM ESW3 created.
Nov 28 08:36:50.254 HYPERVISOR: exec_cmd: vm set_con_tcp_port ESW3 2006 
Nov 28 08:36:50.254 HYPERVISOR: exec_cmd: c3725 get_mac_addr ESW3 
Nov 28 08:36:50.255 HYPERVISOR: exec_cmd: vm set_disk0 ESW3 1 
Nov 28 08:36:50.256 HYPERVISOR: exec_cmd: vm get_status ESW3 
Nov 28 08:36:50.256 HYPERVISOR: exec_cmd: vm slot_add_binding ESW3 1 0 NM-16ESW 
Nov 28 08:36:50.257 HYPERVISOR: exec_cmd: vm set_ios ESW3 /media/actionmystique/SAMSUNG5-VMs/Images/GNS3/IOS/c3725-adventerprisek9-mz.124-15.T10.image 
Nov 28 08:36:50.258 HYPERVISOR: exec_cmd: c3725 set_mac_addr ESW3 c203.1bfb.0000 
Nov 28 08:36:50.260 HYPERVISOR: exec_cmd: vm slot_add_binding ESW3 0 16 WIC-2T 
Nov 28 08:36:50.263 HYPERVISOR: exec_cmd: vm get_status ESW3 
Nov 28 08:36:50.265 HYPERVISOR: exec_cmd: vm set_idle_pc ESW3 0x6026b804 
Nov 28 08:36:50.266 HYPERVISOR: exec_cmd: vm set_nvram ESW3 256 
Nov 28 08:36:50.267 HYPERVISOR: exec_cmd: vm set_config ESW3 configs/ios_base_startup-config.txt 
Nov 28 08:36:50.271 HYPERVISOR: exec_cmd: vm set_config ESW3 configs/ios_base_startup-config.txt configs/ios_base_private-config.txt 
Nov 28 08:36:50.420 HYPERVISOR: exec_cmd: nio create_udp udp-80f13d05-f29e-46f4-b2f8-c8aa40b13f42 15010 127.0.0.1 15011 
Nov 28 08:36:50.420 HYPERVISOR: exec_cmd: vm slot_add_nio_binding ESW3 1 0 udp-80f13d05-f29e-46f4-b2f8-c8aa40b13f42 
Nov 28 08:36:50.421 HYPERVISOR: exec_cmd: vm get_status ESW3 
Nov 28 08:36:56.864 HYPERVISOR: exec_cmd: nio create_tap tap-a987fd1f-abe7-4e44-b426-64f68a1d4f11 tap0 
Nov 28 08:36:56.865 HYPERVISOR: exec_cmd: vm slot_add_nio_binding ESW3 1 1 tap-a987fd1f-abe7-4e44-b426-64f68a1d4f11 
Nov 28 08:36:56.865 HYPERVISOR: exec_cmd: vm get_status ESW3 
