Nov 28 08:37:09.009 HYPERVISOR: Release 0.2.17-amd64/Linux (tag 2017072410)
Nov 28 08:37:09.009 HYPERVISOR: Started on IP = 127.0.0.1, TCP port = 46763.
Nov 28 08:37:09.048 HYPERVISOR: exec_cmd: hypervisor version 
Nov 28 08:37:09.048 HYPERVISOR: exec_cmd: hypervisor working_dir /media/actionmystique/SAMSUNG5-VMs/Labs/GNS3/TT 2-solutions-linux-/project-files/dynamips 
Nov 28 08:37:09.048 GENERAL: working_dir=/media/actionmystique/SAMSUNG5-VMs/Labs/GNS3/TT 2-solutions-linux-/project-files/dynamips
Nov 28 08:37:09.049 HYPERVISOR: exec_cmd: vm create ESW1 1 c3725 
Nov 28 08:37:09.049 VM: VM ESW1 created.
Nov 28 08:37:09.049 HYPERVISOR: exec_cmd: vm set_con_tcp_port ESW1 2004 
Nov 28 08:37:09.049 HYPERVISOR: exec_cmd: c3725 get_mac_addr ESW1 
Nov 28 08:37:09.050 HYPERVISOR: exec_cmd: vm set_disk0 ESW1 1 
Nov 28 08:37:09.050 HYPERVISOR: exec_cmd: vm get_status ESW1 
Nov 28 08:37:09.051 HYPERVISOR: exec_cmd: vm slot_add_binding ESW1 1 0 NM-16ESW 
Nov 28 08:37:09.051 HYPERVISOR: exec_cmd: vm set_ios ESW1 /media/actionmystique/SAMSUNG5-VMs/Images/GNS3/IOS/c3725-adventerprisek9-mz.124-15.T10.image 
Nov 28 08:37:09.051 HYPERVISOR: exec_cmd: c3725 set_mac_addr ESW1 c201.1b91.0000 
Nov 28 08:37:09.052 HYPERVISOR: exec_cmd: vm slot_add_binding ESW1 0 16 WIC-2T 
Nov 28 08:37:09.052 HYPERVISOR: exec_cmd: vm get_status ESW1 
Nov 28 08:37:09.052 HYPERVISOR: exec_cmd: vm set_idle_pc ESW1 0x6026b804 
Nov 28 08:37:09.053 HYPERVISOR: exec_cmd: vm set_nvram ESW1 256 
Nov 28 08:37:09.053 HYPERVISOR: exec_cmd: vm set_config ESW1 configs/ios_base_startup-config.txt 
Nov 28 08:37:09.054 HYPERVISOR: exec_cmd: vm set_config ESW1 configs/ios_base_startup-config.txt configs/ios_base_private-config.txt 
Nov 28 08:37:09.257 HYPERVISOR: exec_cmd: nio create_udp udp-3556c46a-fc10-4e6f-a1cd-6ec557750cdc 15006 127.0.0.1 15008 
Nov 28 08:37:09.258 HYPERVISOR: exec_cmd: vm slot_add_nio_binding ESW1 1 0 udp-3556c46a-fc10-4e6f-a1cd-6ec557750cdc 
Nov 28 08:37:09.258 HYPERVISOR: exec_cmd: vm get_status ESW1 
Nov 28 08:37:09.291 HYPERVISOR: exec_cmd: nio create_udp udp-3a8ccdd4-4078-496f-9255-f58e0e041ff1 15010 127.0.0.1 15007 
Nov 28 08:37:09.292 HYPERVISOR: exec_cmd: vm slot_add_nio_binding ESW1 1 1 udp-3a8ccdd4-4078-496f-9255-f58e0e041ff1 
Nov 28 08:37:09.292 HYPERVISOR: exec_cmd: vm get_status ESW1 
Nov 28 08:37:27.932 HYPERVISOR: exec_cmd: vm get_status ESW1 
Nov 28 08:37:27.934 HYPERVISOR: exec_cmd: vm extract_config ESW1 
Nov 28 08:37:27.936 HYPERVISOR: exec_cmd: vm delete ESW1 
Nov 28 08:37:27.936 VM: VM ESW1 destroyed.
Nov 28 08:37:27.938 HYPERVISOR: exec_cmd: hypervisor stop 
Nov 28 08:37:28.067 HYPERVISOR: Stopped.
Nov 28 08:37:28.067 GENERAL: reset done.
