Mar 02 16:04:39.902 HYPERVISOR: Release 0.2.16-amd64/Linux (tag 2015060118)
Mar 02 16:04:39.902 HYPERVISOR: Started on IP = 127.0.0.1, TCP port = 47909.
Mar 02 16:04:39.916 HYPERVISOR: exec_cmd: hypervisor version 
Mar 02 16:04:39.918 HYPERVISOR: exec_cmd: hypervisor working_dir /media/actionmystique/SAMSUNG-850-Ext4/Labs/GNS3/CCNP/TBSHOOT/Exam-Topology/Jean-Christophe_Manciot/1+/v2-solutions-linux/project-files/dynamips 
Mar 02 16:04:39.918 GENERAL: working_dir=/media/actionmystique/SAMSUNG-850-Ext4/Labs/GNS3/CCNP/TBSHOOT/Exam-Topology/Jean-Christophe_Manciot/1+/v2-solutions-linux/project-files/dynamips
Mar 02 16:04:39.919 HYPERVISOR: exec_cmd: frsw create FR 
Mar 02 16:04:40.895 HYPERVISOR: exec_cmd: nio create_udp udp-96565bc8-8c36-4062-aa9b-91011151b51a 15027 127.0.0.1 15026 
Mar 02 16:04:40.938 HYPERVISOR: exec_cmd: nio create_udp udp-d1a46358-f318-4e17-b10a-9c465c914d45 15031 127.0.0.1 15030 
Mar 02 16:04:40.942 HYPERVISOR: exec_cmd: frsw create_vc FR udp-d1a46358-f318-4e17-b10a-9c465c914d45 102 udp-96565bc8-8c36-4062-aa9b-91011151b51a 201 
Mar 02 16:04:40.947 HYPERVISOR: exec_cmd: frsw create_vc FR udp-96565bc8-8c36-4062-aa9b-91011151b51a 201 udp-d1a46358-f318-4e17-b10a-9c465c914d45 102 
Mar 02 16:04:40.969 HYPERVISOR: exec_cmd: nio create_udp udp-5ba60f39-6c6a-431c-9d66-81bcef98fee8 15033 127.0.0.1 15032 
Mar 02 16:04:40.976 HYPERVISOR: exec_cmd: frsw create_vc FR udp-5ba60f39-6c6a-431c-9d66-81bcef98fee8 302 udp-96565bc8-8c36-4062-aa9b-91011151b51a 203 
Mar 02 16:04:40.984 HYPERVISOR: exec_cmd: frsw create_vc FR udp-96565bc8-8c36-4062-aa9b-91011151b51a 203 udp-5ba60f39-6c6a-431c-9d66-81bcef98fee8 302 
Mar 02 16:04:41.038 HYPERVISOR: exec_cmd: nio create_udp udp-dcc0219e-cb05-4b4b-a324-6e4864f6a66b 15039 127.0.0.1 15038 
Mar 02 16:04:41.039 HYPERVISOR: exec_cmd: frsw create_vc FR udp-dcc0219e-cb05-4b4b-a324-6e4864f6a66b 403 udp-5ba60f39-6c6a-431c-9d66-81bcef98fee8 304 
Mar 02 16:04:41.047 HYPERVISOR: exec_cmd: frsw create_vc FR udp-5ba60f39-6c6a-431c-9d66-81bcef98fee8 304 udp-dcc0219e-cb05-4b4b-a324-6e4864f6a66b 403 
Mar 02 16:04:41.114 HYPERVISOR: exec_cmd: nio create_udp udp-73b0d203-34fc-41f7-ad00-8af54ef50fee 15046 127.0.0.1 15047 
Mar 02 16:04:41.114 HYPERVISOR: exec_cmd: frsw create_vc FR udp-73b0d203-34fc-41f7-ad00-8af54ef50fee 502 udp-96565bc8-8c36-4062-aa9b-91011151b51a 205 
Mar 02 16:04:41.127 HYPERVISOR: exec_cmd: frsw create_vc FR udp-96565bc8-8c36-4062-aa9b-91011151b51a 205 udp-73b0d203-34fc-41f7-ad00-8af54ef50fee 502 
Mar 02 16:05:22.140 HYPERVISOR: exec_cmd: frsw delete FR 
Mar 02 16:05:22.283 HYPERVISOR: exec_cmd: hypervisor stop 
Mar 02 16:05:22.460 HYPERVISOR: Stopped.
Mar 02 16:05:22.460 GENERAL: reset done.
