Nov 26 21:57:34.219 HYPERVISOR: Release 0.2.17-amd64/Linux (tag 2017072410)
Nov 26 21:57:34.219 HYPERVISOR: Started on IP = 127.0.0.1, TCP port = 53589.
Nov 26 21:57:34.229 HYPERVISOR: exec_cmd: hypervisor version 
Nov 26 21:57:34.230 HYPERVISOR: exec_cmd: hypervisor working_dir /media/actionmystique/SAMSUNG5-VMs/Labs/GNS3/git-Public-Labs-Collection/CCNP/TBSHOOT/Exam-Topology/Jean-Christophe_Manciot/1+/v2-solutions-linux/project-files/dynamips 
Nov 26 21:57:34.230 GENERAL: working_dir=/media/actionmystique/SAMSUNG5-VMs/Labs/GNS3/git-Public-Labs-Collection/CCNP/TBSHOOT/Exam-Topology/Jean-Christophe_Manciot/1+/v2-solutions-linux/project-files/dynamips
Nov 26 21:57:34.231 HYPERVISOR: exec_cmd: vm create R1 5 c7200 
Nov 26 21:57:34.231 VM: VM R1 created.
Nov 26 21:57:34.231 HYPERVISOR: exec_cmd: vm set_con_tcp_port R1 2012 
Nov 26 21:57:34.231 HYPERVISOR: exec_cmd: c7200 get_mac_addr R1 
Nov 26 21:57:34.232 HYPERVISOR: exec_cmd: vm get_status R1 
Nov 26 21:57:34.232 HYPERVISOR: exec_cmd: vm slot_add_binding R1 0 0 C7200-IO-FE 
Nov 26 21:57:34.232 HYPERVISOR: exec_cmd: vm get_status R1 
Nov 26 21:57:34.233 HYPERVISOR: exec_cmd: vm slot_add_binding R1 2 0 PA-GE 
Nov 26 21:57:34.233 HYPERVISOR: exec_cmd: vm get_status R1 
Nov 26 21:57:34.234 HYPERVISOR: exec_cmd: vm set_idle_pc R1 0x6062f0e0 
Nov 26 21:57:34.234 HYPERVISOR: exec_cmd: vm get_status R1 
Nov 26 21:57:34.234 HYPERVISOR: exec_cmd: vm slot_add_binding R1 1 0 PA-GE 
Nov 26 21:57:34.235 HYPERVISOR: exec_cmd: vm set_nvram R1 256 
Nov 26 21:57:34.235 HYPERVISOR: exec_cmd: vm get_status R1 
Nov 26 21:57:34.236 HYPERVISOR: exec_cmd: vm slot_add_binding R1 3 0 PA-GE 
Nov 26 21:57:34.237 HYPERVISOR: exec_cmd: vm get_status R1 
Nov 26 21:57:34.239 HYPERVISOR: exec_cmd: vm slot_remove_binding R1 0 0 
Nov 26 21:57:34.240 HYPERVISOR: exec_cmd: vm get_status R1 
Nov 26 21:57:34.242 HYPERVISOR: exec_cmd: vm slot_add_binding R1 0 0 C7200-IO-GE-E 
Nov 26 21:57:34.244 HYPERVISOR: exec_cmd: vm set_disk0 R1 1 
Nov 26 21:57:34.245 HYPERVISOR: exec_cmd: vm get_status R1 
Nov 26 21:57:34.246 HYPERVISOR: exec_cmd: vm slot_add_binding R1 4 0 PA-4T+ 
Nov 26 21:57:34.247 HYPERVISOR: exec_cmd: vm set_ram R1 512 
Nov 26 21:57:34.247 HYPERVISOR: exec_cmd: vm get_status R1 
Nov 26 21:57:34.250 HYPERVISOR: exec_cmd: vm slot_add_binding R1 6 0 PA-POS-OC3 
Nov 26 21:57:34.259 HYPERVISOR: exec_cmd: vm get_status R1 
Nov 26 21:57:34.266 HYPERVISOR: exec_cmd: vm slot_add_binding R1 5 0 PA-POS-OC3 
Nov 26 21:57:34.268 HYPERVISOR: exec_cmd: c7200 set_mac_addr R1 ca05.2e32.0000 
Nov 26 21:57:34.270 HYPERVISOR: exec_cmd: vm set_ios R1 /media/actionmystique/SAMSUNG5-VMs/Images/GNS3/IOS/c7200-adventerprisek9-mz.152-4.M2.image 
Nov 26 21:57:34.272 HYPERVISOR: exec_cmd: vm set_config R1 configs/i5_startup-config.cfg 
Nov 26 21:57:34.273 HYPERVISOR: exec_cmd: vm set_config R1 configs/i5_startup-config.cfg configs/i5_private-config.cfg 
Nov 26 21:57:35.249 HYPERVISOR: exec_cmd: nio create_udp udp-52e60268-020e-4034-ac3c-b557c461beab 15028 127.0.0.1 15025 
Nov 26 21:57:35.249 HYPERVISOR: exec_cmd: vm slot_add_nio_binding R1 3 0 udp-52e60268-020e-4034-ac3c-b557c461beab 
Nov 26 21:57:35.250 HYPERVISOR: exec_cmd: vm get_status R1 
Nov 26 21:57:35.261 HYPERVISOR: exec_cmd: nio create_udp udp-a2e50cee-45b4-4059-a6f6-7323976ff3b0 15027 127.0.0.1 15029 
Nov 26 21:57:35.261 HYPERVISOR: exec_cmd: vm slot_add_nio_binding R1 4 0 udp-a2e50cee-45b4-4059-a6f6-7323976ff3b0 
Nov 26 21:57:35.262 HYPERVISOR: exec_cmd: vm get_status R1 
Nov 26 21:57:35.308 HYPERVISOR: exec_cmd: nio create_udp udp-b558e6c0-ab7c-4646-a9f6-1b30a87c331d 15033 127.0.0.1 15032 
Nov 26 21:57:35.309 HYPERVISOR: exec_cmd: vm slot_add_nio_binding R1 2 0 udp-b558e6c0-ab7c-4646-a9f6-1b30a87c331d 
Nov 26 21:57:35.309 HYPERVISOR: exec_cmd: vm get_status R1 
Nov 26 21:57:35.529 HYPERVISOR: exec_cmd: nio create_udp udp-eff44e35-18f5-4e5b-b8d4-b5fe04817d00 15051 127.0.0.1 15049 
Nov 26 21:57:35.530 HYPERVISOR: exec_cmd: vm slot_add_nio_binding R1 1 0 udp-eff44e35-18f5-4e5b-b8d4-b5fe04817d00 
Nov 26 21:57:35.530 HYPERVISOR: exec_cmd: vm get_status R1 
