Nov 26 22:07:10.108 HYPERVISOR: Release 0.2.17-amd64/Linux (tag 2017072410)
Nov 26 22:07:10.108 HYPERVISOR: Started on IP = 127.0.0.1, TCP port = 38119.
Nov 26 22:07:10.120 HYPERVISOR: exec_cmd: hypervisor version 
Nov 26 22:07:10.121 HYPERVISOR: exec_cmd: hypervisor working_dir /media/actionmystique/SAMSUNG5-VMs/Labs/GNS3/git-Public-Labs-Collection/CCNP/TBSHOOT/Infrastructure-Services/DHCP-NAT/Jean-Christophe_Manciot/1+/DHCPv4/TT 1-solutions-linux/project-files/dynamips 
Nov 26 22:07:10.121 GENERAL: working_dir=/media/actionmystique/SAMSUNG5-VMs/Labs/GNS3/git-Public-Labs-Collection/CCNP/TBSHOOT/Infrastructure-Services/DHCP-NAT/Jean-Christophe_Manciot/1+/DHCPv4/TT 1-solutions-linux/project-files/dynamips
Nov 26 22:07:10.121 HYPERVISOR: exec_cmd: vm create ESW2 2 c3725 
Nov 26 22:07:10.121 VM: VM ESW2 created.
Nov 26 22:07:10.122 HYPERVISOR: exec_cmd: vm set_con_tcp_port ESW2 2002 
Nov 26 22:07:10.123 HYPERVISOR: exec_cmd: vm set_aux_tcp_port ESW2 2502 
Nov 26 22:07:10.123 HYPERVISOR: exec_cmd: c3725 get_mac_addr ESW2 
Nov 26 22:07:10.124 HYPERVISOR: exec_cmd: vm slot_add_binding ESW2 0 16 WIC-2T 
Nov 26 22:07:10.125 HYPERVISOR: exec_cmd: vm get_status ESW2 
Nov 26 22:07:10.126 HYPERVISOR: exec_cmd: vm set_idle_pc ESW2 0x60c06d20 
Nov 26 22:07:10.127 HYPERVISOR: exec_cmd: vm get_status ESW2 
Nov 26 22:07:10.128 HYPERVISOR: exec_cmd: vm slot_add_binding ESW2 1 0 NM-16ESW 
Nov 26 22:07:10.128 HYPERVISOR: exec_cmd: vm set_nvram ESW2 256 
Nov 26 22:07:10.129 HYPERVISOR: exec_cmd: vm set_ios ESW2 /media/actionmystique/SAMSUNG5-VMs/Images/GNS3/IOS/c3725-adventerprisek9-mz.124-15.T10.image 
Nov 26 22:07:10.130 HYPERVISOR: exec_cmd: vm set_disk0 ESW2 1 
Nov 26 22:07:10.131 HYPERVISOR: exec_cmd: c3725 set_mac_addr ESW2 c202.28c2.0000 
Nov 26 22:07:10.132 HYPERVISOR: exec_cmd: vm set_config ESW2 configs/i2_startup-config.cfg 
Nov 26 22:07:10.133 HYPERVISOR: exec_cmd: vm set_config ESW2 configs/i2_startup-config.cfg configs/i2_private-config.cfg 
Nov 26 22:07:10.353 HYPERVISOR: exec_cmd: nio create_udp udp-9debae23-5bf3-40ab-9500-5f194c4ae126 15009 127.0.0.1 15007 
Nov 26 22:07:10.353 HYPERVISOR: exec_cmd: vm slot_add_nio_binding ESW2 1 2 udp-9debae23-5bf3-40ab-9500-5f194c4ae126 
Nov 26 22:07:10.353 HYPERVISOR: exec_cmd: vm get_status ESW2 
Nov 26 22:07:15.914 HYPERVISOR: exec_cmd: nio create_tap tap-359521bf-c2d0-4801-8f89-e62883d3719b tap0 
Nov 26 22:07:15.914 HYPERVISOR: exec_cmd: vm slot_add_nio_binding ESW2 1 0 tap-359521bf-c2d0-4801-8f89-e62883d3719b 
Nov 26 22:07:15.915 HYPERVISOR: exec_cmd: vm get_status ESW2 
