Nov 28 08:53:22.689 HYPERVISOR: Release 0.2.17-amd64/Linux (tag 2017072410)
Nov 28 08:53:22.689 HYPERVISOR: Started on IP = 127.0.0.1, TCP port = 34253.
Nov 28 08:53:22.708 HYPERVISOR: exec_cmd: hypervisor version 
Nov 28 08:53:22.708 HYPERVISOR: exec_cmd: hypervisor working_dir /media/actionmystique/SAMSUNG5-VMs/Labs/GNS3/git-Public-Labs-Collection/CCNP/TBSHOOT/L3-Technologies/IPv4/Routing-Protocols/OSPFv2/Jean-Christophe_Manciot/1+/TT 2-linux/project-files/dynamips 
Nov 28 08:53:22.708 GENERAL: working_dir=/media/actionmystique/SAMSUNG5-VMs/Labs/GNS3/git-Public-Labs-Collection/CCNP/TBSHOOT/L3-Technologies/IPv4/Routing-Protocols/OSPFv2/Jean-Christophe_Manciot/1+/TT 2-linux/project-files/dynamips
Nov 28 08:53:22.709 HYPERVISOR: exec_cmd: vm create ESW3 3 c3725 
Nov 28 08:53:22.709 VM: VM ESW3 created.
Nov 28 08:53:22.710 HYPERVISOR: exec_cmd: vm set_con_tcp_port ESW3 2006 
Nov 28 08:53:22.710 HYPERVISOR: exec_cmd: c3725 get_mac_addr ESW3 
Nov 28 08:53:22.711 HYPERVISOR: exec_cmd: vm set_disk0 ESW3 1 
Nov 28 08:53:22.711 HYPERVISOR: exec_cmd: vm get_status ESW3 
Nov 28 08:53:22.712 HYPERVISOR: exec_cmd: vm slot_add_binding ESW3 1 0 NM-16ESW 
Nov 28 08:53:22.713 HYPERVISOR: exec_cmd: vm set_ios ESW3 /media/actionmystique/SAMSUNG5-VMs/Images/GNS3/IOS/c3725-adventerprisek9-mz.124-15.T10.image 
Nov 28 08:53:22.713 HYPERVISOR: exec_cmd: c3725 set_mac_addr ESW3 c203.1bfb.0000 
Nov 28 08:53:22.714 HYPERVISOR: exec_cmd: vm slot_add_binding ESW3 0 16 WIC-2T 
Nov 28 08:53:22.715 HYPERVISOR: exec_cmd: vm get_status ESW3 
Nov 28 08:53:22.715 HYPERVISOR: exec_cmd: vm set_idle_pc ESW3 0x6026b804 
Nov 28 08:53:22.717 HYPERVISOR: exec_cmd: vm set_nvram ESW3 256 
Nov 28 08:53:22.718 HYPERVISOR: exec_cmd: vm set_config ESW3 configs/ios_base_startup-config.txt 
Nov 28 08:53:22.719 HYPERVISOR: exec_cmd: vm set_config ESW3 configs/ios_base_startup-config.txt configs/ios_base_private-config.txt 
Nov 28 08:53:22.848 HYPERVISOR: exec_cmd: nio create_tap tap-2934faae-bfe9-4eea-9737-8c3e00e01258 tap0 
Nov 28 08:53:22.848 HYPERVISOR: exec_cmd: vm slot_add_nio_binding ESW3 1 1 tap-2934faae-bfe9-4eea-9737-8c3e00e01258 
Nov 28 08:53:22.849 HYPERVISOR: exec_cmd: vm get_status ESW3 
Nov 28 08:53:22.956 HYPERVISOR: exec_cmd: nio create_udp udp-7d2d2242-463d-4573-9322-648028de3a52 15013 127.0.0.1 15012 
Nov 28 08:53:22.957 HYPERVISOR: exec_cmd: vm slot_add_nio_binding ESW3 1 0 udp-7d2d2242-463d-4573-9322-648028de3a52 
Nov 28 08:53:22.957 HYPERVISOR: exec_cmd: vm get_status ESW3 
