Nov 28 08:53:33.556 HYPERVISOR: Release 0.2.17-amd64/Linux (tag 2017072410)
Nov 28 08:53:33.556 HYPERVISOR: Started on IP = 127.0.0.1, TCP port = 51277.
Nov 28 08:53:33.572 HYPERVISOR: exec_cmd: hypervisor version 
Nov 28 08:53:33.582 HYPERVISOR: exec_cmd: hypervisor working_dir /media/actionmystique/SAMSUNG5-VMs/Labs/GNS3/TT 2-linux-/project-files/dynamips 
Nov 28 08:53:33.582 GENERAL: working_dir=/media/actionmystique/SAMSUNG5-VMs/Labs/GNS3/TT 2-linux-/project-files/dynamips
Nov 28 08:53:33.596 HYPERVISOR: exec_cmd: vm create ESW3 3 c3725 
Nov 28 08:53:33.596 VM: VM ESW3 created.
Nov 28 08:53:33.606 HYPERVISOR: exec_cmd: vm set_con_tcp_port ESW3 2006 
Nov 28 08:53:33.607 HYPERVISOR: exec_cmd: c3725 get_mac_addr ESW3 
Nov 28 08:53:33.607 HYPERVISOR: exec_cmd: vm set_disk0 ESW3 1 
Nov 28 08:53:33.608 HYPERVISOR: exec_cmd: vm get_status ESW3 
Nov 28 08:53:33.608 HYPERVISOR: exec_cmd: vm slot_add_binding ESW3 1 0 NM-16ESW 
Nov 28 08:53:33.609 HYPERVISOR: exec_cmd: vm set_ios ESW3 /media/actionmystique/SAMSUNG5-VMs/Images/GNS3/IOS/c3725-adventerprisek9-mz.124-15.T10.image 
Nov 28 08:53:33.610 HYPERVISOR: exec_cmd: c3725 set_mac_addr ESW3 c203.1bfb.0000 
Nov 28 08:53:33.610 HYPERVISOR: exec_cmd: vm slot_add_binding ESW3 0 16 WIC-2T 
Nov 28 08:53:33.611 HYPERVISOR: exec_cmd: vm get_status ESW3 
Nov 28 08:53:33.611 HYPERVISOR: exec_cmd: vm set_idle_pc ESW3 0x6026b804 
Nov 28 08:53:33.612 HYPERVISOR: exec_cmd: vm set_nvram ESW3 256 
Nov 28 08:53:33.612 HYPERVISOR: exec_cmd: vm set_config ESW3 configs/ios_base_startup-config.txt 
Nov 28 08:53:33.613 HYPERVISOR: exec_cmd: vm set_config ESW3 configs/ios_base_startup-config.txt configs/ios_base_private-config.txt 
Nov 28 08:53:33.732 HYPERVISOR: exec_cmd: nio create_tap tap-4462814f-4c9e-4aec-bad2-06a12de76474 tap0 
Nov 28 08:53:33.734 HYPERVISOR: exec_cmd: vm slot_add_nio_binding ESW3 1 1 tap-4462814f-4c9e-4aec-bad2-06a12de76474 
Nov 28 08:53:33.735 HYPERVISOR: exec_cmd: vm get_status ESW3 
Nov 28 08:53:33.911 HYPERVISOR: exec_cmd: nio create_udp udp-a108d6a0-c216-43ec-af9a-543b34906412 15013 127.0.0.1 15011 
Nov 28 08:53:33.912 HYPERVISOR: exec_cmd: vm slot_add_nio_binding ESW3 1 0 udp-a108d6a0-c216-43ec-af9a-543b34906412 
Nov 28 08:53:33.912 HYPERVISOR: exec_cmd: vm get_status ESW3 
Nov 28 08:53:50.331 HYPERVISOR: exec_cmd: vm get_status ESW3 
Nov 28 08:53:50.334 HYPERVISOR: exec_cmd: vm extract_config ESW3 
Nov 28 08:53:50.335 HYPERVISOR: exec_cmd: vm delete ESW3 
Nov 28 08:53:50.336 VM: VM ESW3 destroyed.
Nov 28 08:53:50.337 HYPERVISOR: exec_cmd: hypervisor stop 
Nov 28 08:53:50.587 HYPERVISOR: Stopped.
Nov 28 08:53:50.587 GENERAL: reset done.
