Nov 28 08:53:33.482 HYPERVISOR: Release 0.2.17-amd64/Linux (tag 2017072410)
Nov 28 08:53:33.483 HYPERVISOR: Started on IP = 127.0.0.1, TCP port = 34047.
Nov 28 08:53:33.496 HYPERVISOR: exec_cmd: hypervisor version 
Nov 28 08:53:33.496 HYPERVISOR: exec_cmd: hypervisor working_dir /media/actionmystique/SAMSUNG5-VMs/Labs/GNS3/TT 2-linux-/project-files/dynamips 
Nov 28 08:53:33.496 GENERAL: working_dir=/media/actionmystique/SAMSUNG5-VMs/Labs/GNS3/TT 2-linux-/project-files/dynamips
Nov 28 08:53:33.496 HYPERVISOR: exec_cmd: vm create ESW2 2 c3725 
Nov 28 08:53:33.496 VM: VM ESW2 created.
Nov 28 08:53:33.497 HYPERVISOR: exec_cmd: vm set_con_tcp_port ESW2 2005 
Nov 28 08:53:33.497 HYPERVISOR: exec_cmd: c3725 get_mac_addr ESW2 
Nov 28 08:53:33.497 HYPERVISOR: exec_cmd: vm set_disk0 ESW2 1 
Nov 28 08:53:33.498 HYPERVISOR: exec_cmd: vm get_status ESW2 
Nov 28 08:53:33.498 HYPERVISOR: exec_cmd: vm slot_add_binding ESW2 1 0 NM-16ESW 
Nov 28 08:53:33.498 HYPERVISOR: exec_cmd: vm set_ios ESW2 /media/actionmystique/SAMSUNG5-VMs/Images/GNS3/IOS/c3725-adventerprisek9-mz.124-15.T10.image 
Nov 28 08:53:33.499 HYPERVISOR: exec_cmd: c3725 set_mac_addr ESW2 c202.1bd4.0000 
Nov 28 08:53:33.499 HYPERVISOR: exec_cmd: vm slot_add_binding ESW2 0 16 WIC-2T 
Nov 28 08:53:33.500 HYPERVISOR: exec_cmd: vm get_status ESW2 
Nov 28 08:53:33.500 HYPERVISOR: exec_cmd: vm set_idle_pc ESW2 0x6026b804 
Nov 28 08:53:33.500 HYPERVISOR: exec_cmd: vm set_nvram ESW2 256 
Nov 28 08:53:33.501 HYPERVISOR: exec_cmd: vm set_config ESW2 configs/ios_base_startup-config.txt 
Nov 28 08:53:33.501 HYPERVISOR: exec_cmd: vm set_config ESW2 configs/ios_base_startup-config.txt configs/ios_base_private-config.txt 
Nov 28 08:53:33.763 HYPERVISOR: exec_cmd: nio create_udp udp-ffc43fef-f2e5-4b9a-b4f3-fff45620332a 15002 127.0.0.1 15001 
Nov 28 08:53:33.765 HYPERVISOR: exec_cmd: vm slot_add_nio_binding ESW2 1 0 udp-ffc43fef-f2e5-4b9a-b4f3-fff45620332a 
Nov 28 08:53:33.765 HYPERVISOR: exec_cmd: vm get_status ESW2 
Nov 28 08:53:50.333 HYPERVISOR: exec_cmd: vm get_status ESW2 
Nov 28 08:53:50.334 HYPERVISOR: exec_cmd: vm extract_config ESW2 
Nov 28 08:53:50.337 HYPERVISOR: exec_cmd: vm delete ESW2 
Nov 28 08:53:50.337 VM: VM ESW2 destroyed.
Nov 28 08:53:50.338 HYPERVISOR: exec_cmd: hypervisor stop 
Nov 28 08:53:50.513 HYPERVISOR: Stopped.
Nov 28 08:53:50.513 GENERAL: reset done.
