Nov 27 16:20:53.794 HYPERVISOR: Release 0.2.17-amd64/Linux (tag 2017072410)
Nov 27 16:20:53.794 HYPERVISOR: Started on IP = 127.0.0.1, TCP port = 48603.
Nov 27 16:20:53.805 HYPERVISOR: exec_cmd: hypervisor version 
Nov 27 16:20:53.805 HYPERVISOR: exec_cmd: hypervisor working_dir /media/actionmystique/SAMSUNG5-VMs/Labs/GNS3/git-Public-Labs-Collection/CCNP/TBSHOOT/L3-Technologies/IPv4/High-Availability/HSRP/Jean-Christophe_Manciot/1+/TT 1-solutions-linux/project-files/dynamips 
Nov 27 16:20:53.805 GENERAL: working_dir=/media/actionmystique/SAMSUNG5-VMs/Labs/GNS3/git-Public-Labs-Collection/CCNP/TBSHOOT/L3-Technologies/IPv4/High-Availability/HSRP/Jean-Christophe_Manciot/1+/TT 1-solutions-linux/project-files/dynamips
Nov 27 16:20:53.806 HYPERVISOR: exec_cmd: vm create Core 4 c3725 
Nov 27 16:20:53.806 VM: VM Core created.
Nov 27 16:20:53.807 HYPERVISOR: exec_cmd: vm set_con_tcp_port Core 2005 
Nov 27 16:20:53.808 HYPERVISOR: exec_cmd: c3725 get_mac_addr Core 
Nov 27 16:20:53.809 HYPERVISOR: exec_cmd: vm set_ram Core 256 
Nov 27 16:20:53.810 HYPERVISOR: exec_cmd: vm set_nvram Core 256 
Nov 27 16:20:53.811 HYPERVISOR: exec_cmd: vm get_status Core 
Nov 27 16:20:53.812 HYPERVISOR: exec_cmd: vm set_idle_pc Core 0x6026b804 
Nov 27 16:20:53.814 HYPERVISOR: exec_cmd: c3725 set_mac_addr Core c204.0c3e.0000 
Nov 27 16:20:53.816 HYPERVISOR: exec_cmd: vm get_status Core 
Nov 27 16:20:53.819 HYPERVISOR: exec_cmd: vm slot_add_binding Core 1 0 NM-16ESW 
Nov 27 16:20:53.821 HYPERVISOR: exec_cmd: vm set_ios Core /media/actionmystique/SAMSUNG5-VMs/Images/GNS3/IOS/c3725-adventerprisek9-mz.124-15.T10.image 
Nov 27 16:20:53.823 HYPERVISOR: exec_cmd: vm slot_add_binding Core 0 16 WIC-2T 
Nov 27 16:20:53.825 HYPERVISOR: exec_cmd: vm set_disk0 Core 1 
Nov 27 16:20:53.826 HYPERVISOR: exec_cmd: vm set_config Core configs/i4_startup-config.cfg 
Nov 27 16:20:53.827 HYPERVISOR: exec_cmd: vm set_config Core configs/i4_startup-config.cfg configs/i4_private-config.cfg 
Nov 27 16:20:54.037 HYPERVISOR: exec_cmd: nio create_udp udp-5f31e997-8914-4567-85a8-cbad3f2d8110 15000 127.0.0.1 15004 
Nov 27 16:20:54.039 HYPERVISOR: exec_cmd: vm slot_add_nio_binding Core 1 0 udp-5f31e997-8914-4567-85a8-cbad3f2d8110 
Nov 27 16:20:54.042 HYPERVISOR: exec_cmd: vm get_status Core 
Nov 27 16:20:54.149 HYPERVISOR: exec_cmd: nio create_udp udp-34511a12-08aa-4cf2-b4e3-2d2f09f1c8b1 15012 127.0.0.1 15013 
Nov 27 16:20:54.149 HYPERVISOR: exec_cmd: vm slot_add_nio_binding Core 1 1 udp-34511a12-08aa-4cf2-b4e3-2d2f09f1c8b1 
Nov 27 16:20:54.150 HYPERVISOR: exec_cmd: vm get_status Core 
