Nov 27 16:20:53.823 HYPERVISOR: Release 0.2.17-amd64/Linux (tag 2017072410)
Nov 27 16:20:53.823 HYPERVISOR: Started on IP = 127.0.0.1, TCP port = 60529.
Nov 27 16:20:53.839 HYPERVISOR: exec_cmd: hypervisor version 
Nov 27 16:20:53.840 HYPERVISOR: exec_cmd: hypervisor working_dir /media/actionmystique/SAMSUNG5-VMs/Labs/GNS3/git-Public-Labs-Collection/CCNP/TBSHOOT/L3-Technologies/IPv4/High-Availability/HSRP/Jean-Christophe_Manciot/1+/TT 1-solutions-linux/project-files/dynamips 
Nov 27 16:20:53.840 GENERAL: working_dir=/media/actionmystique/SAMSUNG5-VMs/Labs/GNS3/git-Public-Labs-Collection/CCNP/TBSHOOT/L3-Technologies/IPv4/High-Availability/HSRP/Jean-Christophe_Manciot/1+/TT 1-solutions-linux/project-files/dynamips
Nov 27 16:20:53.840 HYPERVISOR: exec_cmd: vm create SW2 2 c3725 
Nov 27 16:20:53.840 VM: VM SW2 created.
Nov 27 16:20:53.841 HYPERVISOR: exec_cmd: vm set_con_tcp_port SW2 2002 
Nov 27 16:20:53.841 HYPERVISOR: exec_cmd: c3725 get_mac_addr SW2 
Nov 27 16:20:53.841 HYPERVISOR: exec_cmd: vm set_nvram SW2 256 
Nov 27 16:20:53.842 HYPERVISOR: exec_cmd: vm get_status SW2 
Nov 27 16:20:53.842 HYPERVISOR: exec_cmd: vm set_idle_pc SW2 0x6026b804 
Nov 27 16:20:53.842 HYPERVISOR: exec_cmd: c3725 set_mac_addr SW2 eeee.eeee.eeee 
Nov 27 16:20:53.843 HYPERVISOR: exec_cmd: vm set_exec_area SW2 16 
Nov 27 16:20:53.843 HYPERVISOR: exec_cmd: vm get_status SW2 
Nov 27 16:20:53.844 HYPERVISOR: exec_cmd: vm slot_add_binding SW2 1 0 NM-16ESW 
Nov 27 16:20:53.844 HYPERVISOR: exec_cmd: vm set_ios SW2 /media/actionmystique/SAMSUNG5-VMs/Images/GNS3/IOS/c3725-adventerprisek9-mz.124-15.T10.image 
Nov 27 16:20:53.844 HYPERVISOR: exec_cmd: vm slot_add_binding SW2 0 16 WIC-2T 
Nov 27 16:20:53.845 HYPERVISOR: exec_cmd: vm set_disk0 SW2 1 
Nov 27 16:20:53.845 HYPERVISOR: exec_cmd: vm set_config SW2 configs/i2_startup-config.cfg 
Nov 27 16:20:53.846 HYPERVISOR: exec_cmd: vm set_config SW2 configs/i2_startup-config.cfg configs/i2_private-config.cfg 
Nov 27 16:20:54.017 HYPERVISOR: exec_cmd: nio create_udp udp-288c84d9-ed2b-4001-ac0b-1a454222957f 15001 127.0.0.1 15002 
Nov 27 16:20:54.017 HYPERVISOR: exec_cmd: vm slot_add_nio_binding SW2 1 0 udp-288c84d9-ed2b-4001-ac0b-1a454222957f 
Nov 27 16:20:54.018 HYPERVISOR: exec_cmd: vm get_status SW2 
Nov 27 16:20:54.065 HYPERVISOR: exec_cmd: nio create_udp udp-974914b2-846f-4b00-a011-e2a3ff5b9925 15006 127.0.0.1 15003 
Nov 27 16:20:54.065 HYPERVISOR: exec_cmd: vm slot_add_nio_binding SW2 1 1 udp-974914b2-846f-4b00-a011-e2a3ff5b9925 
Nov 27 16:20:54.066 HYPERVISOR: exec_cmd: vm get_status SW2 
Nov 27 16:20:54.084 HYPERVISOR: exec_cmd: nio create_udp udp-25f4ae5e-ec00-497e-a2ff-2f0bd7173e57 15008 127.0.0.1 15005 
Nov 27 16:20:54.088 HYPERVISOR: exec_cmd: vm slot_add_nio_binding SW2 1 2 udp-25f4ae5e-ec00-497e-a2ff-2f0bd7173e57 
Nov 27 16:20:54.089 HYPERVISOR: exec_cmd: vm get_status SW2 
