Dec 04 11:12:01.464 HYPERVISOR: Release 0.2.17-amd64/Linux (tag 2017072410)
Dec 04 11:12:01.464 HYPERVISOR: Started on IP = 127.0.0.1, TCP port = 52549.
Dec 04 11:12:01.487 HYPERVISOR: exec_cmd: hypervisor version 
Dec 04 11:12:01.487 HYPERVISOR: exec_cmd: hypervisor working_dir /media/actionmystique/SAMSUNG5-VMs/Labs/GNS3/git-Public-Labs-Collection/CCNP/TBSHOOT/L3-Technologies/IPv6/Routing-Protocols/RIPng/Jean-Christophe_Manciot/1+/TT 3-linux/project-files/dynamips 
Dec 04 11:12:01.487 GENERAL: working_dir=/media/actionmystique/SAMSUNG5-VMs/Labs/GNS3/git-Public-Labs-Collection/CCNP/TBSHOOT/L3-Technologies/IPv6/Routing-Protocols/RIPng/Jean-Christophe_Manciot/1+/TT 3-linux/project-files/dynamips
Dec 04 11:12:01.488 HYPERVISOR: exec_cmd: vm create ESW2 2 c3725 
Dec 04 11:12:01.488 VM: VM ESW2 created.
Dec 04 11:12:01.488 HYPERVISOR: exec_cmd: vm set_con_tcp_port ESW2 2005 
Dec 04 11:12:01.488 HYPERVISOR: exec_cmd: c3725 get_mac_addr ESW2 
Dec 04 11:12:01.489 HYPERVISOR: exec_cmd: vm set_nvram ESW2 256 
Dec 04 11:12:01.489 HYPERVISOR: exec_cmd: vm get_status ESW2 
Dec 04 11:12:01.489 HYPERVISOR: exec_cmd: vm slot_add_binding ESW2 1 0 NM-16ESW 
Dec 04 11:12:01.490 HYPERVISOR: exec_cmd: vm set_ios ESW2 /media/actionmystique/SAMSUNG5-VMs/Images/GNS3/IOS/c3725-adventerprisek9-mz.124-15.T10.image 
Dec 04 11:12:01.490 HYPERVISOR: exec_cmd: vm set_disk0 ESW2 1 
Dec 04 11:12:01.491 HYPERVISOR: exec_cmd: c3725 set_mac_addr ESW2 c202.1bd4.0000 
Dec 04 11:12:01.491 HYPERVISOR: exec_cmd: vm slot_add_binding ESW2 0 16 WIC-2T 
Dec 04 11:12:01.491 HYPERVISOR: exec_cmd: vm get_status ESW2 
Dec 04 11:12:01.492 HYPERVISOR: exec_cmd: vm set_idle_pc ESW2 0x614ac27c 
Dec 04 11:12:01.492 HYPERVISOR: exec_cmd: vm set_config ESW2 configs/ios_base_startup-config.txt 
Dec 04 11:12:01.493 HYPERVISOR: exec_cmd: vm set_config ESW2 configs/ios_base_startup-config.txt configs/ios_base_private-config.txt 
Dec 04 11:12:01.671 HYPERVISOR: exec_cmd: nio create_udp udp-24b25640-4458-40cf-90ca-9dac421d49a1 15011 127.0.0.1 15009 
Dec 04 11:12:01.672 HYPERVISOR: exec_cmd: vm slot_add_nio_binding ESW2 1 0 udp-24b25640-4458-40cf-90ca-9dac421d49a1 
Dec 04 11:12:01.672 HYPERVISOR: exec_cmd: vm get_status ESW2 
