autostart = False
version = 0.8.3
[127.0.0.1:7200]
    workingdir = C:\Users\ActionMystique\Documents\Missions\GNS3\Temp
    udp = 10000
    [[3640]]
        image = C:\Users\ActionMystique\Documents\Missions\IOS\Binaries\c3640-jk9o3s-mz.124-16a.bin
        idlepc = 0x604d1c74
        sparsemem = True
        ghostios = True
        chassis = 3640
    [[ROUTER R1]]
        model = 3640
        console = 2000
        aux = 2100
        cnfg = configs\R1.cfg
        slot0 = NM-4T
        s0/0 = R2 s0/0
        x = -254.707106781
        y = -85.6360389693
        z = 1.0
    [[ROUTER R2]]
        model = 3640
        console = 2001
        aux = 2101
        cnfg = configs\R2.cfg
        slot0 = NM-4T
        s0/0 = R1 s0/0
        x = 110.0
        y = -84.0
        z = 1.0
[GNS3-DATA]
    configs = configs
    m11 = 1.41421356237
    m22 = 1.41421356237
    [[NOTE 1]]
        text = ".1"
        x = -185.261976671
        y = -90.1959594929
        color = "#0000ff"
    [[NOTE 2]]
        text = ".2"
        x = 87.6812408671
        y = -89.4888527117
        color = "#0000ff"
    [[NOTE 3]]
        text = "Johnson"
        x = 115.258405333
        y = -40.6984848098
        color = "#323232"
    [[NOTE 4]]
        text = "192.168.12.0 /24"
        x = -89.0954544295
        y = -111.409162928
        color = "#0000ff"
    [[NOTE 5]]
        text = "Jack"
        x = -245.366053072
        y = -39.2842712468
        color = "#323232"
