Dec 04 11:06:41.309 HYPERVISOR: Release 0.2.17-amd64/Linux (tag 2017072410)
Dec 04 11:06:41.309 HYPERVISOR: Started on IP = 127.0.0.1, TCP port = 49697.
Dec 04 11:06:41.332 HYPERVISOR: exec_cmd: hypervisor version 
Dec 04 11:06:41.333 HYPERVISOR: exec_cmd: hypervisor working_dir /media/actionmystique/SAMSUNG5-VMs/Labs/GNS3/TT 1-linux-/project-files/dynamips 
Dec 04 11:06:41.333 GENERAL: working_dir=/media/actionmystique/SAMSUNG5-VMs/Labs/GNS3/TT 1-linux-/project-files/dynamips
Dec 04 11:06:41.346 HYPERVISOR: exec_cmd: vm create ESW2 2 c3725 
Dec 04 11:06:41.346 VM: VM ESW2 created.
Dec 04 11:06:41.351 HYPERVISOR: exec_cmd: vm set_con_tcp_port ESW2 2005 
Dec 04 11:06:41.353 HYPERVISOR: exec_cmd: c3725 get_mac_addr ESW2 
Dec 04 11:06:41.354 HYPERVISOR: exec_cmd: vm set_nvram ESW2 256 
Dec 04 11:06:41.355 HYPERVISOR: exec_cmd: vm set_ios ESW2 /media/actionmystique/SAMSUNG5-VMs/Images/GNS3/IOS/c3725-adventerprisek9-mz.124-15.T10.image 
Dec 04 11:06:41.356 HYPERVISOR: exec_cmd: c3725 set_mac_addr ESW2 c202.1bd4.0000 
Dec 04 11:06:41.357 HYPERVISOR: exec_cmd: vm get_status ESW2 
Dec 04 11:06:41.358 HYPERVISOR: exec_cmd: vm slot_add_binding ESW2 1 0 NM-16ESW 
Dec 04 11:06:41.360 HYPERVISOR: exec_cmd: vm get_status ESW2 
Dec 04 11:06:41.360 HYPERVISOR: exec_cmd: vm set_idle_pc ESW2 0x614ac27c 
Dec 04 11:06:41.369 HYPERVISOR: exec_cmd: vm set_disk0 ESW2 1 
Dec 04 11:06:41.372 HYPERVISOR: exec_cmd: vm slot_add_binding ESW2 0 16 WIC-2T 
Dec 04 11:06:41.374 HYPERVISOR: exec_cmd: vm set_config ESW2 configs/ios_base_startup-config.txt 
Dec 04 11:06:41.376 HYPERVISOR: exec_cmd: vm set_config ESW2 configs/ios_base_startup-config.txt configs/ios_base_private-config.txt 
Dec 04 11:06:41.712 HYPERVISOR: exec_cmd: nio create_udp udp-0512841d-748a-4f15-a5d0-a2235a5b2e0c 15010 127.0.0.1 15005 
Dec 04 11:06:41.719 HYPERVISOR: exec_cmd: vm slot_add_nio_binding ESW2 1 0 udp-0512841d-748a-4f15-a5d0-a2235a5b2e0c 
Dec 04 11:06:41.723 HYPERVISOR: exec_cmd: vm get_status ESW2 
Dec 04 11:06:57.386 HYPERVISOR: exec_cmd: vm get_status ESW2 
Dec 04 11:06:57.393 HYPERVISOR: exec_cmd: vm extract_config ESW2 
Dec 04 11:06:57.397 HYPERVISOR: exec_cmd: vm delete ESW2 
Dec 04 11:06:57.397 VM: VM ESW2 destroyed.
Dec 04 11:06:57.408 HYPERVISOR: exec_cmd: hypervisor stop 
Dec 04 11:06:57.844 HYPERVISOR: Stopped.
Dec 04 11:06:57.844 GENERAL: reset done.
