Nov 29 19:10:01.193 HYPERVISOR: Release 0.2.17-amd64/Linux (tag 2017072410)
Nov 29 19:10:01.193 HYPERVISOR: Started on IP = 127.0.0.1, TCP port = 51825.
Nov 29 19:10:01.201 HYPERVISOR: exec_cmd: hypervisor version 
Nov 29 19:10:01.202 HYPERVISOR: exec_cmd: hypervisor working_dir /media/actionmystique/SAMSUNG5-VMs/Labs/GNS3/git-Public-Labs-Collection/CCNP/TBSHOOT/L3-Technologies/IPv6/Routing-Protocols/OSPFv3/Jean-Christophe_Manciot/1+/TT 1-linux/project-files/dynamips 
Nov 29 19:10:01.202 GENERAL: working_dir=/media/actionmystique/SAMSUNG5-VMs/Labs/GNS3/git-Public-Labs-Collection/CCNP/TBSHOOT/L3-Technologies/IPv6/Routing-Protocols/OSPFv3/Jean-Christophe_Manciot/1+/TT 1-linux/project-files/dynamips
Nov 29 19:10:01.215 HYPERVISOR: exec_cmd: vm create ESW2 2 c3725 
Nov 29 19:10:01.215 VM: VM ESW2 created.
Nov 29 19:10:01.218 HYPERVISOR: exec_cmd: vm set_con_tcp_port ESW2 2005 
Nov 29 19:10:01.220 HYPERVISOR: exec_cmd: c3725 get_mac_addr ESW2 
Nov 29 19:10:01.220 HYPERVISOR: exec_cmd: vm set_disk0 ESW2 1 
Nov 29 19:10:01.220 HYPERVISOR: exec_cmd: vm get_status ESW2 
Nov 29 19:10:01.221 HYPERVISOR: exec_cmd: vm set_idle_pc ESW2 0x614ac27c 
Nov 29 19:10:01.221 HYPERVISOR: exec_cmd: c3725 set_mac_addr ESW2 c202.1bd4.0000 
Nov 29 19:10:01.221 HYPERVISOR: exec_cmd: vm set_nvram ESW2 256 
Nov 29 19:10:01.223 HYPERVISOR: exec_cmd: vm get_status ESW2 
Nov 29 19:10:01.224 HYPERVISOR: exec_cmd: vm slot_add_binding ESW2 1 0 NM-16ESW 
Nov 29 19:10:01.225 HYPERVISOR: exec_cmd: vm set_ios ESW2 /media/actionmystique/SAMSUNG5-VMs/Images/GNS3/IOS/c3725-adventerprisek9-mz.124-15.T10.image 
Nov 29 19:10:01.225 HYPERVISOR: exec_cmd: vm slot_add_binding ESW2 0 16 WIC-2T 
Nov 29 19:10:01.226 HYPERVISOR: exec_cmd: vm set_config ESW2 configs/ios_base_startup-config.txt 
Nov 29 19:10:01.226 HYPERVISOR: exec_cmd: vm set_config ESW2 configs/ios_base_startup-config.txt configs/ios_base_private-config.txt 
Nov 29 19:10:01.616 HYPERVISOR: exec_cmd: nio create_udp udp-abe5bef0-b29e-4489-9df9-e6cbb5e282af 15018 127.0.0.1 15019 
Nov 29 19:10:01.617 HYPERVISOR: exec_cmd: vm slot_add_nio_binding ESW2 1 0 udp-abe5bef0-b29e-4489-9df9-e6cbb5e282af 
Nov 29 19:10:01.617 HYPERVISOR: exec_cmd: vm get_status ESW2 
Nov 29 19:11:09.851 HYPERVISOR: exec_cmd: vm extract_config ESW2 
Nov 29 19:11:09.855 HYPERVISOR: exec_cmd: vm get_status ESW2 
Nov 29 19:11:09.857 HYPERVISOR: exec_cmd: vm extract_config ESW2 
Nov 29 19:11:09.859 HYPERVISOR: exec_cmd: vm delete ESW2 
Nov 29 19:11:09.859 VM: VM ESW2 destroyed.
Nov 29 19:11:09.861 HYPERVISOR: exec_cmd: hypervisor stop 
Nov 29 19:11:10.272 HYPERVISOR: Stopped.
Nov 29 19:11:10.272 GENERAL: reset done.
