Nov 29 19:10:01.155 HYPERVISOR: Release 0.2.17-amd64/Linux (tag 2017072410)
Nov 29 19:10:01.155 HYPERVISOR: Started on IP = 127.0.0.1, TCP port = 47359.
Nov 29 19:10:01.183 HYPERVISOR: exec_cmd: hypervisor version 
Nov 29 19:10:01.184 HYPERVISOR: exec_cmd: hypervisor working_dir /media/actionmystique/SAMSUNG5-VMs/Labs/GNS3/git-Public-Labs-Collection/CCNP/TBSHOOT/L3-Technologies/IPv6/Routing-Protocols/OSPFv3/Jean-Christophe_Manciot/1+/TT 1-linux/project-files/dynamips 
Nov 29 19:10:01.184 GENERAL: working_dir=/media/actionmystique/SAMSUNG5-VMs/Labs/GNS3/git-Public-Labs-Collection/CCNP/TBSHOOT/L3-Technologies/IPv6/Routing-Protocols/OSPFv3/Jean-Christophe_Manciot/1+/TT 1-linux/project-files/dynamips
Nov 29 19:10:01.185 HYPERVISOR: exec_cmd: vm create ESW3 3 c3725 
Nov 29 19:10:01.185 VM: VM ESW3 created.
Nov 29 19:10:01.186 HYPERVISOR: exec_cmd: vm set_con_tcp_port ESW3 2006 
Nov 29 19:10:01.187 HYPERVISOR: exec_cmd: c3725 get_mac_addr ESW3 
Nov 29 19:10:01.188 HYPERVISOR: exec_cmd: vm set_disk0 ESW3 1 
Nov 29 19:10:01.189 HYPERVISOR: exec_cmd: vm get_status ESW3 
Nov 29 19:10:01.190 HYPERVISOR: exec_cmd: vm set_idle_pc ESW3 0x614ac27c 
Nov 29 19:10:01.191 HYPERVISOR: exec_cmd: c3725 set_mac_addr ESW3 c203.1bfb.0000 
Nov 29 19:10:01.192 HYPERVISOR: exec_cmd: vm set_nvram ESW3 256 
Nov 29 19:10:01.193 HYPERVISOR: exec_cmd: vm get_status ESW3 
Nov 29 19:10:01.195 HYPERVISOR: exec_cmd: vm slot_add_binding ESW3 1 0 NM-16ESW 
Nov 29 19:10:01.197 HYPERVISOR: exec_cmd: vm set_ios ESW3 /media/actionmystique/SAMSUNG5-VMs/Images/GNS3/IOS/c3725-adventerprisek9-mz.124-15.T10.image 
Nov 29 19:10:01.198 HYPERVISOR: exec_cmd: vm slot_add_binding ESW3 0 16 WIC-2T 
Nov 29 19:10:01.200 HYPERVISOR: exec_cmd: vm set_config ESW3 configs/ios_base_startup-config.txt 
Nov 29 19:10:01.201 HYPERVISOR: exec_cmd: vm set_config ESW3 configs/ios_base_startup-config.txt configs/ios_base_private-config.txt 
Nov 29 19:10:01.313 HYPERVISOR: exec_cmd: nio create_tap tap-a19be7f4-82da-4414-b1f6-026d7a161a19 tap0 
Nov 29 19:10:01.315 HYPERVISOR: exec_cmd: vm slot_add_nio_binding ESW3 1 1 tap-a19be7f4-82da-4414-b1f6-026d7a161a19 
Nov 29 19:10:01.316 HYPERVISOR: exec_cmd: vm get_status ESW3 
Nov 29 19:10:01.516 HYPERVISOR: exec_cmd: nio create_udp udp-0eb32ba4-227a-4d87-bb0b-18f8d76241a7 15009 127.0.0.1 15008 
Nov 29 19:10:01.517 HYPERVISOR: exec_cmd: vm slot_add_nio_binding ESW3 1 0 udp-0eb32ba4-227a-4d87-bb0b-18f8d76241a7 
Nov 29 19:10:01.517 HYPERVISOR: exec_cmd: vm get_status ESW3 
Nov 29 19:11:09.854 HYPERVISOR: exec_cmd: vm get_status ESW3 
Nov 29 19:11:09.856 HYPERVISOR: exec_cmd: vm extract_config ESW3 
Nov 29 19:11:09.858 HYPERVISOR: exec_cmd: vm delete ESW3 
Nov 29 19:11:09.858 VM: VM ESW3 destroyed.
Nov 29 19:11:09.860 HYPERVISOR: exec_cmd: hypervisor stop 
Nov 29 19:11:10.247 HYPERVISOR: Stopped.
Nov 29 19:11:10.248 GENERAL: reset done.
