Nov 27 16:21:22.939 HYPERVISOR: Release 0.2.17-amd64/Linux (tag 2017072410)
Nov 27 16:21:22.940 HYPERVISOR: Started on IP = 127.0.0.1, TCP port = 39239.
Nov 27 16:21:22.973 HYPERVISOR: exec_cmd: hypervisor version 
Nov 27 16:21:22.974 HYPERVISOR: exec_cmd: hypervisor working_dir /media/actionmystique/SAMSUNG5-VMs/Labs/GNS3/TT 2-linux-/project-files/dynamips 
Nov 27 16:21:22.974 GENERAL: working_dir=/media/actionmystique/SAMSUNG5-VMs/Labs/GNS3/TT 2-linux-/project-files/dynamips
Nov 27 16:21:22.975 HYPERVISOR: exec_cmd: vm create SW3 3 c3725 
Nov 27 16:21:22.975 VM: VM SW3 created.
Nov 27 16:21:22.976 HYPERVISOR: exec_cmd: vm set_con_tcp_port SW3 2003 
Nov 27 16:21:22.976 HYPERVISOR: exec_cmd: c3725 get_mac_addr SW3 
Nov 27 16:21:22.977 HYPERVISOR: exec_cmd: vm set_nvram SW3 256 
Nov 27 16:21:22.978 HYPERVISOR: exec_cmd: vm get_status SW3 
Nov 27 16:21:22.979 HYPERVISOR: exec_cmd: vm set_idle_pc SW3 0x614ac21c 
Nov 27 16:21:22.980 HYPERVISOR: exec_cmd: c3725 set_mac_addr SW3 cccc.cccc.cccc 
Nov 27 16:21:22.981 HYPERVISOR: exec_cmd: vm set_exec_area SW3 16 
Nov 27 16:21:22.982 HYPERVISOR: exec_cmd: vm get_status SW3 
Nov 27 16:21:22.983 HYPERVISOR: exec_cmd: vm slot_add_binding SW3 1 0 NM-16ESW 
Nov 27 16:21:22.984 HYPERVISOR: exec_cmd: vm set_disk0 SW3 1 
Nov 27 16:21:22.985 HYPERVISOR: exec_cmd: vm set_ios SW3 /media/actionmystique/SAMSUNG5-VMs/Images/GNS3/IOS/c3725-adventerprisek9-mz.124-15.T10.image 
Nov 27 16:21:22.986 HYPERVISOR: exec_cmd: vm slot_add_binding SW3 0 16 WIC-2T 
Nov 27 16:21:22.987 HYPERVISOR: exec_cmd: vm set_config SW3 configs/i3_startup-config.cfg 
Nov 27 16:21:22.989 HYPERVISOR: exec_cmd: vm set_config SW3 configs/i3_startup-config.cfg configs/i3_private-config.cfg 
Nov 27 16:21:23.180 HYPERVISOR: exec_cmd: nio create_udp udp-7f439e12-be1e-48b5-9bef-80fcdcf08319 15004 127.0.0.1 15003 
Nov 27 16:21:23.187 HYPERVISOR: exec_cmd: vm slot_add_nio_binding SW3 1 1 udp-7f439e12-be1e-48b5-9bef-80fcdcf08319 
Nov 27 16:21:23.188 HYPERVISOR: exec_cmd: vm get_status SW3 
Nov 27 16:21:23.229 HYPERVISOR: exec_cmd: nio create_udp udp-2cacce33-e426-4705-a650-364857dab093 15001 127.0.0.1 15007 
Nov 27 16:21:23.230 HYPERVISOR: exec_cmd: vm slot_add_nio_binding SW3 1 2 udp-2cacce33-e426-4705-a650-364857dab093 
Nov 27 16:21:23.233 HYPERVISOR: exec_cmd: vm get_status SW3 
Nov 27 16:21:23.269 HYPERVISOR: exec_cmd: nio create_udp udp-1a5cef11-fea3-44e0-bb38-19a43f8e3a62 15008 127.0.0.1 15009 
Nov 27 16:21:23.269 HYPERVISOR: exec_cmd: vm slot_add_nio_binding SW3 1 5 udp-1a5cef11-fea3-44e0-bb38-19a43f8e3a62 
Nov 27 16:21:23.270 HYPERVISOR: exec_cmd: vm get_status SW3 
Nov 27 16:21:23.285 HYPERVISOR: exec_cmd: nio create_udp udp-e1c5111d-a1e5-445b-8e88-69c59b732288 15011 127.0.0.1 15012 
Nov 27 16:21:23.285 HYPERVISOR: exec_cmd: vm slot_add_nio_binding SW3 1 6 udp-e1c5111d-a1e5-445b-8e88-69c59b732288 
Nov 27 16:21:23.285 HYPERVISOR: exec_cmd: vm get_status SW3 
Nov 27 16:21:39.013 HYPERVISOR: exec_cmd: vm get_status SW3 
Nov 27 16:21:39.014 HYPERVISOR: exec_cmd: vm extract_config SW3 
Nov 27 16:21:39.018 HYPERVISOR: exec_cmd: vm delete SW3 
Nov 27 16:21:39.018 VM: VM SW3 destroyed.
Nov 27 16:21:39.019 HYPERVISOR: exec_cmd: hypervisor stop 
Nov 27 16:21:39.488 HYPERVISOR: Stopped.
Nov 27 16:21:39.488 GENERAL: reset done.
