Jul 19 16:19:24.243 HYPERVISOR: Release 0.2.16-amd64/Linux (tag 2015060118)
Jul 19 16:19:24.243 HYPERVISOR: Started on IP = 127.0.0.1, TCP port = 48988.
Jul 19 16:19:24.248 HYPERVISOR: exec_cmd: hypervisor version 
Jul 19 16:19:24.249 HYPERVISOR: exec_cmd: hypervisor working_dir /media/actionmystique/SAMSUNG-850-Ext4/Labs/GNS3/CCNP/TBSHOOT/L2-Technologies/STP/Jean-Christophe_Manciot/1+/TT 1-solutions-linux/project-files/dynamips 
Jul 19 16:19:24.249 GENERAL: working_dir=/media/actionmystique/SAMSUNG-850-Ext4/Labs/GNS3/CCNP/TBSHOOT/L2-Technologies/STP/Jean-Christophe_Manciot/1+/TT 1-solutions-linux/project-files/dynamips
Jul 19 16:19:24.250 HYPERVISOR: exec_cmd: vm create SW3 3 c3725 
Jul 19 16:19:24.250 VM: VM SW3 created.
Jul 19 16:19:24.252 HYPERVISOR: exec_cmd: vm set_con_tcp_port SW3 2003 
Jul 19 16:19:24.253 HYPERVISOR: exec_cmd: c3725 get_mac_addr SW3 
Jul 19 16:19:24.254 HYPERVISOR: exec_cmd: c3725 set_mac_addr SW3 cccc.cccc.cccc 
Jul 19 16:19:24.255 HYPERVISOR: exec_cmd: vm set_ios SW3 /media/actionmystique/SAMSUNG-850-Ext4/Images/GNS3/IOS/c3725-adventerprisek9-mz.124-15.T10.image 
Jul 19 16:19:24.256 HYPERVISOR: exec_cmd: vm get_status SW3 
Jul 19 16:19:24.257 HYPERVISOR: exec_cmd: vm slot_add_binding SW3 1 0 NM-16ESW 
Jul 19 16:19:24.258 HYPERVISOR: exec_cmd: vm get_status SW3 
Jul 19 16:19:24.260 HYPERVISOR: exec_cmd: vm set_idle_pc SW3 0x6026b804 
Jul 19 16:19:24.261 HYPERVISOR: exec_cmd: vm set_nvram SW3 256 
Jul 19 16:19:24.265 HYPERVISOR: exec_cmd: vm set_exec_area SW3 16 
Jul 19 16:19:24.266 HYPERVISOR: exec_cmd: vm set_disk0 SW3 1 
Jul 19 16:19:24.267 HYPERVISOR: exec_cmd: vm slot_add_binding SW3 0 16 WIC-2T 
Jul 19 16:19:24.271 HYPERVISOR: exec_cmd: vm set_config SW3 configs/i3_startup-config.cfg 
Jul 19 16:19:24.272 HYPERVISOR: exec_cmd: vm set_config SW3 configs/i3_startup-config.cfg configs/i3_private-config.cfg 
Jul 19 16:19:24.312 HYPERVISOR: exec_cmd: nio create_null null-bb4ec30e-2d74-4d63-9c62-3e5f2b5fdd89 
Jul 19 16:19:24.315 HYPERVISOR: exec_cmd: vm slot_add_nio_binding SW3 1 0 null-bb4ec30e-2d74-4d63-9c62-3e5f2b5fdd89 
Jul 19 16:19:24.316 HYPERVISOR: exec_cmd: vm get_status SW3 
Jul 19 16:19:24.441 HYPERVISOR: exec_cmd: nio create_udp udp-de8fd53d-dd0c-4d18-9281-652ddbd66c3f 15005 127.0.0.1 15004 
Jul 19 16:19:24.444 HYPERVISOR: exec_cmd: vm slot_add_nio_binding SW3 1 2 udp-de8fd53d-dd0c-4d18-9281-652ddbd66c3f 
Jul 19 16:19:24.445 HYPERVISOR: exec_cmd: vm get_status SW3 
Jul 19 16:19:24.469 HYPERVISOR: exec_cmd: nio create_udp udp-61e4ba8a-d982-4a8b-b4a4-444f9240cc7f 15007 127.0.0.1 15006 
Jul 19 16:19:24.470 HYPERVISOR: exec_cmd: vm slot_add_nio_binding SW3 1 5 udp-61e4ba8a-d982-4a8b-b4a4-444f9240cc7f 
Jul 19 16:19:24.470 HYPERVISOR: exec_cmd: vm get_status SW3 
Jul 19 16:19:24.489 HYPERVISOR: exec_cmd: nio create_udp udp-9124acc2-8cdc-45ce-9ef6-19611c24e41c 15009 127.0.0.1 15008 
Jul 19 16:19:24.490 HYPERVISOR: exec_cmd: vm slot_add_nio_binding SW3 1 6 udp-9124acc2-8cdc-45ce-9ef6-19611c24e41c 
Jul 19 16:19:24.490 HYPERVISOR: exec_cmd: vm get_status SW3 
Jul 19 16:20:29.572 HYPERVISOR: exec_cmd: vm get_status SW3 
Jul 19 16:20:29.573 HYPERVISOR: exec_cmd: vm extract_config SW3 
Jul 19 16:20:29.575 HYPERVISOR: exec_cmd: vm delete SW3 
Jul 19 16:20:29.575 VM: VM SW3 destroyed.
Jul 19 16:20:29.575 HYPERVISOR: exec_cmd: hypervisor stop 
Jul 19 16:20:29.811 HYPERVISOR: Stopped.
Jul 19 16:20:29.812 GENERAL: reset done.
