Apr 09 19:39:35.915 HYPERVISOR: Release 0.2.14-amd64/Linux (tag 2014092320)
Apr 09 19:39:35.915 HYPERVISOR: Started on IP = 127.0.0.1, TCP port = 7200.
Apr 09 19:39:35.920 HYPERVISOR: exec_cmd: hypervisor version 
Apr 09 19:39:35.921 HYPERVISOR: exec_cmd: hypervisor uuid 
Apr 09 19:39:35.921 HYPERVISOR: exec_cmd: hypervisor working_dir /home/actionmystique/Google Drive/Missions/Certifications/Cisco/Labs/GNS3/CCNP/TBSHOOT/L3 Technologies/Routing/Jean-Christophe/1+/SVI/TT 2-linux/TT 2-linux-files/dynamips 
Apr 09 19:39:35.921 GENERAL: working_dir=/home/actionmystique/Google Drive/Missions/Certifications/Cisco/Labs/GNS3/CCNP/TBSHOOT/L3 Technologies/Routing/Jean-Christophe/1+/SVI/TT 2-linux/TT 2-linux-files/dynamips
Apr 09 19:39:35.921 HYPERVISOR: exec_cmd: vm create ESW1 1 c3725 
Apr 09 19:39:35.939 VM: VM ESW1 created.
Apr 09 19:39:35.939 HYPERVISOR: exec_cmd: vm set_con_tcp_port ESW1 2001 
Apr 09 19:39:35.939 HYPERVISOR: exec_cmd: vm set_aux_tcp_port ESW1 2501 
Apr 09 19:39:35.939 HYPERVISOR: exec_cmd: c3725 get_mac_addr ESW1 
Apr 09 19:39:35.939 HYPERVISOR: exec_cmd: vm set_ios ESW1 /media/actionmystique/SAMSUNG-Ext4/Images/GNS3/IOS/c3725-adventerprisek9-mz.124-15.T10.image 
Apr 09 19:39:35.940 HYPERVISOR: exec_cmd: vm set_sparse_mem ESW1 1 
Apr 09 19:39:35.940 HYPERVISOR: exec_cmd: vm set_ram_mmap ESW1 1 
Apr 09 19:39:35.940 HYPERVISOR: exec_cmd: c3725 set_mac_addr ESW1 c201.3297.0000 
Apr 09 19:39:35.940 HYPERVISOR: exec_cmd: vm create Ghost 0 c7200 
Apr 09 19:39:35.940 VM: VM Ghost created.
Apr 09 19:39:35.940 HYPERVISOR: exec_cmd: vm set_ios Ghost /media/actionmystique/SAMSUNG-Ext4/Images/GNS3/IOS/c3725-adventerprisek9-mz.124-15.T10.image 
Apr 09 19:39:35.941 HYPERVISOR: exec_cmd: vm set_ghost_status Ghost 1 
Apr 09 19:39:35.941 HYPERVISOR: exec_cmd: vm set_ghost_file Ghost c3725-adventerprisek9-mz.124-15.T10.image-128.ghost 
Apr 09 19:39:35.941 HYPERVISOR: exec_cmd: vm get_status Ghost 
Apr 09 19:39:35.941 HYPERVISOR: exec_cmd: vm start Ghost 
Apr 09 19:39:37.472 HYPERVISOR: exec_cmd: vm get_status Ghost 
Apr 09 19:39:37.472 HYPERVISOR: exec_cmd: vm stop Ghost 
Apr 09 19:39:37.609 VM: VM Ghost shutdown.
Apr 09 19:39:37.609 HYPERVISOR: exec_cmd: vm clean_delete Ghost 
Apr 09 19:39:37.610 VM: VM Ghost destroyed.
Apr 09 19:39:37.612 HYPERVISOR: exec_cmd: vm set_ghost_status ESW1 2 
Apr 09 19:39:37.613 HYPERVISOR: exec_cmd: vm set_ghost_file ESW1 c3725-adventerprisek9-mz.124-15.T10.image-128.ghost 
Apr 09 19:39:37.636 HYPERVISOR: exec_cmd: vm set_config ESW1 configs/i1_startup-config.cfg 
Apr 09 19:39:37.636 HYPERVISOR: exec_cmd: vm set_config ESW1 configs/i1_startup-config.cfg configs/i1_private-config.cfg 
Apr 09 19:39:37.637 HYPERVISOR: exec_cmd: vm slot_add_binding ESW1 0 16 WIC-2T 
Apr 09 19:39:37.637 HYPERVISOR: exec_cmd: vm set_disk0 ESW1 1 
Apr 09 19:39:37.637 HYPERVISOR: exec_cmd: vm get_status ESW1 
Apr 09 19:39:37.637 HYPERVISOR: exec_cmd: vm set_idle_pc ESW1 0x614ac2c4 
Apr 09 19:39:37.637 HYPERVISOR: exec_cmd: vm set_nvram ESW1 256 
Apr 09 19:39:37.638 HYPERVISOR: exec_cmd: vm get_status ESW1 
Apr 09 19:39:37.638 HYPERVISOR: exec_cmd: vm slot_add_binding ESW1 1 0 NM-16ESW 
Apr 09 19:39:37.638 HYPERVISOR: exec_cmd: vm get_status ESW1 
Apr 09 19:39:37.641 HYPERVISOR: exec_cmd: nio create_udp_auto nio_udp_auto0 127.0.0.1 10001 20000 
Apr 09 19:39:37.643 HYPERVISOR: exec_cmd: nio create_udp_auto nio_udp_auto1 127.0.0.1 10001 20000 
Apr 09 19:39:37.690 HYPERVISOR: exec_cmd: nio connect_udp_auto nio_udp_auto0 127.0.0.1 20500 
Apr 09 19:39:37.690 HYPERVISOR: exec_cmd: vm slot_add_nio_binding ESW1 1 2 nio_udp_auto0 
Apr 09 19:39:37.690 HYPERVISOR: exec_cmd: vm get_status ESW1 
Apr 09 19:39:37.697 HYPERVISOR: exec_cmd: nio connect_udp_auto nio_udp_auto1 127.0.0.1 20501 
Apr 09 19:39:37.697 HYPERVISOR: exec_cmd: vm slot_add_nio_binding ESW1 1 1 nio_udp_auto1 
Apr 09 19:39:37.697 HYPERVISOR: exec_cmd: vm get_status ESW1 
Apr 09 19:39:51.473 HYPERVISOR: exec_cmd: vm extract_config ESW1 
Apr 09 19:40:02.248 HYPERVISOR: exec_cmd: vm extract_config ESW1 
Apr 09 19:40:02.253 HYPERVISOR: exec_cmd: hypervisor stop 
