Nov 26 21:59:16.864 HYPERVISOR: Release 0.2.17-amd64/Linux (tag 2017072410)
Nov 26 21:59:16.864 HYPERVISOR: Started on IP = 127.0.0.1, TCP port = 47267.
Nov 26 21:59:16.902 HYPERVISOR: exec_cmd: hypervisor version 
Nov 26 21:59:16.902 HYPERVISOR: exec_cmd: hypervisor working_dir /media/actionmystique/SAMSUNG5-VMs/Labs/GNS3/TT 1-linux-/project-files/dynamips 
Nov 26 21:59:16.902 GENERAL: working_dir=/media/actionmystique/SAMSUNG5-VMs/Labs/GNS3/TT 1-linux-/project-files/dynamips
Nov 26 21:59:16.903 HYPERVISOR: exec_cmd: vm create ESW1 1 c3725 
Nov 26 21:59:16.903 VM: VM ESW1 created.
Nov 26 21:59:16.903 HYPERVISOR: exec_cmd: vm set_con_tcp_port ESW1 2004 
Nov 26 21:59:16.904 HYPERVISOR: exec_cmd: c3725 get_mac_addr ESW1 
Nov 26 21:59:16.904 HYPERVISOR: exec_cmd: vm slot_add_binding ESW1 0 16 WIC-2T 
Nov 26 21:59:16.905 HYPERVISOR: exec_cmd: vm get_status ESW1 
Nov 26 21:59:16.905 HYPERVISOR: exec_cmd: vm set_idle_pc ESW1 0x614ac27c 
Nov 26 21:59:16.905 HYPERVISOR: exec_cmd: vm set_nvram ESW1 256 
Nov 26 21:59:16.906 HYPERVISOR: exec_cmd: vm get_status ESW1 
Nov 26 21:59:16.906 HYPERVISOR: exec_cmd: vm slot_add_binding ESW1 1 0 NM-16ESW 
Nov 26 21:59:16.907 HYPERVISOR: exec_cmd: vm set_ios ESW1 /media/actionmystique/SAMSUNG5-VMs/Images/GNS3/IOS/c3725-adventerprisek9-mz.124-15.T10.image 
Nov 26 21:59:16.907 HYPERVISOR: exec_cmd: vm set_disk0 ESW1 1 
Nov 26 21:59:16.908 HYPERVISOR: exec_cmd: c3725 set_mac_addr ESW1 c201.1a63.0000 
Nov 26 21:59:16.909 HYPERVISOR: exec_cmd: vm set_config ESW1 configs/i1_startup-config.cfg 
Nov 26 21:59:16.909 HYPERVISOR: exec_cmd: vm set_config ESW1 configs/i1_startup-config.cfg configs/i1_private-config.cfg 
Nov 26 21:59:16.993 HYPERVISOR: exec_cmd: nio create_tap tap-c534c544-6361-4683-a61e-7624bf7036e8 tap0 
Nov 26 21:59:16.995 HYPERVISOR: exec_cmd: vm slot_add_nio_binding ESW1 1 1 tap-c534c544-6361-4683-a61e-7624bf7036e8 
Nov 26 21:59:16.996 HYPERVISOR: exec_cmd: vm get_status ESW1 
Nov 26 21:59:17.077 HYPERVISOR: exec_cmd: nio create_udp udp-b9adc7a9-6d85-430b-a280-0116e30c2ff2 15005 127.0.0.1 15001 
Nov 26 21:59:17.077 HYPERVISOR: exec_cmd: vm slot_add_nio_binding ESW1 1 0 udp-b9adc7a9-6d85-430b-a280-0116e30c2ff2 
Nov 26 21:59:17.077 HYPERVISOR: exec_cmd: vm get_status ESW1 
Nov 26 22:00:31.631 HYPERVISOR: exec_cmd: vm get_status ESW1 
Nov 26 22:00:31.633 HYPERVISOR: exec_cmd: vm extract_config ESW1 
Nov 26 22:00:31.634 HYPERVISOR: exec_cmd: vm delete ESW1 
Nov 26 22:00:31.634 VM: VM ESW1 destroyed.
Nov 26 22:00:31.635 HYPERVISOR: exec_cmd: hypervisor stop 
Nov 26 22:00:31.982 HYPERVISOR: Stopped.
Nov 26 22:00:31.982 GENERAL: reset done.
