Nov 27 16:20:09.939 HYPERVISOR: Release 0.2.17-amd64/Linux (tag 2017072410)
Nov 27 16:20:09.939 HYPERVISOR: Started on IP = 127.0.0.1, TCP port = 37839.
Nov 27 16:20:09.949 HYPERVISOR: exec_cmd: hypervisor version 
Nov 27 16:20:09.950 HYPERVISOR: exec_cmd: hypervisor working_dir /media/actionmystique/SAMSUNG5-VMs/Labs/GNS3/git-Public-Labs-Collection/CCNP/TBSHOOT/L3-Technologies/IPv4/High-Availability/HSRP/Jean-Christophe_Manciot/1+/TT 1-linux/project-files/dynamips 
Nov 27 16:20:09.950 GENERAL: working_dir=/media/actionmystique/SAMSUNG5-VMs/Labs/GNS3/git-Public-Labs-Collection/CCNP/TBSHOOT/L3-Technologies/IPv4/High-Availability/HSRP/Jean-Christophe_Manciot/1+/TT 1-linux/project-files/dynamips
Nov 27 16:20:09.950 HYPERVISOR: exec_cmd: vm create SW1 1 c3725 
Nov 27 16:20:09.950 VM: VM SW1 created.
Nov 27 16:20:09.951 HYPERVISOR: exec_cmd: vm set_con_tcp_port SW1 2001 
Nov 27 16:20:09.951 HYPERVISOR: exec_cmd: c3725 get_mac_addr SW1 
Nov 27 16:20:09.951 HYPERVISOR: exec_cmd: vm set_nvram SW1 256 
Nov 27 16:20:09.952 HYPERVISOR: exec_cmd: vm get_status SW1 
Nov 27 16:20:09.952 HYPERVISOR: exec_cmd: vm set_idle_pc SW1 0x614ac21c 
Nov 27 16:20:09.952 HYPERVISOR: exec_cmd: c3725 set_mac_addr SW1 aaaa.aaaa.aaaa 
Nov 27 16:20:09.953 HYPERVISOR: exec_cmd: vm set_exec_area SW1 16 
Nov 27 16:20:09.953 HYPERVISOR: exec_cmd: vm get_status SW1 
Nov 27 16:20:09.953 HYPERVISOR: exec_cmd: vm slot_add_binding SW1 1 0 NM-16ESW 
Nov 27 16:20:09.954 HYPERVISOR: exec_cmd: vm set_ios SW1 /media/actionmystique/SAMSUNG5-VMs/Images/GNS3/IOS/c3725-adventerprisek9-mz.124-15.T10.image 
Nov 27 16:20:09.954 HYPERVISOR: exec_cmd: vm slot_add_binding SW1 0 16 WIC-2T 
Nov 27 16:20:09.955 HYPERVISOR: exec_cmd: vm set_disk0 SW1 1 
Nov 27 16:20:09.955 HYPERVISOR: exec_cmd: vm set_config SW1 configs/i1_startup-config.cfg 
Nov 27 16:20:09.956 HYPERVISOR: exec_cmd: vm set_config SW1 configs/i1_startup-config.cfg configs/i1_private-config.cfg 
Nov 27 16:20:10.165 HYPERVISOR: exec_cmd: nio create_udp udp-30d211d3-d71a-4827-8625-d5575d159f5b 15005 127.0.0.1 15008 
Nov 27 16:20:10.165 HYPERVISOR: exec_cmd: vm slot_add_nio_binding SW1 1 5 udp-30d211d3-d71a-4827-8625-d5575d159f5b 
Nov 27 16:20:10.166 HYPERVISOR: exec_cmd: vm get_status SW1 
Nov 27 16:20:10.185 HYPERVISOR: exec_cmd: nio create_udp udp-3e7ed719-3aec-49d3-bb3b-8d801186eb5f 15007 127.0.0.1 15009 
Nov 27 16:20:10.188 HYPERVISOR: exec_cmd: vm slot_add_nio_binding SW1 1 6 udp-3e7ed719-3aec-49d3-bb3b-8d801186eb5f 
Nov 27 16:20:10.189 HYPERVISOR: exec_cmd: vm get_status SW1 
Nov 27 16:20:10.198 HYPERVISOR: exec_cmd: nio create_udp udp-6aad4729-1e41-4298-9b8a-b03682c5e08b 15011 127.0.0.1 15010 
Nov 27 16:20:10.199 HYPERVISOR: exec_cmd: vm slot_add_nio_binding SW1 1 1 udp-6aad4729-1e41-4298-9b8a-b03682c5e08b 
Nov 27 16:20:10.200 HYPERVISOR: exec_cmd: vm get_status SW1 
Nov 27 16:20:10.225 HYPERVISOR: exec_cmd: nio create_udp udp-2003f4f8-181e-4b85-bd09-6dce66b3c566 15013 127.0.0.1 15012 
Nov 27 16:20:10.225 HYPERVISOR: exec_cmd: vm slot_add_nio_binding SW1 1 0 udp-2003f4f8-181e-4b85-bd09-6dce66b3c566 
Nov 27 16:20:10.226 HYPERVISOR: exec_cmd: vm get_status SW1 
