Nov 27 16:20:40.150 HYPERVISOR: Release 0.2.17-amd64/Linux (tag 2017072410)
Nov 27 16:20:40.150 HYPERVISOR: Started on IP = 127.0.0.1, TCP port = 35887.
Nov 27 16:20:40.163 HYPERVISOR: exec_cmd: hypervisor version 
Nov 27 16:20:40.163 HYPERVISOR: exec_cmd: hypervisor working_dir /media/actionmystique/SAMSUNG5-VMs/Labs/GNS3/TT 1-linux-/project-files/dynamips 
Nov 27 16:20:40.163 GENERAL: working_dir=/media/actionmystique/SAMSUNG5-VMs/Labs/GNS3/TT 1-linux-/project-files/dynamips
Nov 27 16:20:40.164 HYPERVISOR: exec_cmd: vm create Core 4 c3725 
Nov 27 16:20:40.164 VM: VM Core created.
Nov 27 16:20:40.164 HYPERVISOR: exec_cmd: vm set_con_tcp_port Core 2005 
Nov 27 16:20:40.164 HYPERVISOR: exec_cmd: c3725 get_mac_addr Core 
Nov 27 16:20:40.165 HYPERVISOR: exec_cmd: vm set_ram Core 256 
Nov 27 16:20:40.165 HYPERVISOR: exec_cmd: vm set_nvram Core 256 
Nov 27 16:20:40.165 HYPERVISOR: exec_cmd: vm get_status Core 
Nov 27 16:20:40.166 HYPERVISOR: exec_cmd: vm set_idle_pc Core 0x614ac21c 
Nov 27 16:20:40.166 HYPERVISOR: exec_cmd: c3725 set_mac_addr Core c204.0c3e.0000 
Nov 27 16:20:40.167 HYPERVISOR: exec_cmd: vm get_status Core 
Nov 27 16:20:40.167 HYPERVISOR: exec_cmd: vm slot_add_binding Core 1 0 NM-16ESW 
Nov 27 16:20:40.167 HYPERVISOR: exec_cmd: vm set_disk0 Core 1 
Nov 27 16:20:40.168 HYPERVISOR: exec_cmd: vm set_ios Core /media/actionmystique/SAMSUNG5-VMs/Images/GNS3/IOS/c3725-adventerprisek9-mz.124-15.T10.image 
Nov 27 16:20:40.168 HYPERVISOR: exec_cmd: vm slot_add_binding Core 0 16 WIC-2T 
Nov 27 16:20:40.169 HYPERVISOR: exec_cmd: vm set_config Core configs/i4_startup-config.cfg 
Nov 27 16:20:40.169 HYPERVISOR: exec_cmd: vm set_config Core configs/i4_startup-config.cfg configs/i4_private-config.cfg 
Nov 27 16:20:40.430 HYPERVISOR: exec_cmd: nio create_udp udp-4f7abd56-7667-489d-a5e7-29828233caba 15003 127.0.0.1 15004 
Nov 27 16:20:40.439 HYPERVISOR: exec_cmd: vm slot_add_nio_binding Core 1 1 udp-4f7abd56-7667-489d-a5e7-29828233caba 
Nov 27 16:20:40.440 HYPERVISOR: exec_cmd: vm get_status Core 
Nov 27 16:20:40.553 HYPERVISOR: exec_cmd: nio create_udp udp-1a01e023-3648-43b1-aaf8-98d352f1e5e6 15013 127.0.0.1 15012 
Nov 27 16:20:40.553 HYPERVISOR: exec_cmd: vm slot_add_nio_binding Core 1 0 udp-1a01e023-3648-43b1-aaf8-98d352f1e5e6 
Nov 27 16:20:40.554 HYPERVISOR: exec_cmd: vm get_status Core 
Nov 27 16:20:52.866 HYPERVISOR: exec_cmd: vm get_status Core 
Nov 27 16:20:52.867 HYPERVISOR: exec_cmd: vm extract_config Core 
Nov 27 16:20:52.871 HYPERVISOR: exec_cmd: vm delete Core 
Nov 27 16:20:52.871 VM: VM Core destroyed.
Nov 27 16:20:52.872 HYPERVISOR: exec_cmd: hypervisor stop 
Nov 27 16:20:53.176 HYPERVISOR: Stopped.
Nov 27 16:20:53.176 GENERAL: reset done.
