Dec 04 11:10:04.155 HYPERVISOR: Release 0.2.17-amd64/Linux (tag 2017072410)
Dec 04 11:10:04.155 HYPERVISOR: Started on IP = 127.0.0.1, TCP port = 57963.
Dec 04 11:10:04.165 HYPERVISOR: exec_cmd: hypervisor version 
Dec 04 11:10:04.165 HYPERVISOR: exec_cmd: hypervisor working_dir /media/actionmystique/SAMSUNG5-VMs/Labs/GNS3/git-Public-Labs-Collection/CCNP/TBSHOOT/L3-Technologies/IPv6/Routing-Protocols/RIPng/Jean-Christophe_Manciot/1+/TT 2-linux/project-files/dynamips 
Dec 04 11:10:04.165 GENERAL: working_dir=/media/actionmystique/SAMSUNG5-VMs/Labs/GNS3/git-Public-Labs-Collection/CCNP/TBSHOOT/L3-Technologies/IPv6/Routing-Protocols/RIPng/Jean-Christophe_Manciot/1+/TT 2-linux/project-files/dynamips
Dec 04 11:10:04.166 HYPERVISOR: exec_cmd: vm create ESW3 3 c3725 
Dec 04 11:10:04.166 VM: VM ESW3 created.
Dec 04 11:10:04.166 HYPERVISOR: exec_cmd: vm set_con_tcp_port ESW3 2006 
Dec 04 11:10:04.166 HYPERVISOR: exec_cmd: c3725 get_mac_addr ESW3 
Dec 04 11:10:04.167 HYPERVISOR: exec_cmd: vm set_nvram ESW3 256 
Dec 04 11:10:04.167 HYPERVISOR: exec_cmd: vm set_ios ESW3 /media/actionmystique/SAMSUNG5-VMs/Images/GNS3/IOS/c3725-adventerprisek9-mz.124-15.T10.image 
Dec 04 11:10:04.167 HYPERVISOR: exec_cmd: c3725 set_mac_addr ESW3 c203.1bfb.0000 
Dec 04 11:10:04.168 HYPERVISOR: exec_cmd: vm get_status ESW3 
Dec 04 11:10:04.168 HYPERVISOR: exec_cmd: vm slot_add_binding ESW3 1 0 NM-16ESW 
Dec 04 11:10:04.169 HYPERVISOR: exec_cmd: vm get_status ESW3 
Dec 04 11:10:04.169 HYPERVISOR: exec_cmd: vm set_idle_pc ESW3 0x614ac27c 
Dec 04 11:10:04.169 HYPERVISOR: exec_cmd: vm set_disk0 ESW3 1 
Dec 04 11:10:04.170 HYPERVISOR: exec_cmd: vm slot_add_binding ESW3 0 16 WIC-2T 
Dec 04 11:10:04.170 HYPERVISOR: exec_cmd: vm set_config ESW3 configs/ios_base_startup-config.txt 
Dec 04 11:10:04.171 HYPERVISOR: exec_cmd: vm set_config ESW3 configs/ios_base_startup-config.txt configs/ios_base_private-config.txt 
Dec 04 11:10:04.279 HYPERVISOR: exec_cmd: nio create_udp udp-a0e1ff5b-9ae3-4d77-a2c4-21f4295f6b13 15004 127.0.0.1 15005 
Dec 04 11:10:04.286 HYPERVISOR: exec_cmd: vm slot_add_nio_binding ESW3 1 0 udp-a0e1ff5b-9ae3-4d77-a2c4-21f4295f6b13 
Dec 04 11:10:04.287 HYPERVISOR: exec_cmd: vm get_status ESW3 
Dec 04 11:10:06.774 HYPERVISOR: exec_cmd: nio create_tap tap-13fb2574-9672-4559-94c4-94a7ecefb034 tap0 
Dec 04 11:10:06.775 HYPERVISOR: exec_cmd: vm slot_add_nio_binding ESW3 1 1 tap-13fb2574-9672-4559-94c4-94a7ecefb034 
Dec 04 11:10:06.776 HYPERVISOR: exec_cmd: vm get_status ESW3 
