Nov 27 16:13:00.734 HYPERVISOR: Release 0.2.17-amd64/Linux (tag 2017072410)
Nov 27 16:13:00.734 HYPERVISOR: Started on IP = 127.0.0.1, TCP port = 57465.
Nov 27 16:13:00.754 HYPERVISOR: exec_cmd: hypervisor version 
Nov 27 16:13:00.754 HYPERVISOR: exec_cmd: hypervisor working_dir /media/actionmystique/SAMSUNG5-VMs/Labs/GNS3/TT 1-solutions-linux-/project-files/dynamips 
Nov 27 16:13:00.754 GENERAL: working_dir=/media/actionmystique/SAMSUNG5-VMs/Labs/GNS3/TT 1-solutions-linux-/project-files/dynamips
Nov 27 16:13:00.755 HYPERVISOR: exec_cmd: vm create ESW1 1 c3725 
Nov 27 16:13:00.755 VM: VM ESW1 created.
Nov 27 16:13:00.756 HYPERVISOR: exec_cmd: vm set_con_tcp_port ESW1 2001 
Nov 27 16:13:00.757 HYPERVISOR: exec_cmd: c3725 get_mac_addr ESW1 
Nov 27 16:13:00.758 HYPERVISOR: exec_cmd: vm set_nvram ESW1 256 
Nov 27 16:13:00.759 HYPERVISOR: exec_cmd: vm get_status ESW1 
Nov 27 16:13:00.760 HYPERVISOR: exec_cmd: vm set_idle_pc ESW1 0x60c05928 
Nov 27 16:13:00.761 HYPERVISOR: exec_cmd: c3725 set_mac_addr ESW1 c201.3b55.0000 
Nov 27 16:13:00.762 HYPERVISOR: exec_cmd: vm get_status ESW1 
Nov 27 16:13:00.763 HYPERVISOR: exec_cmd: vm slot_add_binding ESW1 1 0 NM-16ESW 
Nov 27 16:13:00.764 HYPERVISOR: exec_cmd: vm set_disk0 ESW1 1 
Nov 27 16:13:00.765 HYPERVISOR: exec_cmd: vm set_ios ESW1 /media/actionmystique/SAMSUNG5-VMs/Images/GNS3/IOS/c3725-adventerprisek9-mz.124-15.T10.image 
Nov 27 16:13:00.766 HYPERVISOR: exec_cmd: vm slot_add_binding ESW1 0 16 WIC-2T 
Nov 27 16:13:00.767 HYPERVISOR: exec_cmd: vm set_config ESW1 configs/i1_startup-config.cfg 
Nov 27 16:13:00.768 HYPERVISOR: exec_cmd: vm set_config ESW1 configs/i1_startup-config.cfg configs/i1_private-config.cfg 
Nov 27 16:13:00.908 HYPERVISOR: exec_cmd: nio create_tap tap-8cb2933b-018e-40da-9663-f32425f929ff tap1 
Nov 27 16:13:00.911 HYPERVISOR: exec_cmd: vm slot_add_nio_binding ESW1 1 3 tap-8cb2933b-018e-40da-9663-f32425f929ff 
Nov 27 16:13:00.912 HYPERVISOR: exec_cmd: vm get_status ESW1 
Nov 27 16:13:00.960 HYPERVISOR: exec_cmd: nio create_udp udp-2c957313-b314-443a-949f-f3d0f11c3848 15006 127.0.0.1 15005 
Nov 27 16:13:00.961 HYPERVISOR: exec_cmd: vm slot_add_nio_binding ESW1 1 1 udp-2c957313-b314-443a-949f-f3d0f11c3848 
Nov 27 16:13:00.961 HYPERVISOR: exec_cmd: vm get_status ESW1 
Nov 27 16:13:00.971 HYPERVISOR: exec_cmd: nio create_udp udp-d9559c3e-3707-486e-bce4-535ec5c496ef 15003 127.0.0.1 15007 
Nov 27 16:13:00.972 HYPERVISOR: exec_cmd: vm slot_add_nio_binding ESW1 1 0 udp-d9559c3e-3707-486e-bce4-535ec5c496ef 
Nov 27 16:13:00.973 HYPERVISOR: exec_cmd: vm get_status ESW1 
Nov 27 16:13:01.009 HYPERVISOR: exec_cmd: nio create_udp udp-365c6c99-8250-4c83-b2d7-e1aff837727c 15008 127.0.0.1 15009 
Nov 27 16:13:01.009 HYPERVISOR: exec_cmd: vm slot_add_nio_binding ESW1 1 2 udp-365c6c99-8250-4c83-b2d7-e1aff837727c 
Nov 27 16:13:01.010 HYPERVISOR: exec_cmd: vm get_status ESW1 
Nov 27 16:13:14.412 HYPERVISOR: exec_cmd: vm get_status ESW1 
Nov 27 16:13:14.414 HYPERVISOR: exec_cmd: vm extract_config ESW1 
Nov 27 16:13:14.415 HYPERVISOR: exec_cmd: vm delete ESW1 
Nov 27 16:13:14.415 VM: VM ESW1 destroyed.
Nov 27 16:13:14.417 HYPERVISOR: exec_cmd: hypervisor stop 
Nov 27 16:13:14.765 HYPERVISOR: Stopped.
Nov 27 16:13:14.765 GENERAL: reset done.
