Nov 27 16:19:45.976 HYPERVISOR: Release 0.2.17-amd64/Linux (tag 2017072410)
Nov 27 16:19:45.976 HYPERVISOR: Started on IP = 127.0.0.1, TCP port = 35151.
Nov 27 16:19:45.989 HYPERVISOR: exec_cmd: hypervisor version 
Nov 27 16:19:45.990 HYPERVISOR: exec_cmd: hypervisor working_dir /media/actionmystique/SAMSUNG5-VMs/Labs/GNS3/git-Public-Labs-Collection/CCNP/TBSHOOT/L3-Technologies/IPv4/High-Availability/GLBP/Jean-Christophe_Manciot/1+/TT 2-solutions-linux/project-files/dynamips 
Nov 27 16:19:45.990 GENERAL: working_dir=/media/actionmystique/SAMSUNG5-VMs/Labs/GNS3/git-Public-Labs-Collection/CCNP/TBSHOOT/L3-Technologies/IPv4/High-Availability/GLBP/Jean-Christophe_Manciot/1+/TT 2-solutions-linux/project-files/dynamips
Nov 27 16:19:45.991 HYPERVISOR: exec_cmd: vm create SW3 3 c3725 
Nov 27 16:19:45.991 VM: VM SW3 created.
Nov 27 16:19:45.991 HYPERVISOR: exec_cmd: vm set_con_tcp_port SW3 2003 
Nov 27 16:19:45.992 HYPERVISOR: exec_cmd: c3725 get_mac_addr SW3 
Nov 27 16:19:45.993 HYPERVISOR: exec_cmd: vm set_nvram SW3 256 
Nov 27 16:19:45.994 HYPERVISOR: exec_cmd: vm get_status SW3 
Nov 27 16:19:45.995 HYPERVISOR: exec_cmd: vm set_idle_pc SW3 0x60c056e4 
Nov 27 16:19:45.996 HYPERVISOR: exec_cmd: c3725 set_mac_addr SW3 cccc.cccc.cccc 
Nov 27 16:19:45.998 HYPERVISOR: exec_cmd: vm set_exec_area SW3 16 
Nov 27 16:19:45.999 HYPERVISOR: exec_cmd: vm get_status SW3 
Nov 27 16:19:46.000 HYPERVISOR: exec_cmd: vm slot_add_binding SW3 1 0 NM-16ESW 
Nov 27 16:19:46.001 HYPERVISOR: exec_cmd: vm set_ios SW3 /media/actionmystique/SAMSUNG5-VMs/Images/GNS3/IOS/c3725-adventerprisek9-mz.124-15.T10.image 
Nov 27 16:19:46.002 HYPERVISOR: exec_cmd: vm slot_add_binding SW3 0 16 WIC-2T 
Nov 27 16:19:46.007 HYPERVISOR: exec_cmd: vm set_disk0 SW3 1 
Nov 27 16:19:46.007 HYPERVISOR: exec_cmd: vm set_config SW3 configs/i3_startup-config.cfg 
Nov 27 16:19:46.008 HYPERVISOR: exec_cmd: vm set_config SW3 configs/i3_startup-config.cfg configs/i3_private-config.cfg 
Nov 27 16:19:46.197 HYPERVISOR: exec_cmd: nio create_udp udp-8b9d7f44-392f-43f3-a3a6-622a5ee7661e 15002 127.0.0.1 15001 
Nov 27 16:19:46.200 HYPERVISOR: exec_cmd: vm slot_add_nio_binding SW3 1 5 udp-8b9d7f44-392f-43f3-a3a6-622a5ee7661e 
Nov 27 16:19:46.201 HYPERVISOR: exec_cmd: vm get_status SW3 
Nov 27 16:19:46.253 HYPERVISOR: exec_cmd: nio create_udp udp-0621dece-2a5c-4130-b428-2689e9545f68 15005 127.0.0.1 15003 
Nov 27 16:19:46.253 HYPERVISOR: exec_cmd: vm slot_add_nio_binding SW3 1 6 udp-0621dece-2a5c-4130-b428-2689e9545f68 
Nov 27 16:19:46.254 HYPERVISOR: exec_cmd: vm get_status SW3 
Nov 27 16:19:46.264 HYPERVISOR: exec_cmd: nio create_udp udp-117e8d95-ad79-4423-be9d-c2dc7614a79f 15008 127.0.0.1 15007 
Nov 27 16:19:46.271 HYPERVISOR: exec_cmd: vm slot_add_nio_binding SW3 1 1 udp-117e8d95-ad79-4423-be9d-c2dc7614a79f 
Nov 27 16:19:46.272 HYPERVISOR: exec_cmd: vm get_status SW3 
Nov 27 16:19:46.341 HYPERVISOR: exec_cmd: nio create_udp udp-41893189-eb24-47a8-a874-5a0f10bdde1c 15014 127.0.0.1 15015 
Nov 27 16:19:46.342 HYPERVISOR: exec_cmd: vm slot_add_nio_binding SW3 1 2 udp-41893189-eb24-47a8-a874-5a0f10bdde1c 
Nov 27 16:19:46.346 HYPERVISOR: exec_cmd: vm get_status SW3 
