Nov 27 16:25:30.236 HYPERVISOR: Release 0.2.17-amd64/Linux (tag 2017072410)
Nov 27 16:25:30.236 HYPERVISOR: Started on IP = 127.0.0.1, TCP port = 57343.
Nov 27 16:25:30.277 HYPERVISOR: exec_cmd: hypervisor version 
Nov 27 16:25:30.278 HYPERVISOR: exec_cmd: hypervisor working_dir /media/actionmystique/SAMSUNG5-VMs/Labs/GNS3/TT 1-linux-/project-files/dynamips 
Nov 27 16:25:30.278 GENERAL: working_dir=/media/actionmystique/SAMSUNG5-VMs/Labs/GNS3/TT 1-linux-/project-files/dynamips
Nov 27 16:25:30.279 HYPERVISOR: exec_cmd: vm create ESW1 1 c3725 
Nov 27 16:25:30.279 VM: VM ESW1 created.
Nov 27 16:25:30.280 HYPERVISOR: exec_cmd: vm set_con_tcp_port ESW1 2001 
Nov 27 16:25:30.281 HYPERVISOR: exec_cmd: vm set_aux_tcp_port ESW1 2501 
Nov 27 16:25:30.282 HYPERVISOR: exec_cmd: c3725 get_mac_addr ESW1 
Nov 27 16:25:30.283 HYPERVISOR: exec_cmd: vm set_nvram ESW1 256 
Nov 27 16:25:30.284 HYPERVISOR: exec_cmd: vm get_status ESW1 
Nov 27 16:25:30.285 HYPERVISOR: exec_cmd: vm set_idle_pc ESW1 0x6026b804 
Nov 27 16:25:30.287 HYPERVISOR: exec_cmd: c3725 set_mac_addr ESW1 c201.281a.0000 
Nov 27 16:25:30.288 HYPERVISOR: exec_cmd: vm get_status ESW1 
Nov 27 16:25:30.289 HYPERVISOR: exec_cmd: vm slot_add_binding ESW1 1 0 NM-16ESW 
Nov 27 16:25:30.290 HYPERVISOR: exec_cmd: vm set_disk0 ESW1 1 
Nov 27 16:25:30.291 HYPERVISOR: exec_cmd: vm set_ios ESW1 /media/actionmystique/SAMSUNG5-VMs/Images/GNS3/IOS/c3725-adventerprisek9-mz.124-15.T10.image 
Nov 27 16:25:30.292 HYPERVISOR: exec_cmd: vm slot_add_binding ESW1 0 16 WIC-2T 
Nov 27 16:25:30.294 HYPERVISOR: exec_cmd: vm set_config ESW1 configs/i1_startup-config.cfg 
Nov 27 16:25:30.295 HYPERVISOR: exec_cmd: vm set_config ESW1 configs/i1_startup-config.cfg configs/i1_private-config.cfg 
Nov 27 16:25:30.442 HYPERVISOR: exec_cmd: nio create_udp udp-bb564ebe-b398-4bf4-80ab-e1ff8b9c7647 15004 127.0.0.1 15006 
Nov 27 16:25:30.443 HYPERVISOR: exec_cmd: vm slot_add_nio_binding ESW1 1 0 udp-bb564ebe-b398-4bf4-80ab-e1ff8b9c7647 
Nov 27 16:25:30.444 HYPERVISOR: exec_cmd: vm get_status ESW1 
Nov 27 16:25:30.485 HYPERVISOR: exec_cmd: nio create_udp udp-e5331a7d-bf1e-4a2d-a8d6-5aa03fc8f831 15007 127.0.0.1 15005 
Nov 27 16:25:30.485 HYPERVISOR: exec_cmd: vm slot_add_nio_binding ESW1 1 1 udp-e5331a7d-bf1e-4a2d-a8d6-5aa03fc8f831 
Nov 27 16:25:30.486 HYPERVISOR: exec_cmd: vm get_status ESW1 
Nov 27 16:25:41.600 HYPERVISOR: exec_cmd: vm get_status ESW1 
Nov 27 16:25:41.601 HYPERVISOR: exec_cmd: vm extract_config ESW1 
Nov 27 16:25:41.602 HYPERVISOR: exec_cmd: vm delete ESW1 
Nov 27 16:25:41.602 VM: VM ESW1 destroyed.
Nov 27 16:25:41.603 HYPERVISOR: exec_cmd: hypervisor stop 
Nov 27 16:25:41.785 HYPERVISOR: Stopped.
Nov 27 16:25:41.785 GENERAL: reset done.
