autostart = False
version = 0.8.6
[127.0.0.1:7202]
    workingdir = working
    udp = 11200
    [[3725]]
        image = c3725-adventerprisek9-mz.124-15.T10.image
        ram = 256
        idlepc = 0x6026b804
        sparsemem = True
        ghostios = True
    [[ROUTER SW14]]
        model = 3725
        console = 2017
        aux = 2517
        cnfg = configs/SW14.cfg
        slot1 = NM-16ESW
        f1/0 = Server_2141 f1/0
        f1/2 = SW2 f1/14
        f1/3 = SW3 f1/14
        f1/4 = SW4 f1/14
        f1/7 = NIO_udp:30006:127.0.0.1:20006
        f1/8 = NIO_udp:30007:127.0.0.1:20007
        symbol = EtherSwitch router
        x = 309.805987585
        y = 229.557890885
        z = 1.0
[127.0.0.1:7210]
    workingdir = working
    udp = 12000
    [[7200]]
        image = c7200-adventerprisek9-mz.152-4.M2.image
        ram = 512
        idlepc = 0x60188e14
        idlemax = 500
        sparsemem = True
        ghostios = True
    [[ROUTER VerISPon]]
        console = 2125
        aux = 2525
        cnfg = configs/VerISPon.cfg
        slot0 = C7200-IO-FE
        f0/0 = SW1 f0/1
        slot1 = PA-POS-OC3
        p1/0 = Level3-ISP p2/0
        slot2 = PA-FE-TX
        f2/0 = SW2 f0/0
        slot3 = PA-FE-TX
        f3/0 = SW3 f0/1
        slot4 = PA-FE-TX
        f4/0 = SW4 f0/1
        slot5 = PA-FE-TX
        f5/0 = SW5 f0/1
        x = 422.853044736
        y = -48.907992224
        z = 1.0
        hx = -1.0
        hy = 43.061392096
[127.0.0.1:7200]
    workingdir = working
    udp = 11000
    [[3725]]
        image = c3725-adventerprisek9-mz.124-15.T10.image
        ram = 256
        idlepc = 0x6026b804
        sparsemem = True
        ghostios = True
    [[ROUTER SW1]]
        model = 3725
        console = 2001
        aux = 2501
        cnfg = configs/SW1.cfg
        f0/0 = GooglISP f0/0
        f0/1 = VerISPon f0/0
        slot1 = NM-16ESW
        f1/2 = SW2 f1/2
        f1/3 = SW3 f1/3
        f1/4 = SW4 f1/4
        f1/5 = SW5 f1/5
        f1/11 = SW11 f1/1
        f1/12 = SW12 f1/1
        f1/15 = SW15 f1/1
        symbol = EtherSwitch router
        x = -244.916995695
        y = -165.749317862
        z = 1.0
        hx = -35.0310147405
        hy = 9.0804714392
    [[ROUTER SW3]]
        model = 3725
        console = 2003
        aux = 2503
        cnfg = configs/SW3.cfg
        f0/0 = GooglISP f3/0
        f0/1 = VerISPon f3/0
        slot1 = NM-16ESW
        f1/2 = SW2 f1/3
        f1/3 = SW1 f1/3
        f1/4 = SW4 f1/3
        f1/5 = SW5 f1/3
        f1/13 = SW13 f1/3
        f1/14 = SW14 f1/3
        f1/15 = SW15 f1/3
        symbol = EtherSwitch router
        x = 156.470434176
        y = 148.665063159
        z = 1.0
        hx = 50.1998210884
        hy = 8.68940834574
    [[ROUTER SW2]]
        model = 3725
        console = 2002
        aux = 2502
        cnfg = configs/SW2.cfg
        f0/0 = VerISPon f2/0
        f0/1 = GooglISP f2/0
        slot1 = NM-16ESW
        f1/2 = SW1 f1/2
        f1/3 = SW3 f1/2
        f1/4 = SW4 f1/2
        f1/5 = SW5 f1/2
        f1/11 = SW11 f1/2
        f1/14 = SW14 f1/2
        f1/15 = SW15 f1/2
        symbol = EtherSwitch router
        x = 46.477680677
        y = -163.678788014
        z = 1.0
        hx = 48.5595291281
        hy = 10.0651366162
    [[ROUTER SW4]]
        model = 3725
        console = 2004
        aux = 2504
        cnfg = configs/SW4.cfg
        f0/0 = GooglISP f4/0
        f0/1 = VerISPon f4/0
        slot1 = NM-16ESW
        f1/2 = SW2 f1/4
        f1/3 = SW3 f1/4
        f1/4 = SW1 f1/4
        f1/5 = SW5 f1/4
        f1/12 = SW12 f1/4
        f1/13 = SW13 f1/4
        f1/14 = SW14 f1/4
        symbol = EtherSwitch router
        x = -87.7025174679
        y = 251.116350588
        z = 1.0
        hx = 7.29101989666
        hy = -39.3781068863
[127.0.0.1:7201]
    workingdir = working
    udp = 11100
    [[3725]]
        image = c3725-adventerprisek9-mz.124-15.T10.image
        ram = 256
        idlepc = 0x6026b804
        sparsemem = True
        ghostios = True
    [[ROUTER SW13]]
        model = 3725
        console = 2015
        aux = 2515
        cnfg = configs/SW13.cfg
        slot1 = NM-16ESW
        f1/0 = Server_5131 f1/0
        f1/3 = SW3 f1/13
        f1/4 = SW4 f1/13
        f1/5 = SW5 f1/13
        f1/6 = NIO_udp:30005:127.0.0.1:20005
        f1/15 = NIO_udp:30004:127.0.0.1:20004
        symbol = EtherSwitch router
        x = -88.0476572722
        y = 408.304500573
        z = 1.0
        hx = 54.5775345927
        hy = -4.4562469697
    [[ROUTER SW12]]
        model = 3725
        console = 2006
        aux = 2506
        cnfg = configs/SW12.cfg
        slot1 = NM-16ESW
        f1/0 = Server_5122 f1/0
        f1/1 = SW1 f1/12
        f1/3 = NIO_udp:30002:127.0.0.1:20002
        f1/4 = SW4 f1/12
        f1/5 = SW5 f1/12
        f1/14 = NIO_udp:30003:127.0.0.1:20003
        symbol = EtherSwitch router
        x = -469.43503268
        y = 227.85478514
        z = 1.0
        hx = -11.5499240592
        hy = -25.0
    [[ROUTER SW5]]
        model = 3725
        console = 2007
        aux = 2507
        cnfg = configs/SW5.cfg
        f0/0 = GooglISP f5/0
        f0/1 = VerISPon f5/0
        slot1 = NM-16ESW
        f1/2 = SW2 f1/5
        f1/3 = SW3 f1/5
        f1/4 = SW4 f1/5
        f1/5 = SW1 f1/5
        f1/11 = SW11 f1/5
        f1/12 = SW12 f1/5
        f1/13 = SW13 f1/5
        symbol = EtherSwitch router
        x = -340.422084907
        y = 144.538277786
        z = 1.0
        hx = -33.4688666132
        hy = 11.6023967586
[127.0.0.1:7206]
    workingdir = working
    udp = 11600
    [[2691]]
        image = c2691-adventerprisek9-mz.124-15.T7.bin
        idlepc = 0x60264748
        sparsemem = True
        ghostios = True
    [[ROUTER Server_5131]]
        model = 2691
        console = 2060
        aux = 2561
        cnfg = configs/Server_5131.cfg
        slot1 = NM-1FE-TX
        f1/0 = SW13 f1/0
        symbol = server
        x = -78.6302995825
        y = 480.119671251
        z = 1.0
    [[ROUTER Server_5122]]
        model = 2691
        console = 2059
        aux = 2560
        cnfg = configs/Server_5122.cfg
        slot1 = NM-1FE-TX
        f1/0 = SW12 f1/0
        symbol = server
        x = -579.07395984
        y = 318.30696048
        z = 1.0
[127.0.0.1:7207]
    workingdir = working
    udp = 11700
    [[3725]]
        image = c3725-adventerprisek9-mz.124-15.T10.image
        ram = 256
        idlepc = 0x6026b804
        sparsemem = True
        ghostios = True
    [[ROUTER SW15]]
        model = 3725
        console = 2063
        aux = 2563
        cnfg = configs/SW15.cfg
        slot1 = NM-16ESW
        f1/0 = Server_3152 f1/0
        f1/1 = SW1 f1/15
        f1/2 = SW2 f1/15
        f1/3 = SW3 f1/15
        f1/4 = Server_3151 f1/0
        f1/9 = NIO_udp:30008:127.0.0.1:20008
        symbol = EtherSwitch router
        x = 173.292149122
        y = -283.104993509
        z = 1.0
[127.0.0.1:7205]
    workingdir = working
    udp = 11500
    [[2691]]
        image = c2691-adventerprisek9-mz.124-15.T7.bin
        idlepc = 0x60264748
        sparsemem = True
        ghostios = True
    [[ROUTER Server_2112]]
        model = 2691
        console = 2053
        aux = 2553
        cnfg = configs/Server_2112.cfg
        slot1 = NM-1FE-TX
        f1/0 = SW11 f1/3
        symbol = server
        x = -460.36222944
        y = -433.53399872
        z = 1.0
    [[ROUTER Server_3152]]
        model = 2691
        console = 2056
        aux = 2556
        cnfg = configs/Server_3152.cfg
        slot1 = NM-1FE-TX
        f1/0 = SW15 f1/0
        symbol = server
        x = 193.343699296
        y = -439.865291008
        z = 1.0
    [[ROUTER Server_3151]]
        model = 2691
        console = 2057
        aux = 2557
        cnfg = configs/Server_3151.cfg
        slot1 = NM-1FE-TX
        f1/0 = SW15 f1/4
        symbol = server
        x = 370.61988336
        y = -268.920399232
        z = 1.0
    [[ROUTER Server_2141]]
        model = 2691
        console = 2058
        aux = 2558
        cnfg = configs/Server_2141.cfg
        slot1 = NM-1FE-TX
        f1/0 = SW14 f1/0
        symbol = server
        x = 424.435867808
        y = 315.141314336
        z = 1.0
[127.0.0.1:7208]
    workingdir = working
    udp = 11800
    [[3725]]
        image = c3725-adventerprisek9-mz.124-15.T10.image
        ram = 256
        idlepc = 0x6026b804
        sparsemem = True
        ghostios = True
    [[ROUTER SW11]]
        model = 3725
        console = 2023
        aux = 2523
        cnfg = configs/SW11.cfg
        slot1 = NM-16ESW
        f1/1 = SW1 f1/11
        f1/2 = SW2 f1/11
        f1/3 = Server_2112 f1/0
        f1/5 = SW5 f1/11
        f1/11 = NIO_udp:30000:127.0.0.1:20000
        f1/12 = NIO_udp:30001:127.0.0.1:20001
        symbol = EtherSwitch router
        x = -337.939556677
        y = -281.196444946
        z = 1.0
[127.0.0.1:7209]
    workingdir = working
    udp = 11900
    [[7200]]
        image = c7200-adventerprisek9-mz.152-4.M2.image
        ram = 512
        idlepc = 0x60188e14
        idlemax = 500
        sparsemem = True
        ghostios = True
    [[ROUTER GooglISP]]
        console = 2122
        aux = 2522
        cnfg = configs/GooglISP.cfg
        slot0 = C7200-IO-FE
        f0/0 = SW1 f0/0
        slot1 = PA-POS-OC3
        p1/0 = Level3-ISP p1/0
        slot2 = PA-FE-TX
        f2/0 = SW2 f0/1
        slot3 = PA-FE-TX
        f3/0 = SW3 f0/0
        slot4 = PA-FE-TX
        f4/0 = SW4 f0/0
        slot5 = PA-FE-TX
        f5/0 = SW5 f0/0
        x = -591.736544416
        y = -56.822107584
        z = 1.0
        hx = 2.582823072
        hy = 41.478569024
[127.0.0.1:7211]
    workingdir = working
    udp = 12100
    [[7200]]
        image = c7200-adventerprisek9-mz.152-4.M2.image
        ram = 512
        idlepc = 0x60188e14
        idlemax = 500
        sparsemem = True
        ghostios = True
    [[ROUTER Level3-ISP]]
        console = 2123
        aux = 2524
        cnfg = configs/Level3-ISP.cfg
        slot0 = C7200-IO-FE
        slot1 = PA-POS-OC3
        p1/0 = GooglISP p1/0
        slot2 = PA-POS-OC3
        p2/0 = VerISPon p1/0
        x = -104.22703824
        y = -64.736222944
        z = 1.0
        hx = -2.334353856
        hy = 38.31292288
[GNS3-DATA]
    configs = configs
    workdir = working
    m11 = 0.631782552131
    m22 = 0.631782552131
    [[NOTE 1]]
        text = "3.254"
        x = 15.5077753353
        y = 522.124353287
    [[NOTE 2]]
        text = "Password Core-Access"
        x = 498.546406728
        y = 60.0499997262
    [[NOTE 3]]
        text = "5.254"
        x = -573.515109817
        y = 389.315098783
    [[NOTE 4]]
        text = "VPCS[9]"
        x = 270.657099009
        y = -321.539964286
    [[NOTE 5]]
        text = "OSPF"
        x = -105.702225996
        y = 50.8213878014
        font = "MS Shell Dlg 2,20,-1,5,75,0,0,0,0,0"
        color = "#0000ff"
    [[NOTE 6]]
        text = "GLBP - OSPF"
        x = -842.061874304
        y = -483.681275456
        font = "MS Shell Dlg 2,20,-1,5,75,0,1,0,0,0"
    [[NOTE 7]]
        text = "VTP mode client"
        x = -103.075676626
        y = -299.398547845
    [[NOTE 8]]
        text = "VPCS"
        x = 161.698373919
        y = 424.580545169
        font = "MS Shell Dlg 2,16,-1,5,75,0,1,0,0,0"
    [[NOTE 9]]
        text = "2.254"
        x = 288.849348284
        y = -283.016863997
    [[NOTE 10]]
        text = "PortFast, BPDU Guard (downstream), \nUplinkFast (upstream) on all access switches\nBackBone Fast on all Core switches"
        x = 508.923654291
        y = -171.76181075
    [[NOTE 11]]
        text = "Primary RB VLAN 5\nSecondary RB VLAN 1\nGLBP AVG GROUP  5\nGLBP AVF VLAN 1,4,5"
        x = -365.654790983
        y = 193.006730694
    [[NOTE 12]]
        text = "OSPF"
        x = 548.832058312
        y = -47.6471806293
        font = "MS Shell Dlg 2,16,-1,5,75,0,1,0,0,0"
    [[NOTE 13]]
        text = "Version 2"
        x = 499.590475995
        y = 74.8107152142
    [[NOTE 14]]
        text = "VPCS[2]"
        x = -456.230108266
        y = -286.252611517
    [[NOTE 15]]
        text = "Access"
        x = -98.3974737539
        y = -338.225409006
        font = "MS Shell Dlg 2,20,-1,5,75,0,1,0,0,0"
    [[NOTE 16]]
        text = "To workaround general GLBP Issue: #clear mac-address-table static\nClear the MAC Table regularly !!!\nThere are 2 bugs with IOS 12.4(15)T5 on 3725: \n- setting the minimum AVG preempt delay to 0s disturbs the AVG election\n- setting the minimum AVF preempt delay to 0s disturbs the AVF election\ncf. https://supportforums.cisco.com/message/4032625#4032625"
        x = -1020.70390016
        y = -225.465103302
        font = "MS Shell Dlg 2,12,-1,5,75,0,0,0,0,0"
        color = "#0055ff"
    [[NOTE 17]]
        text = "VPCS[3]"
        x = -461.807944194
        y = 343.568187926
    [[NOTE 18]]
        text = "4.121/24"
        x = -572.251661759
        y = 240.7955705
    [[NOTE 19]]
        text = "4.131/24"
        x = -163.137960637
        y = 512.916954681
    [[NOTE 20]]
        text = "GLBP"
        x = -82.2926603039
        y = -504.376144764
        font = "MS Shell Dlg 2,16,-1,5,75,0,1,0,0,0"
    [[NOTE 21]]
        text = "4.254"
        x = 412.567509657
        y = 266.566330771
    [[NOTE 22]]
        text = "Primary RB VLAN 3\nSecondary RB VLAN 4\nGLBP AVG GROUP  3\nGLBP AVF VLAN 2,3,4"
        x = 113.809009664
        y = 195.60976291
    [[NOTE 23]]
        text = "5.254"
        x = -339.280141625
        y = -355.881178444
    [[NOTE 24]]
        text = "L1 10.8.0.1/32"
        x = -600.742477055
        y = 18.194217284
    [[NOTE 25]]
        text = "Primary RB VLAN 1\nSecondary RB VLAN 2\nGLBP AVG GROUP  1\nGLBP AVF VLAN 1,2,5"
        x = -277.86484795
        y = -233.694638026
    [[NOTE 26]]
        text = "2.111/24"
        x = -454.556892766
        y = -260.252611517
    [[NOTE 27]]
        text = "VPCS[7]"
        x = 315.664929862
        y = 338.6295815
    [[NOTE 28]]
        text = "In the Core:\n- Dead timer set to be synced with GLBP holdltimers (30s)\n- OSPF extends towards each Internet router\n- Only routed interfaces"
        x = 623.589429416
        y = -45.9991460978
    [[NOTE 29]]
        text = "192.168.0.0/16"
        x = -120.360839529
        y = 34.6228112061
        color = "#0000ff"
    [[NOTE 30]]
        text = "For each Switch/Router acting as AVF:\n- traffic to Internet is load-balanced betweeen \nboth links\n- loses its AVF role as soon as it is more than 1 hop \naway from Internet Routers Loopback1/Loopback2\n- other AVF takes over with a 0 s delay when an AVF \ngives up its role as AVF"
        x = -1013.00676608
        y = -76.895745952
        font = "MS Shell Dlg 2,11,-1,5,75,0,0,0,0,0"
    [[NOTE 31]]
        text = "VPCS[4]"
        x = -574.251661759
        y = 215.7955705
    [[NOTE 32]]
        text = "Acesss: mode client"
        x = 500.927658328
        y = 124.706423878
    [[NOTE 33]]
        text = "4.254"
        x = -566.251661759
        y = 253.7955705
    [[NOTE 34]]
        text = "VPCS[6]"
        x = -165.137960637
        y = 488.916954681
    [[NOTE 35]]
        text = "Pruning"
        x = 500.729114124
        y = 89.8107152142
    [[NOTE 36]]
        text = "5.111/24"
        x = -345.280141625
        y = -369.881178444
    [[NOTE 37]]
        text = "On production networks, GLBP should\nbe implemented on the distribution \nswitches with a L2 link/bundle between\nthem, alongside IP route \ntracking and the L3 domain should at least \ninclude the Core-Distribution links."
        x = -1017.53825402
        y = -356.262718342
        font = "MS Shell Dlg 2,12,-1,5,75,0,0,0,0,0"
        color = "#0055ff"
    [[NOTE 38]]
        text = "2.141/24"
        x = 418.667585952
        y = 377.925451895
    [[NOTE 39]]
        text = "2.254"
        x = -451.202634388
        y = -355.589081049
    [[NOTE 40]]
        text = "3.131/24"
        x = 8.5077753353
        y = 509.124353287
    [[NOTE 41]]
        text = "Core"
        x = -102.536579852
        y = -5.1541196546
        font = "MS Shell Dlg 2,20,-1,5,75,0,1,0,0,0"
        color = "#0000ff"
    [[NOTE 42]]
        text = "SVI IP <-> vIP"
        x = 328.462888136
        y = -420.288226494
        font = "MS Shell Dlg 2,16,-1,5,75,0,1,0,0,0"
    [[NOTE 43]]
        text = "Core: mode server"
        x = 500.927658328
        y = 110.010451121
    [[NOTE 44]]
        text = "Domain Core-Access"
        x = 498.546406728
        y = 46.8107152142
    [[NOTE 45]]
        text = "Primary RB VLAN 2\nSecondary RB VLAN 3\nGLBP AVG GROUP  2\nGLBP AVF VLAN 1,2,3"
        x = 0.942857551221
        y = -232.719158847
    [[NOTE 46]]
        text = "3.254"
        x = 327.051316953
        y = 382.419371819
    [[NOTE 47]]
        text = "3.141/24"
        x = 321.051316953
        y = 368.419371819
    [[NOTE 48]]
        text = "5.254"
        x = -456.386202489
        y = 383.989929631
    [[NOTE 49]]
        text = "VPCS[8]"
        x = 399.584525793
        y = 213.941493825
    [[NOTE 50]]
        text = "5.121/24"
        x = -464.807944194
        y = 371.568187926
    [[NOTE 51]]
        text = "2.254"
        x = -447.556892766
        y = -246.252611517
    [[NOTE 52]]
        text = "4.141/24"
        x = 403.567509657
        y = 252.685555699
    [[NOTE 53]]
        text = "Server Name: Server_VLAN#|SW#|host#\nVPCS Instance#\nIP Address\nGW Virtual IP Address"
        x = 251.625944706
        y = 430.388206442
    [[NOTE 54]]
        text = "1 Group / VLAN - 3 AVFs / VLAN\nPreemption enabled\nTimers: 10s/30s (looser to relieve your CPU)\nMD5 Authentication enabled\nDefault Weighting except for Group 5\nLoad-balancing: Round-Robin Groups 1/2 (default)\n                           Host-Dependant Groups 3/4\n                           Weighted Group 5"
        x = -186.272931744
        y = -474.385047048
    [[NOTE 55]]
        text = "4.254"
        x = -156.137960637
        y = 527.916954681
    [[NOTE 56]]
        text = "Primary RB VLAN 4\nSecondary RB VLAN 5\nGLBP AVG GROUP  4\nGLBP AVF VLAN 3,4,5"
        x = -134.83814465
        y = 294.969276503
    [[NOTE 57]]
        text = "Innovative High-Availability Data Center"
        x = -1019.33805837
        y = -520.086206112
        font = "MS Shell Dlg 2,20,-1,5,75,0,1,0,0,0"
    [[NOTE 58]]
        text = "2.151/24"
        x = 280.968573213
        y = -297.136088925
    [[NOTE 59]]
        text = "3.254"
        x = 197.947823637
        y = -355.58908105
    [[NOTE 60]]
        text = "3.151/24"
        x = 368.017247648
        y = -208.725207881
    [[NOTE 61]]
        text = "VPCS[5]"
        x = 7.5077753353
        y = 485.124353287
    [[NOTE 62]]
        text = "2.112/24"
        x = -459.441084243
        y = -371.827530904
    [[NOTE 63]]
        text = "Native VLAN: 99"
        x = 509.846663322
        y = -123.479155698
    [[NOTE 64]]
        text = "VLAN#.20SW#/24 <-> VLAN#.254\n\nExample: SVI 4 on SW3:\n 4.203 <-> 4.254"
        x = 499.658509481
        y = -431.422663566
    [[NOTE 65]]
        text = "VPCS[1]"
        x = -349.069931943
        y = -394.881178444
    [[NOTE 66]]
        text = "3.254"
        x = 378.494147358
        y = -192.023159882
    [[NOTE 67]]
        text = "2.254"
        x = 429.144485662
        y = 393.044676822
    [[NOTE 68]]
        text = "L2 10.1.0.2/32"
        x = 407.515819809
        y = 23.519386436
    [[NOTE 69]]
        text = "3.152/24"
        x = 189.709373782
        y = -374.065980759
    [[NOTE 70]]
        text = "5.122/24"
        x = -585.102497666
        y = 376.893357078
    [[NOTE 71]]
        text = "PVST+"
        x = 416.497600141
        y = -161.528559483
        font = "MS Shell Dlg 2,16,-1,5,75,0,1,0,0,0"
    [[NOTE 72]]
        text = "~\GNS3\CCNP\SWITCH\Jean-Christophe\PVST+ GLBP\Core-Access.cfg"
        x = 252.016279616
        y = 411.544778933
    [[NOTE 73]]
        text = "VTP"
        x = 426.954681768
        y = 75.2363190507
        font = "MS Shell Dlg 2,16,-1,5,75,0,1,0,0,0"
    [[Cloud Server_3141]]
        symbol = server
        x = 320.551316953
        y = 318.919371819
        z = 1.0
        connections = SW14:f1/7:NIO_udp:30006:127.0.0.1:20006
    [[Cloud Server_2151]]
        symbol = server
        x = 282.002204664
        y = -360.790578578
        z = 1.0
        connections = SW15:f1/9:NIO_udp:30008:127.0.0.1:20008
    [[Cloud Server_5111]]
        symbol = server
        x = -344.780141625
        y = -419.381178444
        z = 1.0
        connections = SW11:f1/11:NIO_udp:30000:127.0.0.1:20000
    [[Cloud Server_4131]]
        symbol = server
        x = -167.637960637
        y = 461.416954681
        z = 1.0
        connections = SW13:f1/6:NIO_udp:30005:127.0.0.1:20005
    [[Cloud Server_4141]]
        symbol = server
        x = 403.186734585
        y = 189.350981205
        z = 1.0
        connections = SW14:f1/8:NIO_udp:30007:127.0.0.1:20007
    [[Cloud Server_2111]]
        symbol = server
        x = -454.056892766
        y = -310.752611517
        z = 1.0
        connections = SW11:f1/12:NIO_udp:30001:127.0.0.1:20001
    [[Cloud Level3-Internet]]
        x = -157.058330528
        y = -79.319046016
        hx = 31.91411536
        hy = -25.0
        z = 1.0
    [[Cloud GooglISP-Internet]]
        x = -643.199746844
        y = -69.1152349932
        hx = 24.17176928
        hy = -23.417176928
        z = 1.0
    [[Cloud Server_4121]]
        symbol = server
        x = -575.751661759
        y = 189.2955705
        z = 1.0
        connections = SW12:f1/14:NIO_udp:30003:127.0.0.1:20003
    [[Cloud Server_5121]]
        symbol = server
        x = -465.307944194
        y = 315.068187926
        z = 1.0
        connections = SW12:f1/3:NIO_udp:30002:127.0.0.1:20002
    [[Cloud Server_3131]]
        symbol = server
        x = 6.0077753353
        y = 457.624353287
        z = 1.0
        connections = SW13:f1/15:NIO_udp:30004:127.0.0.1:20004
    [[Cloud VerISPon-Internet]]
        x = 366.848522551
        y = -61.663585225
        hx = 17.840476992
        hy = -23.417176928
        z = 1.0
    [[SHAPE 1]]
        type = ellipse
        x = -387.966173367
        y = -194.868854203
        width = 643.067218869
        height = 496.029810698
        fill_color = "#00ffff"
        border_color = "#00ffff"
        border_style = 2
        z = -1.0
    [[SHAPE 2]]
        type = ellipse
        x = -509.171091163
        y = -337.556322275
        width = 916.224303319
        height = 774.393915808
        fill_color = "#ffff7f"
        border_style = 2
        z = -2.0
