Nov 27 16:18:51.760 HYPERVISOR: Release 0.2.17-amd64/Linux (tag 2017072410)
Nov 27 16:18:51.760 HYPERVISOR: Started on IP = 127.0.0.1, TCP port = 41143.
Nov 27 16:18:51.777 HYPERVISOR: exec_cmd: hypervisor version 
Nov 27 16:18:51.778 HYPERVISOR: exec_cmd: hypervisor working_dir /media/actionmystique/SAMSUNG5-VMs/Labs/GNS3/git-Public-Labs-Collection/CCNP/TBSHOOT/L3-Technologies/IPv4/High-Availability/GLBP/Jean-Christophe_Manciot/1+/TT 1-solutions-linux/project-files/dynamips 
Nov 27 16:18:51.778 GENERAL: working_dir=/media/actionmystique/SAMSUNG5-VMs/Labs/GNS3/git-Public-Labs-Collection/CCNP/TBSHOOT/L3-Technologies/IPv4/High-Availability/GLBP/Jean-Christophe_Manciot/1+/TT 1-solutions-linux/project-files/dynamips
Nov 27 16:18:51.779 HYPERVISOR: exec_cmd: vm create SW3 3 c3725 
Nov 27 16:18:51.779 VM: VM SW3 created.
Nov 27 16:18:51.780 HYPERVISOR: exec_cmd: vm set_con_tcp_port SW3 2003 
Nov 27 16:18:51.781 HYPERVISOR: exec_cmd: c3725 get_mac_addr SW3 
Nov 27 16:18:51.782 HYPERVISOR: exec_cmd: vm set_nvram SW3 256 
Nov 27 16:18:51.783 HYPERVISOR: exec_cmd: vm get_status SW3 
Nov 27 16:18:51.784 HYPERVISOR: exec_cmd: vm set_idle_pc SW3 0x6026b804 
Nov 27 16:18:51.785 HYPERVISOR: exec_cmd: c3725 set_mac_addr SW3 cccc.cccc.cccc 
Nov 27 16:18:51.786 HYPERVISOR: exec_cmd: vm set_exec_area SW3 16 
Nov 27 16:18:51.787 HYPERVISOR: exec_cmd: vm get_status SW3 
Nov 27 16:18:51.789 HYPERVISOR: exec_cmd: vm slot_add_binding SW3 1 0 NM-16ESW 
Nov 27 16:18:51.790 HYPERVISOR: exec_cmd: vm set_ios SW3 /media/actionmystique/SAMSUNG5-VMs/Images/GNS3/IOS/c3725-adventerprisek9-mz.124-15.T10.image 
Nov 27 16:18:51.792 HYPERVISOR: exec_cmd: vm slot_add_binding SW3 0 16 WIC-2T 
Nov 27 16:18:51.793 HYPERVISOR: exec_cmd: vm set_disk0 SW3 1 
Nov 27 16:18:51.795 HYPERVISOR: exec_cmd: vm set_config SW3 configs/i3_startup-config.cfg 
Nov 27 16:18:51.801 HYPERVISOR: exec_cmd: vm set_config SW3 configs/i3_startup-config.cfg configs/i3_private-config.cfg 
Nov 27 16:18:52.001 HYPERVISOR: exec_cmd: nio create_udp udp-5141b699-a66e-4ddd-90ad-13810bc99354 15002 127.0.0.1 15001 
Nov 27 16:18:52.005 HYPERVISOR: exec_cmd: vm slot_add_nio_binding SW3 0 0 udp-5141b699-a66e-4ddd-90ad-13810bc99354 
Nov 27 16:18:52.006 HYPERVISOR: exec_cmd: vm get_status SW3 
Nov 27 16:18:52.037 HYPERVISOR: exec_cmd: nio create_udp udp-1627e586-b5cf-437a-9e84-c98597caf96d 15000 127.0.0.1 15004 
Nov 27 16:18:52.037 HYPERVISOR: exec_cmd: vm slot_add_nio_binding SW3 1 5 udp-1627e586-b5cf-437a-9e84-c98597caf96d 
Nov 27 16:18:52.038 HYPERVISOR: exec_cmd: vm get_status SW3 
Nov 27 16:18:52.104 HYPERVISOR: exec_cmd: nio create_udp udp-e27b9c6d-7e8c-4d8a-81bf-ba9a9ff4b0ce 15012 127.0.0.1 15011 
Nov 27 16:18:52.108 HYPERVISOR: exec_cmd: vm slot_add_nio_binding SW3 1 2 udp-e27b9c6d-7e8c-4d8a-81bf-ba9a9ff4b0ce 
Nov 27 16:18:52.109 HYPERVISOR: exec_cmd: vm get_status SW3 
Nov 27 16:18:52.118 HYPERVISOR: exec_cmd: nio create_udp udp-634e6b4f-4e3f-4185-96e5-0724641e89d4 15010 127.0.0.1 15013 
Nov 27 16:18:52.119 HYPERVISOR: exec_cmd: vm slot_add_nio_binding SW3 1 1 udp-634e6b4f-4e3f-4185-96e5-0724641e89d4 
Nov 27 16:18:52.119 HYPERVISOR: exec_cmd: vm get_status SW3 
