Nov 26 20:49:03.812 HYPERVISOR: Release 0.2.17-amd64/Linux (tag 2017072410)
Nov 26 20:49:03.812 HYPERVISOR: Started on IP = 127.0.0.1, TCP port = 36041.
Nov 26 20:49:03.839 HYPERVISOR: exec_cmd: hypervisor version 
Nov 26 20:49:03.841 HYPERVISOR: exec_cmd: hypervisor working_dir /media/actionmystique/SAMSUNG5-VMs/Labs/GNS3/Virtual Links/project-files/dynamips 
Nov 26 20:49:03.841 GENERAL: working_dir=/media/actionmystique/SAMSUNG5-VMs/Labs/GNS3/Virtual Links/project-files/dynamips
Nov 26 20:49:03.843 HYPERVISOR: exec_cmd: vm create ABR3 13 c7200 
Nov 26 20:49:03.843 VM: VM ABR3 created.
Nov 26 20:49:03.845 HYPERVISOR: exec_cmd: vm set_con_tcp_port ABR3 2014 
Nov 26 20:49:03.851 HYPERVISOR: exec_cmd: vm set_aux_tcp_port ABR3 2514 
Nov 26 20:49:03.862 HYPERVISOR: exec_cmd: c7200 get_mac_addr ABR3 
Nov 26 20:49:03.869 HYPERVISOR: exec_cmd: vm get_status ABR3 
Nov 26 20:49:03.880 HYPERVISOR: exec_cmd: vm slot_add_binding ABR3 0 0 C7200-IO-FE 
Nov 26 20:49:03.883 HYPERVISOR: exec_cmd: vm get_status ABR3 
Nov 26 20:49:03.884 HYPERVISOR: exec_cmd: vm slot_remove_binding ABR3 0 0 
Nov 26 20:49:03.886 HYPERVISOR: exec_cmd: vm get_status ABR3 
Nov 26 20:49:03.887 HYPERVISOR: exec_cmd: vm slot_add_binding ABR3 0 0 C7200-IO-GE-E 
Nov 26 20:49:03.889 HYPERVISOR: exec_cmd: vm get_status ABR3 
Nov 26 20:49:03.890 HYPERVISOR: exec_cmd: vm slot_add_binding ABR3 2 0 PA-POS-OC3 
Nov 26 20:49:03.891 HYPERVISOR: exec_cmd: vm set_ram ABR3 512 
Nov 26 20:49:03.894 HYPERVISOR: exec_cmd: vm get_status ABR3 
Nov 26 20:49:03.895 HYPERVISOR: exec_cmd: vm set_idle_pc ABR3 0x62a29de4 
Nov 26 20:49:03.897 HYPERVISOR: exec_cmd: vm get_status ABR3 
Nov 26 20:49:03.899 HYPERVISOR: exec_cmd: vm slot_add_binding ABR3 1 0 PA-POS-OC3 
Nov 26 20:49:03.900 HYPERVISOR: exec_cmd: vm get_status ABR3 
Nov 26 20:49:03.902 HYPERVISOR: exec_cmd: vm slot_add_binding ABR3 3 0 PA-GE 
Nov 26 20:49:03.909 HYPERVISOR: exec_cmd: vm set_ios ABR3 /media/actionmystique/SAMSUNG5-VMs/Images/GNS3/IOS/c7200-adventerprisek9-mz.152-4.M2.image 
Nov 26 20:49:03.920 HYPERVISOR: exec_cmd: vm set_config ABR3 configs/i13_startup-config.cfg 
Nov 26 20:49:04.794 HYPERVISOR: exec_cmd: vm extract_config ABR3 
Nov 26 20:49:05.239 HYPERVISOR: exec_cmd: nio create_udp udp-63bc306a-509c-4b0d-b842-41f07e20b79e 15034 127.0.0.1 15037 
Nov 26 20:49:05.240 HYPERVISOR: exec_cmd: vm slot_add_nio_binding ABR3 0 0 udp-63bc306a-509c-4b0d-b842-41f07e20b79e 
Nov 26 20:49:05.241 HYPERVISOR: exec_cmd: vm get_status ABR3 
Nov 26 20:49:05.259 HYPERVISOR: exec_cmd: nio create_udp udp-55de531f-086e-440a-b7dd-7721475347d8 15040 127.0.0.1 15039 
Nov 26 20:49:05.259 HYPERVISOR: exec_cmd: vm slot_add_nio_binding ABR3 1 0 udp-55de531f-086e-440a-b7dd-7721475347d8 
Nov 26 20:49:05.260 HYPERVISOR: exec_cmd: vm get_status ABR3 
Nov 26 20:49:05.289 HYPERVISOR: exec_cmd: nio create_udp udp-f94acde1-8cc4-4ea2-8c20-97dc96e2a1b3 15038 127.0.0.1 15041 
Nov 26 20:49:05.290 HYPERVISOR: exec_cmd: vm slot_add_nio_binding ABR3 2 0 udp-f94acde1-8cc4-4ea2-8c20-97dc96e2a1b3 
Nov 26 20:49:05.291 HYPERVISOR: exec_cmd: vm get_status ABR3 
Nov 26 20:49:05.349 HYPERVISOR: exec_cmd: nio create_udp udp-48ccdf34-f104-4dc0-9314-3a6058f71585 15044 127.0.0.1 15047 
Nov 26 20:49:05.349 HYPERVISOR: exec_cmd: vm slot_add_nio_binding ABR3 3 0 udp-48ccdf34-f104-4dc0-9314-3a6058f71585 
Nov 26 20:49:05.350 HYPERVISOR: exec_cmd: vm get_status ABR3 
Nov 26 20:50:03.765 HYPERVISOR: exec_cmd: vm get_status ABR3 
Nov 26 20:50:03.772 HYPERVISOR: exec_cmd: vm extract_config ABR3 
Nov 26 20:50:03.778 HYPERVISOR: exec_cmd: vm delete ABR3 
Nov 26 20:50:03.778 VM: VM ABR3 destroyed.
Nov 26 20:50:03.783 HYPERVISOR: exec_cmd: hypervisor stop 
Nov 26 20:50:03.893 HYPERVISOR: Stopped.
Nov 26 20:50:03.893 GENERAL: reset done.
