Nov 26 20:28:12.609 HYPERVISOR: Release 0.2.17-amd64/Linux (tag 2017072410)
Nov 26 20:28:12.609 HYPERVISOR: Started on IP = 127.0.0.1, TCP port = 36645.
Nov 26 20:28:12.620 HYPERVISOR: exec_cmd: hypervisor version 
Nov 26 20:28:12.620 HYPERVISOR: exec_cmd: hypervisor working_dir /media/actionmystique/SAMSUNG5-VMs/Labs/GNS3/git-Public-Labs-Collection/CCNP/ROUTE/EIGRP/Jean-Christophe_Manciot/1+/K2 Load Metric Weight with IOSv-linux/project-files/dynamips 
Nov 26 20:28:12.620 GENERAL: working_dir=/media/actionmystique/SAMSUNG5-VMs/Labs/GNS3/git-Public-Labs-Collection/CCNP/ROUTE/EIGRP/Jean-Christophe_Manciot/1+/K2 Load Metric Weight with IOSv-linux/project-files/dynamips
Nov 26 20:28:12.620 HYPERVISOR: exec_cmd: vm create SW1_Management 2 c3725 
Nov 26 20:28:12.621 VM: VM SW1_Management created.
Nov 26 20:28:12.621 HYPERVISOR: exec_cmd: vm set_con_tcp_port SW1_Management 2001 
Nov 26 20:28:12.622 HYPERVISOR: exec_cmd: vm set_aux_tcp_port SW1_Management 2102 
Nov 26 20:28:12.622 HYPERVISOR: exec_cmd: c3725 get_mac_addr SW1_Management 
Nov 26 20:28:12.623 HYPERVISOR: exec_cmd: vm get_status SW1_Management 
Nov 26 20:28:12.624 HYPERVISOR: exec_cmd: vm set_idle_pc SW1_Management 0x6026b804 
Nov 26 20:28:12.624 HYPERVISOR: exec_cmd: c3725 set_mac_addr SW1_Management c202.2115.0000 
Nov 26 20:28:12.625 HYPERVISOR: exec_cmd: vm set_ios SW1_Management /media/actionmystique/SAMSUNG5-VMs/Images/GNS3/IOS/c3725-adventerprisek9-mz.124-15.T10.image 
Nov 26 20:28:12.636 HYPERVISOR: exec_cmd: vm set_ram SW1_Management 256 
Nov 26 20:28:12.647 HYPERVISOR: exec_cmd: vm get_status SW1_Management 
Nov 26 20:28:12.648 HYPERVISOR: exec_cmd: vm slot_add_binding SW1_Management 1 0 NM-16ESW 
Nov 26 20:28:12.650 HYPERVISOR: exec_cmd: vm set_config SW1_Management configs/i2_startup-config.cfg 
Nov 26 20:28:12.765 HYPERVISOR: exec_cmd: nio create_tap tap-fe06dd06-68ff-4ab1-b9e5-8ee21b7fa1b5 tap0 
Nov 26 20:28:12.769 HYPERVISOR: exec_cmd: vm slot_add_nio_binding SW1_Management 1 1 tap-fe06dd06-68ff-4ab1-b9e5-8ee21b7fa1b5 
Nov 26 20:28:12.770 HYPERVISOR: exec_cmd: vm get_status SW1_Management 
Nov 26 20:28:12.796 HYPERVISOR: exec_cmd: nio create_udp udp-c9ac11ad-c719-4d6c-bd22-b8d41cd8b151 15017 127.0.0.1 15016 
Nov 26 20:28:12.797 HYPERVISOR: exec_cmd: vm slot_add_nio_binding SW1_Management 1 2 udp-c9ac11ad-c719-4d6c-bd22-b8d41cd8b151 
Nov 26 20:28:12.798 HYPERVISOR: exec_cmd: vm get_status SW1_Management 
Nov 26 20:28:12.812 HYPERVISOR: exec_cmd: nio create_udp udp-c5e294f6-0719-43d9-9634-61f823b3cf56 15019 127.0.0.1 15018 
Nov 26 20:28:12.824 HYPERVISOR: exec_cmd: vm slot_add_nio_binding SW1_Management 1 0 udp-c5e294f6-0719-43d9-9634-61f823b3cf56 
Nov 26 20:28:12.824 HYPERVISOR: exec_cmd: vm get_status SW1_Management 
