Nov 26 21:55:43.051 HYPERVISOR: Release 0.2.17-amd64/Linux (tag 2017072410)
Nov 26 21:55:43.051 HYPERVISOR: Started on IP = 127.0.0.1, TCP port = 49805.
Nov 26 21:55:43.079 HYPERVISOR: exec_cmd: hypervisor version 
Nov 26 21:55:43.080 HYPERVISOR: exec_cmd: hypervisor working_dir /media/actionmystique/SAMSUNG5-VMs/Labs/GNS3/v1-linux-/project-files/dynamips 
Nov 26 21:55:43.080 GENERAL: working_dir=/media/actionmystique/SAMSUNG5-VMs/Labs/GNS3/v1-linux-/project-files/dynamips
Nov 26 21:55:43.082 HYPERVISOR: exec_cmd: vm create DSW1 1 c3725 
Nov 26 21:55:43.082 VM: VM DSW1 created.
Nov 26 21:55:43.083 HYPERVISOR: exec_cmd: vm set_con_tcp_port DSW1 2005 
Nov 26 21:55:43.085 HYPERVISOR: exec_cmd: c3725 get_mac_addr DSW1 
Nov 26 21:55:43.086 HYPERVISOR: exec_cmd: vm slot_add_binding DSW1 0 16 WIC-2T 
Nov 26 21:55:43.087 HYPERVISOR: exec_cmd: vm get_status DSW1 
Nov 26 21:55:43.089 HYPERVISOR: exec_cmd: vm set_idle_pc DSW1 0x6026b804 
Nov 26 21:55:43.090 HYPERVISOR: exec_cmd: vm set_nvram DSW1 256 
Nov 26 21:55:43.093 HYPERVISOR: exec_cmd: vm get_status DSW1 
Nov 26 21:55:43.094 HYPERVISOR: exec_cmd: vm slot_add_binding DSW1 1 0 NM-16ESW 
Nov 26 21:55:43.096 HYPERVISOR: exec_cmd: vm set_ios DSW1 /media/actionmystique/SAMSUNG5-VMs/Images/GNS3/IOS/c3725-adventerprisek9-mz.124-15.T10.image 
Nov 26 21:55:43.097 HYPERVISOR: exec_cmd: vm set_disk0 DSW1 1 
Nov 26 21:55:43.098 HYPERVISOR: exec_cmd: c3725 set_mac_addr DSW1 c201.2c4b.0000 
Nov 26 21:55:43.100 HYPERVISOR: exec_cmd: vm set_config DSW1 configs/i1_startup-config.cfg 
Nov 26 21:55:43.101 HYPERVISOR: exec_cmd: vm set_config DSW1 configs/i1_startup-config.cfg configs/i1_private-config.cfg 
Nov 26 21:55:44.001 HYPERVISOR: exec_cmd: nio create_udp udp-20a040c7-a0ba-45f1-95c9-639e1ea09990 15008 127.0.0.1 15009 
Nov 26 21:55:44.002 HYPERVISOR: exec_cmd: vm slot_add_nio_binding DSW1 1 9 udp-20a040c7-a0ba-45f1-95c9-639e1ea09990 
Nov 26 21:55:44.006 HYPERVISOR: exec_cmd: vm get_status DSW1 
Nov 26 21:55:44.040 HYPERVISOR: exec_cmd: nio create_udp udp-d79ad067-07aa-465f-b69c-9ad75b447be7 15010 127.0.0.1 15011 
Nov 26 21:55:44.041 HYPERVISOR: exec_cmd: vm slot_add_nio_binding DSW1 1 10 udp-d79ad067-07aa-465f-b69c-9ad75b447be7 
Nov 26 21:55:44.041 HYPERVISOR: exec_cmd: vm get_status DSW1 
Nov 26 21:55:44.053 HYPERVISOR: exec_cmd: nio create_udp udp-f7b41c5e-09ef-4c9f-b30d-b9495cd49571 15012 127.0.0.1 15013 
Nov 26 21:55:44.056 HYPERVISOR: exec_cmd: vm slot_add_nio_binding DSW1 1 3 udp-f7b41c5e-09ef-4c9f-b30d-b9495cd49571 
Nov 26 21:55:44.060 HYPERVISOR: exec_cmd: vm get_status DSW1 
Nov 26 21:55:44.080 HYPERVISOR: exec_cmd: nio create_udp udp-271bf202-b476-4dc1-900a-5a9cb145c4fd 15014 127.0.0.1 15015 
Nov 26 21:55:44.081 HYPERVISOR: exec_cmd: vm slot_add_nio_binding DSW1 1 4 udp-271bf202-b476-4dc1-900a-5a9cb145c4fd 
Nov 26 21:55:44.081 HYPERVISOR: exec_cmd: vm get_status DSW1 
Nov 26 21:55:44.265 HYPERVISOR: exec_cmd: nio create_udp udp-c2d402d4-b5df-40eb-841f-a53f0df9a529 15030 127.0.0.1 15032 
Nov 26 21:55:44.265 HYPERVISOR: exec_cmd: vm slot_add_nio_binding DSW1 1 11 udp-c2d402d4-b5df-40eb-841f-a53f0df9a529 
Nov 26 21:55:44.266 HYPERVISOR: exec_cmd: vm get_status DSW1 
Nov 26 21:55:44.271 HYPERVISOR: exec_cmd: nio create_udp udp-2b1ce2b4-588e-4240-a123-719248275a1d 15031 127.0.0.1 15034 
Nov 26 21:55:44.275 HYPERVISOR: exec_cmd: vm slot_add_nio_binding DSW1 1 12 udp-2b1ce2b4-588e-4240-a123-719248275a1d 
Nov 26 21:55:44.276 HYPERVISOR: exec_cmd: vm get_status DSW1 
Nov 26 21:55:44.315 HYPERVISOR: exec_cmd: nio create_udp udp-9acd4ed0-a7f1-465d-9890-eba901c30ecb 15035 127.0.0.1 15033 
Nov 26 21:55:44.316 HYPERVISOR: exec_cmd: vm slot_add_nio_binding DSW1 1 1 udp-9acd4ed0-a7f1-465d-9890-eba901c30ecb 
Nov 26 21:55:44.316 HYPERVISOR: exec_cmd: vm get_status DSW1 
Nov 26 21:56:01.264 HYPERVISOR: exec_cmd: vm get_status DSW1 
Nov 26 21:56:01.269 HYPERVISOR: exec_cmd: vm extract_config DSW1 
Nov 26 21:56:01.274 HYPERVISOR: exec_cmd: vm delete DSW1 
Nov 26 21:56:01.274 VM: VM DSW1 destroyed.
Nov 26 21:56:01.280 HYPERVISOR: exec_cmd: hypervisor stop 
Nov 26 21:56:01.595 HYPERVISOR: Stopped.
Nov 26 21:56:01.595 GENERAL: reset done.
