Nov 27 15:42:55.757 HYPERVISOR: Release 0.2.17-amd64/Linux (tag 2017072410)
Nov 27 15:42:55.757 HYPERVISOR: Started on IP = 127.0.0.1, TCP port = 40633.
Nov 27 15:42:55.769 HYPERVISOR: exec_cmd: hypervisor version 
Nov 27 15:42:55.770 HYPERVISOR: exec_cmd: hypervisor working_dir /media/actionmystique/SAMSUNG5-VMs/Labs/GNS3/git-Public-Labs-Collection/CCNP/TBSHOOT/Infrastructure-Services/NTP/Jean-Christophe_Manciot/1+/TT 1-linux/project-files/dynamips 
Nov 27 15:42:55.770 GENERAL: working_dir=/media/actionmystique/SAMSUNG5-VMs/Labs/GNS3/git-Public-Labs-Collection/CCNP/TBSHOOT/Infrastructure-Services/NTP/Jean-Christophe_Manciot/1+/TT 1-linux/project-files/dynamips
Nov 27 15:42:55.770 HYPERVISOR: exec_cmd: vm create ESW1 1 c3725 
Nov 27 15:42:55.770 VM: VM ESW1 created.
Nov 27 15:42:55.771 HYPERVISOR: exec_cmd: vm set_con_tcp_port ESW1 2004 
Nov 27 15:42:55.771 HYPERVISOR: exec_cmd: c3725 get_mac_addr ESW1 
Nov 27 15:42:55.771 HYPERVISOR: exec_cmd: c3725 set_mac_addr ESW1 c201.7005.0000 
Nov 27 15:42:55.771 HYPERVISOR: exec_cmd: vm get_status ESW1 
Nov 27 15:42:55.772 HYPERVISOR: exec_cmd: vm slot_add_binding ESW1 1 0 NM-16ESW 
Nov 27 15:42:55.772 HYPERVISOR: exec_cmd: vm get_status ESW1 
Nov 27 15:42:55.772 HYPERVISOR: exec_cmd: vm set_idle_pc ESW1 0x614ac27c 
Nov 27 15:42:55.773 HYPERVISOR: exec_cmd: vm slot_add_binding ESW1 0 16 WIC-2T 
Nov 27 15:42:55.773 HYPERVISOR: exec_cmd: vm set_ios ESW1 /media/actionmystique/SAMSUNG5-VMs/Images/GNS3/IOS/c3725-adventerprisek9-mz.124-15.T10.image 
Nov 27 15:42:55.774 HYPERVISOR: exec_cmd: vm set_disk0 ESW1 1 
Nov 27 15:42:55.774 HYPERVISOR: exec_cmd: vm set_nvram ESW1 256 
Nov 27 15:42:55.774 HYPERVISOR: exec_cmd: vm set_config ESW1 configs/i1_startup-config.cfg 
Nov 27 15:42:55.775 HYPERVISOR: exec_cmd: vm set_config ESW1 configs/i1_startup-config.cfg configs/i1_private-config.cfg 
Nov 27 15:42:55.881 HYPERVISOR: exec_cmd: nio create_udp udp-fea3ee94-f249-4038-8344-4c8ecbd161c8 15004 127.0.0.1 15005 
Nov 27 15:42:55.889 HYPERVISOR: exec_cmd: vm slot_add_nio_binding ESW1 1 0 udp-fea3ee94-f249-4038-8344-4c8ecbd161c8 
Nov 27 15:42:55.889 HYPERVISOR: exec_cmd: vm get_status ESW1 
