Nov 26 21:56:43.842 HYPERVISOR: Release 0.2.17-amd64/Linux (tag 2017072410)
Nov 26 21:56:43.842 HYPERVISOR: Started on IP = 127.0.0.1, TCP port = 53527.
Nov 26 21:56:43.871 HYPERVISOR: exec_cmd: hypervisor version 
Nov 26 21:56:43.872 HYPERVISOR: exec_cmd: hypervisor working_dir /media/actionmystique/SAMSUNG5-VMs/Labs/GNS3/git-Public-Labs-Collection/CCNP/TBSHOOT/Exam-Topology/Jean-Christophe_Manciot/1+/v2-linux/project-files/dynamips 
Nov 26 21:56:43.872 GENERAL: working_dir=/media/actionmystique/SAMSUNG5-VMs/Labs/GNS3/git-Public-Labs-Collection/CCNP/TBSHOOT/Exam-Topology/Jean-Christophe_Manciot/1+/v2-linux/project-files/dynamips
Nov 26 21:56:43.873 HYPERVISOR: exec_cmd: vm create R5 9 c7200 
Nov 26 21:56:43.873 VM: VM R5 created.
Nov 26 21:56:43.874 HYPERVISOR: exec_cmd: vm set_con_tcp_port R5 2015 
Nov 26 21:56:43.874 HYPERVISOR: exec_cmd: c7200 get_mac_addr R5 
Nov 26 21:56:43.875 HYPERVISOR: exec_cmd: vm get_status R5 
Nov 26 21:56:43.876 HYPERVISOR: exec_cmd: vm slot_add_binding R5 0 0 C7200-IO-FE 
Nov 26 21:56:43.877 HYPERVISOR: exec_cmd: vm get_status R5 
Nov 26 21:56:43.878 HYPERVISOR: exec_cmd: vm slot_add_binding R5 2 0 PA-GE 
Nov 26 21:56:43.878 HYPERVISOR: exec_cmd: vm get_status R5 
Nov 26 21:56:43.879 HYPERVISOR: exec_cmd: vm set_idle_pc R5 0x6062f0e0 
Nov 26 21:56:43.881 HYPERVISOR: exec_cmd: vm get_status R5 
Nov 26 21:56:43.890 HYPERVISOR: exec_cmd: vm slot_add_binding R5 1 0 PA-GE 
Nov 26 21:56:43.893 HYPERVISOR: exec_cmd: vm set_nvram R5 256 
Nov 26 21:56:43.893 HYPERVISOR: exec_cmd: vm get_status R5 
Nov 26 21:56:43.895 HYPERVISOR: exec_cmd: vm slot_add_binding R5 3 0 PA-GE 
Nov 26 21:56:43.896 HYPERVISOR: exec_cmd: vm get_status R5 
Nov 26 21:56:43.897 HYPERVISOR: exec_cmd: vm slot_remove_binding R5 0 0 
Nov 26 21:56:43.898 HYPERVISOR: exec_cmd: vm get_status R5 
Nov 26 21:56:43.899 HYPERVISOR: exec_cmd: vm slot_add_binding R5 0 0 C7200-IO-GE-E 
Nov 26 21:56:43.900 HYPERVISOR: exec_cmd: vm set_disk0 R5 1 
Nov 26 21:56:43.901 HYPERVISOR: exec_cmd: vm get_status R5 
Nov 26 21:56:43.902 HYPERVISOR: exec_cmd: vm slot_add_binding R5 4 0 PA-4T+ 
Nov 26 21:56:43.904 HYPERVISOR: exec_cmd: vm set_ram R5 512 
Nov 26 21:56:43.906 HYPERVISOR: exec_cmd: vm get_status R5 
Nov 26 21:56:43.915 HYPERVISOR: exec_cmd: vm slot_add_binding R5 6 0 PA-POS-OC3 
Nov 26 21:56:43.917 HYPERVISOR: exec_cmd: vm get_status R5 
Nov 26 21:56:43.918 HYPERVISOR: exec_cmd: vm slot_add_binding R5 5 0 PA-POS-OC3 
Nov 26 21:56:43.920 HYPERVISOR: exec_cmd: c7200 set_mac_addr R5 ca09.71f1.0000 
Nov 26 21:56:43.922 HYPERVISOR: exec_cmd: vm set_ios R5 /media/actionmystique/SAMSUNG5-VMs/Images/GNS3/IOS/c7200-adventerprisek9-mz.152-4.M2.image 
Nov 26 21:56:43.923 HYPERVISOR: exec_cmd: vm set_config R5 configs/i9_startup-config.cfg 
Nov 26 21:56:43.929 HYPERVISOR: exec_cmd: vm set_config R5 configs/i9_startup-config.cfg configs/i9_private-config.cfg 
Nov 26 21:56:44.925 HYPERVISOR: exec_cmd: nio create_udp udp-9bcf5cbc-1231-4d54-8c56-fc96da142d95 15042 127.0.0.1 15043 
Nov 26 21:56:44.925 HYPERVISOR: exec_cmd: vm slot_add_nio_binding R5 4 0 udp-9bcf5cbc-1231-4d54-8c56-fc96da142d95 
Nov 26 21:56:44.926 HYPERVISOR: exec_cmd: vm get_status R5 
Nov 26 21:56:44.952 HYPERVISOR: exec_cmd: nio create_udp udp-fda2c9bc-2119-4b2c-a0b2-ab76b4dc5366 15045 127.0.0.1 15044 
Nov 26 21:56:44.952 HYPERVISOR: exec_cmd: vm slot_add_nio_binding R5 2 0 udp-fda2c9bc-2119-4b2c-a0b2-ab76b4dc5366 
Nov 26 21:56:44.953 HYPERVISOR: exec_cmd: vm get_status R5 
Nov 26 21:56:44.985 HYPERVISOR: exec_cmd: nio create_udp udp-078691c5-e355-4591-b629-3daee4d1bcc0 15047 127.0.0.1 15046 
Nov 26 21:56:44.986 HYPERVISOR: exec_cmd: vm slot_add_nio_binding R5 3 0 udp-078691c5-e355-4591-b629-3daee4d1bcc0 
Nov 26 21:56:44.993 HYPERVISOR: exec_cmd: vm get_status R5 
Nov 26 21:56:44.999 HYPERVISOR: exec_cmd: nio create_udp udp-2bdc7a3f-37b7-425e-b8be-b07fae6fe46e 15048 127.0.0.1 15049 
Nov 26 21:56:45.002 HYPERVISOR: exec_cmd: vm slot_add_nio_binding R5 1 0 udp-2bdc7a3f-37b7-425e-b8be-b07fae6fe46e 
Nov 26 21:56:45.003 HYPERVISOR: exec_cmd: vm get_status R5 
