Nov 29 19:07:55.099 HYPERVISOR: Release 0.2.17-amd64/Linux (tag 2017072410)
Nov 29 19:07:55.099 HYPERVISOR: Started on IP = 127.0.0.1, TCP port = 45481.
Nov 29 19:07:55.126 HYPERVISOR: exec_cmd: hypervisor version 
Nov 29 19:07:55.128 HYPERVISOR: exec_cmd: hypervisor working_dir /media/actionmystique/SAMSUNG5-VMs/Labs/GNS3/TT 1-solutions-linux-/project-files/dynamips 
Nov 29 19:07:55.128 GENERAL: working_dir=/media/actionmystique/SAMSUNG5-VMs/Labs/GNS3/TT 1-solutions-linux-/project-files/dynamips
Nov 29 19:07:55.129 HYPERVISOR: exec_cmd: vm create ESW4 4 c3725 
Nov 29 19:07:55.129 VM: VM ESW4 created.
Nov 29 19:07:55.130 HYPERVISOR: exec_cmd: vm set_con_tcp_port ESW4 2009 
Nov 29 19:07:55.132 HYPERVISOR: exec_cmd: c3725 get_mac_addr ESW4 
Nov 29 19:07:55.137 HYPERVISOR: exec_cmd: vm set_disk0 ESW4 1 
Nov 29 19:07:55.138 HYPERVISOR: exec_cmd: vm get_status ESW4 
Nov 29 19:07:55.139 HYPERVISOR: exec_cmd: vm set_idle_pc ESW4 0x60c06d20 
Nov 29 19:07:55.139 HYPERVISOR: exec_cmd: c3725 set_mac_addr ESW4 c204.68ae.0000 
Nov 29 19:07:55.140 HYPERVISOR: exec_cmd: vm set_nvram ESW4 256 
Nov 29 19:07:55.140 HYPERVISOR: exec_cmd: vm get_status ESW4 
Nov 29 19:07:55.142 HYPERVISOR: exec_cmd: vm slot_add_binding ESW4 1 0 NM-16ESW 
Nov 29 19:07:55.144 HYPERVISOR: exec_cmd: vm set_ios ESW4 /media/actionmystique/SAMSUNG5-VMs/Images/GNS3/IOS/c3725-adventerprisek9-mz.124-15.T10.image 
Nov 29 19:07:55.144 HYPERVISOR: exec_cmd: vm slot_add_binding ESW4 0 16 WIC-2T 
Nov 29 19:07:55.145 HYPERVISOR: exec_cmd: vm set_config ESW4 configs/ios_base_startup-config.txt 
Nov 29 19:07:55.146 HYPERVISOR: exec_cmd: vm set_config ESW4 configs/ios_base_startup-config.txt configs/ios_base_private-config.txt 
Nov 29 19:07:55.496 HYPERVISOR: exec_cmd: nio create_udp udp-1d833b3c-3532-4836-878c-d7f3214fc52b 15017 127.0.0.1 15016 
Nov 29 19:07:55.497 HYPERVISOR: exec_cmd: vm slot_add_nio_binding ESW4 1 0 udp-1d833b3c-3532-4836-878c-d7f3214fc52b 
Nov 29 19:07:55.497 HYPERVISOR: exec_cmd: vm get_status ESW4 
Nov 29 19:07:55.504 HYPERVISOR: exec_cmd: nio create_udp udp-309c6175-cbc5-434c-b2ab-13d853265653 15018 127.0.0.1 15019 
Nov 29 19:07:55.504 HYPERVISOR: exec_cmd: vm slot_add_nio_binding ESW4 1 1 udp-309c6175-cbc5-434c-b2ab-13d853265653 
Nov 29 19:07:55.505 HYPERVISOR: exec_cmd: vm get_status ESW4 
Nov 29 19:08:07.312 HYPERVISOR: exec_cmd: vm get_status ESW4 
Nov 29 19:08:07.314 HYPERVISOR: exec_cmd: vm extract_config ESW4 
Nov 29 19:08:07.316 HYPERVISOR: exec_cmd: vm delete ESW4 
Nov 29 19:08:07.316 VM: VM ESW4 destroyed.
Nov 29 19:08:07.318 HYPERVISOR: exec_cmd: hypervisor stop 
Nov 29 19:08:07.631 HYPERVISOR: Stopped.
Nov 29 19:08:07.631 GENERAL: reset done.
