Nov 29 19:03:53.137 HYPERVISOR: Release 0.2.17-amd64/Linux (tag 2017072410)
Nov 29 19:03:53.137 HYPERVISOR: Started on IP = 127.0.0.1, TCP port = 46679.
Nov 29 19:03:53.161 HYPERVISOR: exec_cmd: hypervisor version 
Nov 29 19:03:53.163 HYPERVISOR: exec_cmd: hypervisor working_dir /media/actionmystique/SAMSUNG5-VMs/Labs/GNS3/git-Public-Labs-Collection/CCNP/TBSHOOT/L3-Technologies/IPv6/Routing-Protocols/EIGRPv6/Jean-Christophe_Manciot/1+/TT 1-solutions-linux/project-files/dynamips 
Nov 29 19:03:53.163 GENERAL: working_dir=/media/actionmystique/SAMSUNG5-VMs/Labs/GNS3/git-Public-Labs-Collection/CCNP/TBSHOOT/L3-Technologies/IPv6/Routing-Protocols/EIGRPv6/Jean-Christophe_Manciot/1+/TT 1-solutions-linux/project-files/dynamips
Nov 29 19:03:53.164 HYPERVISOR: exec_cmd: vm create ESW5 5 c3725 
Nov 29 19:03:53.164 VM: VM ESW5 created.
Nov 29 19:03:53.166 HYPERVISOR: exec_cmd: vm set_con_tcp_port ESW5 2010 
Nov 29 19:03:53.167 HYPERVISOR: exec_cmd: c3725 get_mac_addr ESW5 
Nov 29 19:03:53.168 HYPERVISOR: exec_cmd: vm slot_add_binding ESW5 0 16 WIC-2T 
Nov 29 19:03:53.169 HYPERVISOR: exec_cmd: vm set_ios ESW5 /media/actionmystique/SAMSUNG5-VMs/Images/GNS3/IOS/c3725-adventerprisek9-mz.124-15.T10.image 
Nov 29 19:03:53.170 HYPERVISOR: exec_cmd: vm get_status ESW5 
Nov 29 19:03:53.172 HYPERVISOR: exec_cmd: vm set_idle_pc ESW5 0x60c06d20 
Nov 29 19:03:53.175 HYPERVISOR: exec_cmd: vm get_status ESW5 
Nov 29 19:03:53.177 HYPERVISOR: exec_cmd: vm slot_add_binding ESW5 1 0 NM-16ESW 
Nov 29 19:03:53.179 HYPERVISOR: exec_cmd: c3725 set_mac_addr ESW5 c205.6a03.0000 
Nov 29 19:03:53.180 HYPERVISOR: exec_cmd: vm set_disk0 ESW5 1 
Nov 29 19:03:53.180 HYPERVISOR: exec_cmd: vm set_nvram ESW5 256 
Nov 29 19:03:53.181 HYPERVISOR: exec_cmd: vm set_config ESW5 configs/ios_base_startup-config.txt 
Nov 29 19:04:01.338 HYPERVISOR: exec_cmd: vm get_status ESW5 
Nov 29 19:04:01.342 HYPERVISOR: exec_cmd: vm extract_config ESW5 
Nov 29 19:04:01.343 HYPERVISOR: exec_cmd: vm delete ESW5 
Nov 29 19:04:01.343 VM: VM ESW5 destroyed.
Nov 29 19:04:01.344 HYPERVISOR: exec_cmd: hypervisor stop 
Nov 29 19:04:01.666 HYPERVISOR: Stopped.
Nov 29 19:04:01.666 GENERAL: reset done.
