Nov 29 19:07:47.816 HYPERVISOR: Release 0.2.17-amd64/Linux (tag 2017072410)
Nov 29 19:07:47.816 HYPERVISOR: Started on IP = 127.0.0.1, TCP port = 50661.
Nov 29 19:07:47.829 HYPERVISOR: exec_cmd: hypervisor version 
Nov 29 19:07:47.831 HYPERVISOR: exec_cmd: hypervisor working_dir /media/actionmystique/SAMSUNG5-VMs/Labs/GNS3/git-Public-Labs-Collection/CCNP/TBSHOOT/L3-Technologies/IPv6/Routing-Protocols/EIGRPv6/Jean-Christophe_Manciot/1+/TT 1-solutions-linux/project-files/dynamips 
Nov 29 19:07:47.831 GENERAL: working_dir=/media/actionmystique/SAMSUNG5-VMs/Labs/GNS3/git-Public-Labs-Collection/CCNP/TBSHOOT/L3-Technologies/IPv6/Routing-Protocols/EIGRPv6/Jean-Christophe_Manciot/1+/TT 1-solutions-linux/project-files/dynamips
Nov 29 19:07:47.831 HYPERVISOR: exec_cmd: vm create ESW5 5 c3725 
Nov 29 19:07:47.831 VM: VM ESW5 created.
Nov 29 19:07:47.832 HYPERVISOR: exec_cmd: vm set_con_tcp_port ESW5 2010 
Nov 29 19:07:47.832 HYPERVISOR: exec_cmd: c3725 get_mac_addr ESW5 
Nov 29 19:07:47.832 HYPERVISOR: exec_cmd: vm set_disk0 ESW5 1 
Nov 29 19:07:47.834 HYPERVISOR: exec_cmd: vm get_status ESW5 
Nov 29 19:07:47.835 HYPERVISOR: exec_cmd: vm set_idle_pc ESW5 0x60c06d20 
Nov 29 19:07:47.836 HYPERVISOR: exec_cmd: c3725 set_mac_addr ESW5 c205.6a03.0000 
Nov 29 19:07:47.836 HYPERVISOR: exec_cmd: vm set_nvram ESW5 256 
Nov 29 19:07:47.836 HYPERVISOR: exec_cmd: vm get_status ESW5 
Nov 29 19:07:47.837 HYPERVISOR: exec_cmd: vm slot_add_binding ESW5 1 0 NM-16ESW 
Nov 29 19:07:47.837 HYPERVISOR: exec_cmd: vm set_ios ESW5 /media/actionmystique/SAMSUNG5-VMs/Images/GNS3/IOS/c3725-adventerprisek9-mz.124-15.T10.image 
Nov 29 19:07:47.839 HYPERVISOR: exec_cmd: vm slot_add_binding ESW5 0 16 WIC-2T 
Nov 29 19:07:47.840 HYPERVISOR: exec_cmd: vm set_config ESW5 configs/ios_base_startup-config.txt 
Nov 29 19:07:47.840 HYPERVISOR: exec_cmd: vm set_config ESW5 configs/ios_base_startup-config.txt configs/ios_base_private-config.txt 
Nov 29 19:07:48.172 HYPERVISOR: exec_cmd: nio create_udp udp-b245eb7c-bdd9-45d8-8300-c0985c493f16 15017 127.0.0.1 15016 
Nov 29 19:07:48.173 HYPERVISOR: exec_cmd: vm slot_add_nio_binding ESW5 1 0 udp-b245eb7c-bdd9-45d8-8300-c0985c493f16 
Nov 29 19:07:48.173 HYPERVISOR: exec_cmd: vm get_status ESW5 
Nov 29 19:07:48.184 HYPERVISOR: exec_cmd: nio create_udp udp-cc3b9580-1ffe-4406-8502-55fe3c25134c 15018 127.0.0.1 15019 
Nov 29 19:07:48.185 HYPERVISOR: exec_cmd: vm slot_add_nio_binding ESW5 1 1 udp-cc3b9580-1ffe-4406-8502-55fe3c25134c 
Nov 29 19:07:48.185 HYPERVISOR: exec_cmd: vm get_status ESW5 
