Nov 26 20:44:10.444 HYPERVISOR: Release 0.2.17-amd64/Linux (tag 2017072410)
Nov 26 20:44:10.444 HYPERVISOR: Started on IP = 127.0.0.1, TCP port = 57747.
Nov 26 20:44:10.466 HYPERVISOR: exec_cmd: hypervisor version 
Nov 26 20:44:10.467 HYPERVISOR: exec_cmd: hypervisor working_dir /media/actionmystique/SAMSUNG5-VMs/Labs/GNS3/Redistribution/project-files/dynamips 
Nov 26 20:44:10.467 GENERAL: working_dir=/media/actionmystique/SAMSUNG5-VMs/Labs/GNS3/Redistribution/project-files/dynamips
Nov 26 20:44:10.469 HYPERVISOR: exec_cmd: vm create R13 17 c7200 
Nov 26 20:44:10.469 VM: VM R13 created.
Nov 26 20:44:10.470 HYPERVISOR: exec_cmd: vm set_con_tcp_port R13 2015 
Nov 26 20:44:10.472 HYPERVISOR: exec_cmd: vm set_aux_tcp_port R13 2115 
Nov 26 20:44:10.484 HYPERVISOR: exec_cmd: c7200 get_mac_addr R13 
Nov 26 20:44:10.488 HYPERVISOR: exec_cmd: vm get_status R13 
Nov 26 20:44:10.497 HYPERVISOR: exec_cmd: vm slot_add_binding R13 0 0 C7200-IO-FE 
Nov 26 20:44:10.500 HYPERVISOR: exec_cmd: vm get_status R13 
Nov 26 20:44:10.501 HYPERVISOR: exec_cmd: vm slot_remove_binding R13 0 0 
Nov 26 20:44:10.502 HYPERVISOR: exec_cmd: vm get_status R13 
Nov 26 20:44:10.507 HYPERVISOR: exec_cmd: vm slot_add_binding R13 0 0 C7200-IO-GE-E 
Nov 26 20:44:10.508 HYPERVISOR: exec_cmd: vm set_ram R13 512 
Nov 26 20:44:10.512 HYPERVISOR: exec_cmd: vm get_status R13 
Nov 26 20:44:10.513 HYPERVISOR: exec_cmd: vm set_idle_pc R13 0x60188e14 
Nov 26 20:44:10.514 HYPERVISOR: exec_cmd: vm get_status R13 
Nov 26 20:44:10.514 HYPERVISOR: exec_cmd: vm slot_add_binding R13 1 0 PA-GE 
Nov 26 20:44:10.515 HYPERVISOR: exec_cmd: vm set_ios R13 /media/actionmystique/SAMSUNG5-VMs/Images/GNS3/IOS/c7200-adventerprisek9-mz.152-4.M2.image 
Nov 26 20:44:10.515 HYPERVISOR: exec_cmd: vm set_config R13 configs/i17_startup-config.cfg 
Nov 26 20:44:11.173 HYPERVISOR: exec_cmd: vm extract_config R13 
Nov 26 20:44:11.761 HYPERVISOR: exec_cmd: nio create_udp udp-39e17831-c979-4170-9200-cf9ed27dc5aa 15056 127.0.0.1 15057 
Nov 26 20:44:11.761 HYPERVISOR: exec_cmd: vm slot_add_nio_binding R13 0 0 udp-39e17831-c979-4170-9200-cf9ed27dc5aa 
Nov 26 20:44:11.761 HYPERVISOR: exec_cmd: vm get_status R13 
Nov 26 20:44:47.078 HYPERVISOR: exec_cmd: vm extract_config R13 
Nov 26 20:45:10.991 HYPERVISOR: exec_cmd: vm get_status R13 
Nov 26 20:45:10.996 HYPERVISOR: exec_cmd: vm extract_config R13 
Nov 26 20:45:10.999 HYPERVISOR: exec_cmd: vm delete R13 
Nov 26 20:45:10.999 VM: VM R13 destroyed.
Nov 26 20:45:11.004 HYPERVISOR: exec_cmd: hypervisor stop 
Nov 26 20:45:11.021 HYPERVISOR: Stopped.
Nov 26 20:45:11.021 GENERAL: reset done.
