Nov 26 21:04:08.386 HYPERVISOR: Release 0.2.17-amd64/Linux (tag 2017072410)
Nov 26 21:04:08.386 HYPERVISOR: Started on IP = 127.0.0.1, TCP port = 50539.
Nov 26 21:04:08.417 HYPERVISOR: exec_cmd: hypervisor version 
Nov 26 21:04:08.418 HYPERVISOR: exec_cmd: hypervisor working_dir /media/actionmystique/SAMSUNG5-VMs/Labs/GNS3/PVST+ GLBP/project-files/dynamips 
Nov 26 21:04:08.418 GENERAL: working_dir=/media/actionmystique/SAMSUNG5-VMs/Labs/GNS3/PVST+ GLBP/project-files/dynamips
Nov 26 21:04:08.419 HYPERVISOR: exec_cmd: vm create Level3-ISP 19 c7200 
Nov 26 21:04:08.419 VM: VM Level3-ISP created.
Nov 26 21:04:08.420 HYPERVISOR: exec_cmd: vm set_con_tcp_port Level3-ISP 2123 
Nov 26 21:04:08.421 HYPERVISOR: exec_cmd: vm set_aux_tcp_port Level3-ISP 2524 
Nov 26 21:04:08.427 HYPERVISOR: exec_cmd: c7200 get_mac_addr Level3-ISP 
Nov 26 21:04:08.429 HYPERVISOR: exec_cmd: vm get_status Level3-ISP 
Nov 26 21:04:08.431 HYPERVISOR: exec_cmd: vm slot_add_binding Level3-ISP 0 0 C7200-IO-FE 
Nov 26 21:04:08.436 HYPERVISOR: exec_cmd: vm get_status Level3-ISP 
Nov 26 21:04:08.438 HYPERVISOR: exec_cmd: vm slot_add_binding Level3-ISP 2 0 PA-POS-OC3 
Nov 26 21:04:08.439 HYPERVISOR: exec_cmd: vm set_ram Level3-ISP 512 
Nov 26 21:04:08.445 HYPERVISOR: exec_cmd: vm get_status Level3-ISP 
Nov 26 21:04:08.446 HYPERVISOR: exec_cmd: vm set_idle_pc Level3-ISP 0x60188e14 
Nov 26 21:04:08.449 HYPERVISOR: exec_cmd: vm get_status Level3-ISP 
Nov 26 21:04:08.450 HYPERVISOR: exec_cmd: vm slot_add_binding Level3-ISP 1 0 PA-POS-OC3 
Nov 26 21:04:08.451 HYPERVISOR: exec_cmd: vm set_ios Level3-ISP /media/actionmystique/SAMSUNG5-VMs/Images/GNS3/IOS/c7200-adventerprisek9-mz.152-4.M2.image 
Nov 26 21:04:08.452 HYPERVISOR: exec_cmd: vm set_config Level3-ISP configs/i19_startup-config.cfg 
Nov 26 21:04:09.618 HYPERVISOR: exec_cmd: vm extract_config Level3-ISP 
Nov 26 21:04:10.345 HYPERVISOR: exec_cmd: nio create_udp udp-f9d9af0b-c60a-450d-82da-5134d0ed58be 15073 127.0.0.1 15072 
Nov 26 21:04:10.345 HYPERVISOR: exec_cmd: vm slot_add_nio_binding Level3-ISP 1 0 udp-f9d9af0b-c60a-450d-82da-5134d0ed58be 
Nov 26 21:04:10.346 HYPERVISOR: exec_cmd: vm get_status Level3-ISP 
Nov 26 21:04:10.352 HYPERVISOR: exec_cmd: nio create_udp udp-42b05222-fcc1-4188-83df-6ae9706fba35 15074 127.0.0.1 15075 
Nov 26 21:04:10.353 HYPERVISOR: exec_cmd: vm slot_add_nio_binding Level3-ISP 2 0 udp-42b05222-fcc1-4188-83df-6ae9706fba35 
Nov 26 21:04:10.353 HYPERVISOR: exec_cmd: vm get_status Level3-ISP 
Nov 26 21:04:36.145 HYPERVISOR: exec_cmd: vm get_status Level3-ISP 
Nov 26 21:04:36.151 HYPERVISOR: exec_cmd: vm extract_config Level3-ISP 
Nov 26 21:04:36.157 HYPERVISOR: exec_cmd: vm delete Level3-ISP 
Nov 26 21:04:36.157 VM: VM Level3-ISP destroyed.
Nov 26 21:04:36.161 HYPERVISOR: exec_cmd: hypervisor stop 
Nov 26 21:04:36.436 HYPERVISOR: Stopped.
Nov 26 21:04:36.436 GENERAL: reset done.
