autostart = False
version = 0.8.3
[localhost:7200]
    workingdir = C:\Users\ActionMystique\Documents\Missions\GNS3\Temp
    udp = 10100
    [[3640]]
        image = C:\Users\ActionMystique\Documents\Missions\IOS\Binaries\c3640-jk9o3s-mz.124-16a.bin
        idlepc = 0x603e2770
        sparsemem = True
        ghostios = True
        chassis = 3640
    [[ROUTER Pet]]
        model = 3640
        console = 2002
        aux = 2101
        cnfg = configs\Pet.cfg
        slot0 = NM-1FE-TX
        f0/0 = Pam f1/0
        x = 141.292893219
        y = -250.464466094
        z = 1.0
    [[ROUTER Pam]]
        model = 3640
        console = 2001
        aux = 2100
        cnfg = configs\Pam.cfg
        slot0 = NM-1FE-TX
        f0/0 = Pim f0/0
        slot1 = NM-1FE-TX
        f1/0 = Pet f0/0
        x = -81.0
        y = -250.878679656
        z = 1.0
    [[ROUTER Pim]]
        model = 3640
        console = 2000
        aux = 2102
        cnfg = configs\Pim.cfg
        slot0 = NM-1FE-TX
        f0/0 = Pam f0/0
        x = -301.849242405
        y = -250.707106781
        z = 1.0
[GNS3-DATA]
    configs = configs
    m11 = 0.870550563294
    m22 = 0.870550563294
    [[NOTE 1]]
        text = "L0 2001:3::3/64"
        x = 113.743344416
        y = -201.758574399
        color = "#0000ff"
    [[NOTE 2]]
        text = "L0 2001:1::1/64"
        x = -322.762030484
        y = -202.435144789
        color = "#0000ff"
    [[NOTE 3]]
        text = ".2"
        x = -102.530483272
        y = -253.324422511
        color = "#0000ff"
    [[NOTE 4]]
        text = ".3"
        x = 123.743686708
        y = -253.019335984
        color = "#0000ff"
    [[NOTE 5]]
        text = ".2"
        x = -16.9705627485
        y = -252.818325857
        color = "#0000ff"
    [[NOTE 6]]
        text = "10.20.20.0 /24"
        x = 7.77817459305
        y = -254.738636074
        color = "#0000ff"
    [[NOTE 7]]
        text = "10.10.10.0 /24"
        x = -217.081781824
        y = -255.951839509
        color = "#0000ff"
    [[NOTE 8]]
        text = ".1"
        x = -240.416305603
        y = -253.123412385
        color = "#0000ff"
