Aug 11 15:08:37.368 HYPERVISOR: Release 0.2.16-amd64/Linux (tag 2015060118)
Aug 11 15:08:37.368 HYPERVISOR: Started on IP = 127.0.0.1, TCP port = 47319.
Aug 11 15:08:37.370 HYPERVISOR: exec_cmd: hypervisor version 
Aug 11 15:08:37.370 HYPERVISOR: exec_cmd: hypervisor working_dir /media/actionmystique/SAMSUNG-850-Ext4/Labs/GNS3/CCNP/TBSHOOT/L3-Technologies/IPv4/VRF/Jean-Christophe_Manciot/1+/Leaf & Spine DC-2-solutions-linux/project-files/dynamips 
Aug 11 15:08:37.370 GENERAL: working_dir=/media/actionmystique/SAMSUNG-850-Ext4/Labs/GNS3/CCNP/TBSHOOT/L3-Technologies/IPv4/VRF/Jean-Christophe_Manciot/1+/Leaf & Spine DC-2-solutions-linux/project-files/dynamips
Aug 11 15:08:37.370 HYPERVISOR: exec_cmd: vm create Mgt 1 c3725 
Aug 11 15:08:37.371 VM: VM Mgt created.
Aug 11 15:08:37.371 HYPERVISOR: exec_cmd: vm set_con_tcp_port Mgt 2017 
Aug 11 15:08:37.371 HYPERVISOR: exec_cmd: c3725 get_mac_addr Mgt 
Aug 11 15:08:37.371 HYPERVISOR: exec_cmd: vm set_disk0 Mgt 1 
Aug 11 15:08:37.372 HYPERVISOR: exec_cmd: c3725 set_mac_addr Mgt c201.1066.0000 
Aug 11 15:08:37.372 HYPERVISOR: exec_cmd: vm get_status Mgt 
Aug 11 15:08:37.373 HYPERVISOR: exec_cmd: vm set_idle_pc Mgt 0x6026b804 
Aug 11 15:08:37.373 HYPERVISOR: exec_cmd: vm get_status Mgt 
Aug 11 15:08:37.373 HYPERVISOR: exec_cmd: vm slot_add_binding Mgt 1 0 NM-16ESW 
Aug 11 15:08:37.374 HYPERVISOR: exec_cmd: vm slot_add_binding Mgt 0 16 WIC-2T 
Aug 11 15:08:37.374 HYPERVISOR: exec_cmd: vm set_nvram Mgt 256 
Aug 11 15:08:37.374 HYPERVISOR: exec_cmd: vm set_ios Mgt /media/actionmystique/SAMSUNG-850-Ext4/Images/GNS3/IOS/c3725-adventerprisek9-mz.124-15.T10.image 
Aug 11 15:08:37.376 HYPERVISOR: exec_cmd: vm set_config Mgt configs/i1_startup-config.cfg 
Aug 11 15:08:37.379 HYPERVISOR: exec_cmd: vm set_config Mgt configs/i1_startup-config.cfg configs/i1_private-config.cfg 
Aug 11 15:08:37.999 HYPERVISOR: exec_cmd: nio create_tap tap-c8a3068d-5c09-44f6-a2c5-ad578e934bf3 tap1 
Aug 11 15:08:38.000 HYPERVISOR: exec_cmd: vm slot_add_nio_binding Mgt 1 0 tap-c8a3068d-5c09-44f6-a2c5-ad578e934bf3 
Aug 11 15:08:38.001 HYPERVISOR: exec_cmd: vm get_status Mgt 
Aug 11 15:08:38.313 HYPERVISOR: exec_cmd: nio create_udp udp-3a8d1b26-a6e0-4cd6-b059-744498757d44 15058 127.0.0.1 15059 
Aug 11 15:08:38.314 HYPERVISOR: exec_cmd: vm slot_add_nio_binding Mgt 1 5 udp-3a8d1b26-a6e0-4cd6-b059-744498757d44 
Aug 11 15:08:38.314 HYPERVISOR: exec_cmd: vm get_status Mgt 
Aug 11 15:08:38.329 HYPERVISOR: exec_cmd: nio create_udp udp-e2407b4a-4929-45b5-bab5-ce4194ff8e3a 15060 127.0.0.1 15061 
Aug 11 15:08:38.330 HYPERVISOR: exec_cmd: vm slot_add_nio_binding Mgt 1 6 udp-e2407b4a-4929-45b5-bab5-ce4194ff8e3a 
Aug 11 15:08:38.330 HYPERVISOR: exec_cmd: vm get_status Mgt 
Aug 11 15:08:38.349 HYPERVISOR: exec_cmd: nio create_udp udp-bf28fdb8-169c-4f32-a0f4-c76ed95f1743 15062 127.0.0.1 15063 
Aug 11 15:08:38.350 HYPERVISOR: exec_cmd: vm slot_add_nio_binding Mgt 1 1 udp-bf28fdb8-169c-4f32-a0f4-c76ed95f1743 
Aug 11 15:08:38.350 HYPERVISOR: exec_cmd: vm get_status Mgt 
Aug 11 15:08:38.367 HYPERVISOR: exec_cmd: nio create_udp udp-9dc15b8c-0665-4473-a6de-b777aeb2f44c 15064 127.0.0.1 15065 
Aug 11 15:08:38.367 HYPERVISOR: exec_cmd: vm slot_add_nio_binding Mgt 1 2 udp-9dc15b8c-0665-4473-a6de-b777aeb2f44c 
Aug 11 15:08:38.368 HYPERVISOR: exec_cmd: vm get_status Mgt 
Aug 11 15:08:38.389 HYPERVISOR: exec_cmd: nio create_udp udp-0457707b-5a87-4ef8-a474-a32f1ee65c5f 15066 127.0.0.1 15067 
Aug 11 15:08:38.389 HYPERVISOR: exec_cmd: vm slot_add_nio_binding Mgt 1 3 udp-0457707b-5a87-4ef8-a474-a32f1ee65c5f 
Aug 11 15:08:38.390 HYPERVISOR: exec_cmd: vm get_status Mgt 
Aug 11 15:08:38.405 HYPERVISOR: exec_cmd: nio create_udp udp-e3ed2b13-f913-4191-ba4b-4301dac70bbc 15068 127.0.0.1 15069 
Aug 11 15:08:38.405 HYPERVISOR: exec_cmd: vm slot_add_nio_binding Mgt 1 4 udp-e3ed2b13-f913-4191-ba4b-4301dac70bbc 
Aug 11 15:08:38.406 HYPERVISOR: exec_cmd: vm get_status Mgt 
Aug 11 15:08:38.418 HYPERVISOR: exec_cmd: nio create_udp udp-258c9cdb-17c5-4f5e-8d14-f68899235a37 15070 127.0.0.1 15071 
Aug 11 15:08:38.419 HYPERVISOR: exec_cmd: vm slot_add_nio_binding Mgt 1 11 udp-258c9cdb-17c5-4f5e-8d14-f68899235a37 
Aug 11 15:08:38.419 HYPERVISOR: exec_cmd: vm get_status Mgt 
Aug 11 15:08:38.445 HYPERVISOR: exec_cmd: nio create_udp udp-66f800d4-d082-48c0-8031-e2626f60279a 15073 127.0.0.1 15072 
Aug 11 15:08:38.446 HYPERVISOR: exec_cmd: vm slot_add_nio_binding Mgt 1 12 udp-66f800d4-d082-48c0-8031-e2626f60279a 
Aug 11 15:08:38.446 HYPERVISOR: exec_cmd: vm get_status Mgt 
Aug 11 15:08:54.050 HYPERVISOR: exec_cmd: vm create Ghost 0 c3725 
Aug 11 15:08:54.050 VM: VM Ghost created.
Aug 11 15:08:54.064 HYPERVISOR: exec_cmd: vm set_ios Ghost /media/actionmystique/SAMSUNG-850-Ext4/Images/GNS3/IOS/c3725-adventerprisek9-mz.124-15.T10.image 
Aug 11 15:08:54.109 HYPERVISOR: exec_cmd: vm set_ghost_status Ghost 1 
Aug 11 15:08:54.126 HYPERVISOR: exec_cmd: vm set_ghost_file Ghost c3725-adventerprisek9-mz.124-15.T10.image-128.ghost 
Aug 11 15:08:54.145 HYPERVISOR: exec_cmd: vm get_status Ghost 
Aug 11 15:08:54.154 HYPERVISOR: exec_cmd: vm start Ghost 
Aug 11 15:08:54.495 HYPERVISOR: exec_cmd: vm get_status Ghost 
Aug 11 15:08:54.496 HYPERVISOR: exec_cmd: vm stop Ghost 
Aug 11 15:08:54.601 VM: VM Ghost shutdown.
Aug 11 15:08:54.606 HYPERVISOR: exec_cmd: vm clean_delete Ghost 
Aug 11 15:08:54.606 VM: VM Ghost destroyed.
Aug 11 15:08:54.607 HYPERVISOR: exec_cmd: vm set_ghost_status Mgt 2 
Aug 11 15:08:54.607 HYPERVISOR: exec_cmd: vm set_ghost_file Mgt c3725-adventerprisek9-mz.124-15.T10.image-128.ghost 
Aug 11 15:08:54.608 HYPERVISOR: exec_cmd: vm get_status Mgt 
Aug 11 15:08:54.609 HYPERVISOR: exec_cmd: vm start Mgt 
Aug 11 15:21:58.162 HYPERVISOR: exec_cmd: vm get_status Mgt 
Aug 11 15:21:58.167 HYPERVISOR: exec_cmd: vm stop Mgt 
Aug 11 15:21:58.396 VM: VM Mgt shutdown.
Aug 11 15:21:58.397 HYPERVISOR: exec_cmd: vm extract_config Mgt 
Aug 11 15:22:03.828 HYPERVISOR: exec_cmd: vm get_status Mgt 
Aug 11 15:22:03.830 HYPERVISOR: exec_cmd: vm extract_config Mgt 
Aug 11 15:22:03.831 HYPERVISOR: exec_cmd: vm delete Mgt 
Aug 11 15:22:03.831 VM: VM Mgt destroyed.
Aug 11 15:22:03.834 HYPERVISOR: exec_cmd: hypervisor stop 
Aug 11 15:22:04.030 HYPERVISOR: Stopped.
Aug 11 15:22:04.030 GENERAL: reset done.
