Nov 27 16:15:28.145 HYPERVISOR: Release 0.2.17-amd64/Linux (tag 2017072410)
Nov 27 16:15:28.145 HYPERVISOR: Started on IP = 127.0.0.1, TCP port = 53839.
Nov 27 16:15:28.158 HYPERVISOR: exec_cmd: hypervisor version 
Nov 27 16:15:28.158 HYPERVISOR: exec_cmd: hypervisor working_dir /media/actionmystique/SAMSUNG5-VMs/Labs/GNS3/TT 3-linux-/project-files/dynamips 
Nov 27 16:15:28.158 GENERAL: working_dir=/media/actionmystique/SAMSUNG5-VMs/Labs/GNS3/TT 3-linux-/project-files/dynamips
Nov 27 16:15:28.158 HYPERVISOR: exec_cmd: vm create PC1 4 c3725 
Nov 27 16:15:28.159 VM: VM PC1 created.
Nov 27 16:15:28.159 HYPERVISOR: exec_cmd: vm set_con_tcp_port PC1 2004 
Nov 27 16:15:28.159 HYPERVISOR: exec_cmd: c3725 get_mac_addr PC1 
Nov 27 16:15:28.159 HYPERVISOR: exec_cmd: vm set_nvram PC1 256 
Nov 27 16:15:28.160 HYPERVISOR: exec_cmd: vm get_status PC1 
Nov 27 16:15:28.160 HYPERVISOR: exec_cmd: vm set_idle_pc PC1 0x614ac2c4 
Nov 27 16:15:28.161 HYPERVISOR: exec_cmd: c3725 set_mac_addr PC1 c204.12d0.0000 
Nov 27 16:15:28.161 HYPERVISOR: exec_cmd: vm set_exec_area PC1 16 
Nov 27 16:15:28.161 HYPERVISOR: exec_cmd: vm get_status PC1 
Nov 27 16:15:28.162 HYPERVISOR: exec_cmd: vm slot_add_binding PC1 1 0 NM-16ESW 
Nov 27 16:15:28.162 HYPERVISOR: exec_cmd: vm set_disk0 PC1 1 
Nov 27 16:15:28.162 HYPERVISOR: exec_cmd: vm set_ios PC1 /media/actionmystique/SAMSUNG5-VMs/Images/GNS3/IOS/c3725-adventerprisek9-mz.124-15.T10.image 
Nov 27 16:15:28.163 HYPERVISOR: exec_cmd: vm slot_add_binding PC1 0 16 WIC-2T 
Nov 27 16:15:28.163 HYPERVISOR: exec_cmd: vm set_config PC1 configs/i4_startup-config.cfg 
Nov 27 16:15:28.164 HYPERVISOR: exec_cmd: vm set_config PC1 configs/i4_startup-config.cfg configs/i4_private-config.cfg 
Nov 27 16:15:28.507 HYPERVISOR: exec_cmd: nio create_udp udp-1558cc22-be2f-4cfd-a433-c1a1e827cea5 15007 127.0.0.1 15008 
Nov 27 16:15:28.508 HYPERVISOR: exec_cmd: vm slot_add_nio_binding PC1 1 0 udp-1558cc22-be2f-4cfd-a433-c1a1e827cea5 
Nov 27 16:15:28.509 HYPERVISOR: exec_cmd: vm get_status PC1 
Nov 27 16:15:44.160 HYPERVISOR: exec_cmd: vm get_status PC1 
Nov 27 16:15:44.161 HYPERVISOR: exec_cmd: vm extract_config PC1 
Nov 27 16:15:44.163 HYPERVISOR: exec_cmd: vm delete PC1 
Nov 27 16:15:44.163 VM: VM PC1 destroyed.
Nov 27 16:15:44.165 HYPERVISOR: exec_cmd: hypervisor stop 
Nov 27 16:15:44.174 HYPERVISOR: Stopped.
Nov 27 16:15:44.174 GENERAL: reset done.
