Jan 11 11:10:15.879 HYPERVISOR: Release 0.2.14-x86/Windows (tag 2014092320)
Jan 11 11:10:15.879 HYPERVISOR: Started on IP = 127.0.0.1, TCP port = 7208.
Jan 11 11:10:16.448 HYPERVISOR: exec_cmd: hypervisor version 
Jan 11 11:10:16.448 HYPERVISOR: exec_cmd: hypervisor uuid 
Jan 11 11:10:16.448 HYPERVISOR: exec_cmd: hypervisor working_dir C:/Users/ActionMystique/GNS3/projects/CCNP-Security/FIREWALL/Jean-Christophe/1+/Data Center ASA - ASDM - AAA - VMs/Data Center ASA - ASDM - AAA - VMs-files\dynamips 
Jan 11 11:10:16.448 GENERAL: working_dir=C:/Users/ActionMystique/GNS3/projects/CCNP-Security/FIREWALL/Jean-Christophe/1+/Data Center ASA - ASDM - AAA - VMs/Data Center ASA - ASDM - AAA - VMs-files\dynamips
Jan 11 11:10:16.448 HYPERVISOR: exec_cmd: vm create SW10 9 c3725 
Jan 11 11:10:16.448 VM: VM SW10 created.
Jan 11 11:10:16.448 HYPERVISOR: exec_cmd: vm set_con_tcp_port SW10 2008 
Jan 11 11:10:16.448 HYPERVISOR: exec_cmd: vm set_aux_tcp_port SW10 2508 
Jan 11 11:10:16.448 HYPERVISOR: exec_cmd: c3725 get_mac_addr SW10 
Jan 11 11:10:16.448 HYPERVISOR: exec_cmd: vm set_ios SW10 C:\Users\ActionMystique\GNS3\images\IOS\c3725-adventerprisek9-mz.124-15.T10.image 
Jan 11 11:10:16.448 HYPERVISOR: exec_cmd: vm set_sparse_mem SW10 1 
Jan 11 11:10:16.448 HYPERVISOR: exec_cmd: vm set_ram_mmap SW10 1 
Jan 11 11:10:16.448 HYPERVISOR: exec_cmd: vm set_con_tcp_port SW10 2019 
Jan 11 11:10:16.448 HYPERVISOR: exec_cmd: vm set_aux_tcp_port SW10 2519 
Jan 11 11:10:16.448 HYPERVISOR: exec_cmd: c3725 set_mac_addr SW10 c209.13f4.0000 
Jan 11 11:10:16.448 HYPERVISOR: exec_cmd: vm set_ghost_status SW10 2 
Jan 11 11:10:16.448 HYPERVISOR: exec_cmd: vm set_ghost_file SW10 c3725-adventerprisek9-mz.124-15.T10.image-128.ghost 
Jan 11 11:10:28.559 HYPERVISOR: exec_cmd: vm set_config SW10 configs\i9_startup-config.cfg 
Jan 11 11:10:28.559 HYPERVISOR: exec_cmd: vm get_status SW10 
Jan 11 11:10:28.559 HYPERVISOR: exec_cmd: vm set_idle_pc SW10 0x6148b5dc 
Jan 11 11:10:28.559 HYPERVISOR: exec_cmd: vm get_status SW10 
Jan 11 11:10:28.559 HYPERVISOR: exec_cmd: vm slot_add_binding SW10 1 0 NM-16ESW 
Jan 11 11:10:28.559 HYPERVISOR: exec_cmd: vm get_status SW10 
Jan 11 11:10:28.990 HYPERVISOR: exec_cmd: nio create_udp_auto nio_udp_auto56 127.0.0.1 10001 20000 
Jan 11 11:10:28.990 HYPERVISOR: exec_cmd: nio create_udp_auto nio_udp_auto58 127.0.0.1 10001 20000 
Jan 11 11:10:29.029 HYPERVISOR: exec_cmd: nio create_udp nio_udp6 30008 127.0.0.1 20008 
Jan 11 11:10:29.029 HYPERVISOR: exec_cmd: vm slot_add_nio_binding SW10 1 4 nio_udp6 
Jan 11 11:10:29.029 HYPERVISOR: exec_cmd: vm get_status SW10 
Jan 11 11:10:31.241 HYPERVISOR: exec_cmd: nio connect_udp_auto nio_udp_auto56 127.0.0.1 10058 
Jan 11 11:10:31.241 HYPERVISOR: exec_cmd: vm slot_add_nio_binding SW10 1 2 nio_udp_auto56 
Jan 11 11:10:31.241 HYPERVISOR: exec_cmd: vm get_status SW10 
Jan 11 11:10:31.281 HYPERVISOR: exec_cmd: nio connect_udp_auto nio_udp_auto58 127.0.0.1 10060 
Jan 11 11:10:31.281 HYPERVISOR: exec_cmd: vm slot_add_nio_binding SW10 1 3 nio_udp_auto58 
Jan 11 11:10:31.281 HYPERVISOR: exec_cmd: vm get_status SW10 
Jan 11 11:11:54.240 HYPERVISOR: exec_cmd: vm extract_config SW10 
Jan 11 11:22:55.890 HYPERVISOR: exec_cmd: vm extract_config SW10 
Jan 11 11:22:58.405 HYPERVISOR: Stopped.
Jan 11 11:22:58.405 VM: VM SW10 destroyed.
Jan 11 11:22:58.405 GENERAL: reset done.
