Nov 26 21:03:46.196 HYPERVISOR: Release 0.2.17-amd64/Linux (tag 2017072410)
Nov 26 21:03:46.196 HYPERVISOR: Started on IP = 127.0.0.1, TCP port = 58671.
Nov 26 21:03:46.240 HYPERVISOR: exec_cmd: hypervisor version 
Nov 26 21:03:46.242 HYPERVISOR: exec_cmd: hypervisor working_dir /media/actionmystique/SAMSUNG5-VMs/Labs/GNS3/PVST+ EtherChannel HSRP with Dual L2-L3 Links/project-files/dynamips 
Nov 26 21:03:46.242 GENERAL: working_dir=/media/actionmystique/SAMSUNG5-VMs/Labs/GNS3/PVST+ EtherChannel HSRP with Dual L2-L3 Links/project-files/dynamips
Nov 26 21:03:46.244 HYPERVISOR: exec_cmd: vm create SW8 8 c3725 
Nov 26 21:03:46.244 VM: VM SW8 created.
Nov 26 21:03:46.246 HYPERVISOR: exec_cmd: vm set_con_tcp_port SW8 2015 
Nov 26 21:03:46.252 HYPERVISOR: exec_cmd: vm set_aux_tcp_port SW8 2515 
Nov 26 21:03:46.263 HYPERVISOR: exec_cmd: c3725 get_mac_addr SW8 
Nov 26 21:03:46.267 HYPERVISOR: exec_cmd: vm set_ios SW8 /media/actionmystique/SAMSUNG5-VMs/Images/GNS3/IOS/c3725-adventerprisek9-mz.124-15.T10.image 
Nov 26 21:03:46.274 HYPERVISOR: exec_cmd: vm set_ram SW8 256 
Nov 26 21:03:46.277 HYPERVISOR: exec_cmd: vm get_status SW8 
Nov 26 21:03:46.290 HYPERVISOR: exec_cmd: vm set_idle_pc SW8 0x6026b804 
Nov 26 21:03:46.292 HYPERVISOR: exec_cmd: vm get_status SW8 
Nov 26 21:03:46.294 HYPERVISOR: exec_cmd: vm slot_add_binding SW8 1 0 NM-16ESW 
Nov 26 21:03:46.295 HYPERVISOR: exec_cmd: vm set_config SW8 configs/i8_startup-config.cfg 
Nov 26 21:03:47.137 HYPERVISOR: exec_cmd: vm extract_config SW8 
Nov 26 21:03:47.597 HYPERVISOR: exec_cmd: nio create_udp udp-889444e3-edb7-47c3-9355-e7a5884f0f02 15043 127.0.0.1 15044 
Nov 26 21:03:47.598 HYPERVISOR: exec_cmd: vm slot_add_nio_binding SW8 1 11 udp-889444e3-edb7-47c3-9355-e7a5884f0f02 
Nov 26 21:03:47.598 HYPERVISOR: exec_cmd: vm get_status SW8 
Nov 26 21:03:47.624 HYPERVISOR: exec_cmd: nio create_udp udp-35f04692-e24b-4f02-bac1-7e54f3b3fe92 15045 127.0.0.1 15042 
Nov 26 21:03:47.625 HYPERVISOR: exec_cmd: vm slot_add_nio_binding SW8 1 2 udp-35f04692-e24b-4f02-bac1-7e54f3b3fe92 
Nov 26 21:03:47.625 HYPERVISOR: exec_cmd: vm get_status SW8 
Nov 26 21:03:47.664 HYPERVISOR: exec_cmd: nio create_udp udp-c8869bb7-70c5-47f3-9fb0-bc3903c21d52 15049 127.0.0.1 15046 
Nov 26 21:03:47.665 HYPERVISOR: exec_cmd: vm slot_add_nio_binding SW8 1 4 udp-c8869bb7-70c5-47f3-9fb0-bc3903c21d52 
Nov 26 21:03:47.665 HYPERVISOR: exec_cmd: vm get_status SW8 
Nov 26 21:03:47.684 HYPERVISOR: exec_cmd: nio create_udp udp-d1c3c2ce-1f45-412e-99cd-cd0e0ded604b 15051 127.0.0.1 15050 
Nov 26 21:03:47.684 HYPERVISOR: exec_cmd: vm slot_add_nio_binding SW8 1 3 udp-d1c3c2ce-1f45-412e-99cd-cd0e0ded604b 
Nov 26 21:03:47.685 HYPERVISOR: exec_cmd: vm get_status SW8 
Nov 26 21:03:47.713 HYPERVISOR: exec_cmd: nio create_udp udp-26b84760-fba3-43c1-9267-e0dc0e672af8 15054 127.0.0.1 15055 
Nov 26 21:03:47.713 HYPERVISOR: exec_cmd: vm slot_add_nio_binding SW8 1 1 udp-26b84760-fba3-43c1-9267-e0dc0e672af8 
Nov 26 21:03:47.714 HYPERVISOR: exec_cmd: vm get_status SW8 
Nov 26 21:04:03.939 HYPERVISOR: exec_cmd: vm get_status SW8 
Nov 26 21:04:03.943 HYPERVISOR: exec_cmd: vm extract_config SW8 
Nov 26 21:04:03.992 HYPERVISOR: exec_cmd: vm delete SW8 
Nov 26 21:04:03.992 VM: VM SW8 destroyed.
Nov 26 21:04:03.995 HYPERVISOR: exec_cmd: hypervisor stop 
Nov 26 21:04:04.252 HYPERVISOR: Stopped.
Nov 26 21:04:04.252 GENERAL: reset done.
