Nov 27 16:25:42.315 HYPERVISOR: Release 0.2.17-amd64/Linux (tag 2017072410)
Nov 27 16:25:42.315 HYPERVISOR: Started on IP = 127.0.0.1, TCP port = 48123.
Nov 27 16:25:42.324 HYPERVISOR: exec_cmd: hypervisor version 
Nov 27 16:25:42.325 HYPERVISOR: exec_cmd: hypervisor working_dir /media/actionmystique/SAMSUNG5-VMs/Labs/GNS3/git-Public-Labs-Collection/CCNP/TBSHOOT/L3-Technologies/IPv4/IOS-Filtering-Tools/ACL/Jean-Christophe_Manciot/1+/TT 1-solutions-linux/project-files/dynamips 
Nov 27 16:25:42.325 GENERAL: working_dir=/media/actionmystique/SAMSUNG5-VMs/Labs/GNS3/git-Public-Labs-Collection/CCNP/TBSHOOT/L3-Technologies/IPv4/IOS-Filtering-Tools/ACL/Jean-Christophe_Manciot/1+/TT 1-solutions-linux/project-files/dynamips
Nov 27 16:25:42.325 HYPERVISOR: exec_cmd: vm create ESW1 1 c3725 
Nov 27 16:25:42.326 VM: VM ESW1 created.
Nov 27 16:25:42.326 HYPERVISOR: exec_cmd: vm set_con_tcp_port ESW1 2001 
Nov 27 16:25:42.327 HYPERVISOR: exec_cmd: vm set_aux_tcp_port ESW1 2501 
Nov 27 16:25:42.327 HYPERVISOR: exec_cmd: c3725 get_mac_addr ESW1 
Nov 27 16:25:42.327 HYPERVISOR: exec_cmd: vm set_nvram ESW1 256 
Nov 27 16:25:42.328 HYPERVISOR: exec_cmd: vm get_status ESW1 
Nov 27 16:25:42.328 HYPERVISOR: exec_cmd: vm set_idle_pc ESW1 0x6026b804 
Nov 27 16:25:42.328 HYPERVISOR: exec_cmd: c3725 set_mac_addr ESW1 c201.281a.0000 
Nov 27 16:25:42.329 HYPERVISOR: exec_cmd: vm get_status ESW1 
Nov 27 16:25:42.329 HYPERVISOR: exec_cmd: vm slot_add_binding ESW1 1 0 NM-16ESW 
Nov 27 16:25:42.329 HYPERVISOR: exec_cmd: vm set_ios ESW1 /media/actionmystique/SAMSUNG5-VMs/Images/GNS3/IOS/c3725-adventerprisek9-mz.124-15.T10.image 
Nov 27 16:25:42.330 HYPERVISOR: exec_cmd: vm slot_add_binding ESW1 0 16 WIC-2T 
Nov 27 16:25:42.330 HYPERVISOR: exec_cmd: vm set_disk0 ESW1 1 
Nov 27 16:25:42.331 HYPERVISOR: exec_cmd: vm set_config ESW1 configs/i1_startup-config.cfg 
Nov 27 16:25:42.331 HYPERVISOR: exec_cmd: vm set_config ESW1 configs/i1_startup-config.cfg configs/i1_private-config.cfg 
Nov 27 16:25:42.454 HYPERVISOR: exec_cmd: nio create_udp udp-d1a18c06-a426-48bb-a53b-ea279eceb94e 15005 127.0.0.1 15003 
Nov 27 16:25:42.462 HYPERVISOR: exec_cmd: vm slot_add_nio_binding ESW1 1 1 udp-d1a18c06-a426-48bb-a53b-ea279eceb94e 
Nov 27 16:25:42.462 HYPERVISOR: exec_cmd: vm get_status ESW1 
Nov 27 16:25:42.468 HYPERVISOR: exec_cmd: nio create_udp udp-304acd53-8fc6-4386-b834-1a58e2b75444 15007 127.0.0.1 15006 
Nov 27 16:25:42.468 HYPERVISOR: exec_cmd: vm slot_add_nio_binding ESW1 1 0 udp-304acd53-8fc6-4386-b834-1a58e2b75444 
Nov 27 16:25:42.469 HYPERVISOR: exec_cmd: vm get_status ESW1 
