Dec 04 11:08:09.892 HYPERVISOR: Release 0.2.17-amd64/Linux (tag 2017072410)
Dec 04 11:08:09.892 HYPERVISOR: Started on IP = 127.0.0.1, TCP port = 35093.
Dec 04 11:08:09.928 HYPERVISOR: exec_cmd: hypervisor version 
Dec 04 11:08:09.928 HYPERVISOR: exec_cmd: hypervisor working_dir /media/actionmystique/SAMSUNG5-VMs/Labs/GNS3/TT 2-solutions-linux-/project-files/dynamips 
Dec 04 11:08:09.928 GENERAL: working_dir=/media/actionmystique/SAMSUNG5-VMs/Labs/GNS3/TT 2-solutions-linux-/project-files/dynamips
Dec 04 11:08:09.928 HYPERVISOR: exec_cmd: vm create ESW4 4 c3725 
Dec 04 11:08:09.929 VM: VM ESW4 created.
Dec 04 11:08:09.929 HYPERVISOR: exec_cmd: vm set_con_tcp_port ESW4 2009 
Dec 04 11:08:09.929 HYPERVISOR: exec_cmd: c3725 get_mac_addr ESW4 
Dec 04 11:08:09.929 HYPERVISOR: exec_cmd: vm set_nvram ESW4 256 
Dec 04 11:08:09.930 HYPERVISOR: exec_cmd: vm set_ios ESW4 /media/actionmystique/SAMSUNG5-VMs/Images/GNS3/IOS/c3725-adventerprisek9-mz.124-15.T10.image 
Dec 04 11:08:09.930 HYPERVISOR: exec_cmd: c3725 set_mac_addr ESW4 c204.68ae.0000 
Dec 04 11:08:09.931 HYPERVISOR: exec_cmd: vm get_status ESW4 
Dec 04 11:08:09.931 HYPERVISOR: exec_cmd: vm slot_add_binding ESW4 1 0 NM-16ESW 
Dec 04 11:08:09.931 HYPERVISOR: exec_cmd: vm get_status ESW4 
Dec 04 11:08:09.932 HYPERVISOR: exec_cmd: vm set_idle_pc ESW4 0x60c05928 
Dec 04 11:08:09.932 HYPERVISOR: exec_cmd: vm set_disk0 ESW4 1 
Dec 04 11:08:09.932 HYPERVISOR: exec_cmd: vm slot_add_binding ESW4 0 16 WIC-2T 
Dec 04 11:08:09.933 HYPERVISOR: exec_cmd: vm set_config ESW4 configs/ios_base_startup-config.txt 
Dec 04 11:08:09.933 HYPERVISOR: exec_cmd: vm set_config ESW4 configs/ios_base_startup-config.txt configs/ios_base_private-config.txt 
Dec 04 11:08:10.249 HYPERVISOR: exec_cmd: nio create_udp udp-9a7d9f12-b0de-4754-a5e7-845eabb7967f 15013 127.0.0.1 15012 
Dec 04 11:08:10.249 HYPERVISOR: exec_cmd: vm slot_add_nio_binding ESW4 1 0 udp-9a7d9f12-b0de-4754-a5e7-845eabb7967f 
Dec 04 11:08:10.250 HYPERVISOR: exec_cmd: vm get_status ESW4 
Dec 04 11:08:10.256 HYPERVISOR: exec_cmd: nio create_udp udp-c37bc571-74c2-41e2-a24e-3d04d5a75846 15014 127.0.0.1 15015 
Dec 04 11:08:10.257 HYPERVISOR: exec_cmd: vm slot_add_nio_binding ESW4 1 1 udp-c37bc571-74c2-41e2-a24e-3d04d5a75846 
Dec 04 11:08:10.263 HYPERVISOR: exec_cmd: vm get_status ESW4 
Dec 04 11:08:23.946 HYPERVISOR: exec_cmd: vm get_status ESW4 
Dec 04 11:08:23.949 HYPERVISOR: exec_cmd: vm extract_config ESW4 
Dec 04 11:08:23.953 HYPERVISOR: exec_cmd: vm delete ESW4 
Dec 04 11:08:23.953 VM: VM ESW4 destroyed.
Dec 04 11:08:23.955 HYPERVISOR: exec_cmd: hypervisor stop 
Dec 04 11:08:24.440 HYPERVISOR: Stopped.
Dec 04 11:08:24.440 GENERAL: reset done.
