Nov 27 16:23:32.759 HYPERVISOR: Release 0.2.17-amd64/Linux (tag 2017072410)
Nov 27 16:23:32.759 HYPERVISOR: Started on IP = 127.0.0.1, TCP port = 55059.
Nov 27 16:23:32.767 HYPERVISOR: exec_cmd: hypervisor version 
Nov 27 16:23:32.768 HYPERVISOR: exec_cmd: hypervisor working_dir /media/actionmystique/SAMSUNG5-VMs/Labs/GNS3/git-Public-Labs-Collection/CCNP/TBSHOOT/L3-Technologies/IPv4/High-Availability/VRRP/Jean-Christophe_Manciot/1+/TT 1-solutions-linux/project-files/dynamips 
Nov 27 16:23:32.768 GENERAL: working_dir=/media/actionmystique/SAMSUNG5-VMs/Labs/GNS3/git-Public-Labs-Collection/CCNP/TBSHOOT/L3-Technologies/IPv4/High-Availability/VRRP/Jean-Christophe_Manciot/1+/TT 1-solutions-linux/project-files/dynamips
Nov 27 16:23:32.769 HYPERVISOR: exec_cmd: vm create Core 4 c3725 
Nov 27 16:23:32.769 VM: VM Core created.
Nov 27 16:23:32.770 HYPERVISOR: exec_cmd: vm set_con_tcp_port Core 2005 
Nov 27 16:23:32.771 HYPERVISOR: exec_cmd: c3725 get_mac_addr Core 
Nov 27 16:23:32.772 HYPERVISOR: exec_cmd: vm set_ram Core 256 
Nov 27 16:23:32.773 HYPERVISOR: exec_cmd: vm set_nvram Core 256 
Nov 27 16:23:32.774 HYPERVISOR: exec_cmd: vm get_status Core 
Nov 27 16:23:32.775 HYPERVISOR: exec_cmd: vm set_idle_pc Core 0x60c056e4 
Nov 27 16:23:32.776 HYPERVISOR: exec_cmd: c3725 set_mac_addr Core c204.0c3e.0000 
Nov 27 16:23:32.777 HYPERVISOR: exec_cmd: vm get_status Core 
Nov 27 16:23:32.778 HYPERVISOR: exec_cmd: vm slot_add_binding Core 1 0 NM-16ESW 
Nov 27 16:23:32.783 HYPERVISOR: exec_cmd: vm set_ios Core /media/actionmystique/SAMSUNG5-VMs/Images/GNS3/IOS/c3725-adventerprisek9-mz.124-15.T10.image 
Nov 27 16:23:32.783 HYPERVISOR: exec_cmd: vm slot_add_binding Core 0 16 WIC-2T 
Nov 27 16:23:32.784 HYPERVISOR: exec_cmd: vm set_disk0 Core 1 
Nov 27 16:23:32.788 HYPERVISOR: exec_cmd: vm set_config Core configs/i4_startup-config.cfg 
Nov 27 16:23:32.789 HYPERVISOR: exec_cmd: vm set_config Core configs/i4_startup-config.cfg configs/i4_private-config.cfg 
Nov 27 16:23:33.069 HYPERVISOR: exec_cmd: nio create_udp udp-c1907a75-a7e4-4734-bf7e-f047b92570b8 15011 127.0.0.1 15012 
Nov 27 16:23:33.069 HYPERVISOR: exec_cmd: vm slot_add_nio_binding Core 1 0 udp-c1907a75-a7e4-4734-bf7e-f047b92570b8 
Nov 27 16:23:33.070 HYPERVISOR: exec_cmd: vm get_status Core 
Nov 27 16:23:33.089 HYPERVISOR: exec_cmd: nio create_udp udp-715b67f3-af1f-441c-a00a-613f7eb016cc 15013 127.0.0.1 15010 
Nov 27 16:23:33.089 HYPERVISOR: exec_cmd: vm slot_add_nio_binding Core 1 1 udp-715b67f3-af1f-441c-a00a-613f7eb016cc 
Nov 27 16:23:33.090 HYPERVISOR: exec_cmd: vm get_status Core 
