Nov 27 16:14:56.613 HYPERVISOR: Release 0.2.17-amd64/Linux (tag 2017072410)
Nov 27 16:14:56.613 HYPERVISOR: Started on IP = 127.0.0.1, TCP port = 43685.
Nov 27 16:14:56.631 HYPERVISOR: exec_cmd: hypervisor version 
Nov 27 16:14:56.631 HYPERVISOR: exec_cmd: hypervisor working_dir /media/actionmystique/SAMSUNG5-VMs/Labs/GNS3/git-Public-Labs-Collection/CCNP/TBSHOOT/L2-Technologies/STP/Jean-Christophe_Manciot/1+/TT 2-solutions-linux/project-files/dynamips 
Nov 27 16:14:56.631 GENERAL: working_dir=/media/actionmystique/SAMSUNG5-VMs/Labs/GNS3/git-Public-Labs-Collection/CCNP/TBSHOOT/L2-Technologies/STP/Jean-Christophe_Manciot/1+/TT 2-solutions-linux/project-files/dynamips
Nov 27 16:14:56.632 HYPERVISOR: exec_cmd: vm create SW2 2 c3725 
Nov 27 16:14:56.632 VM: VM SW2 created.
Nov 27 16:14:56.632 HYPERVISOR: exec_cmd: vm set_con_tcp_port SW2 2002 
Nov 27 16:14:56.633 HYPERVISOR: exec_cmd: c3725 get_mac_addr SW2 
Nov 27 16:14:56.634 HYPERVISOR: exec_cmd: vm set_nvram SW2 256 
Nov 27 16:14:56.634 HYPERVISOR: exec_cmd: vm get_status SW2 
Nov 27 16:14:56.635 HYPERVISOR: exec_cmd: vm set_idle_pc SW2 0x60c06d20 
Nov 27 16:14:56.636 HYPERVISOR: exec_cmd: c3725 set_mac_addr SW2 eeee.eeee.eeee 
Nov 27 16:14:56.636 HYPERVISOR: exec_cmd: vm set_exec_area SW2 16 
Nov 27 16:14:56.637 HYPERVISOR: exec_cmd: vm get_status SW2 
Nov 27 16:14:56.638 HYPERVISOR: exec_cmd: vm slot_add_binding SW2 1 0 NM-16ESW 
Nov 27 16:14:56.638 HYPERVISOR: exec_cmd: vm set_ios SW2 /media/actionmystique/SAMSUNG5-VMs/Images/GNS3/IOS/c3725-adventerprisek9-mz.124-15.T10.image 
Nov 27 16:14:56.639 HYPERVISOR: exec_cmd: vm slot_add_binding SW2 0 16 WIC-2T 
Nov 27 16:14:56.640 HYPERVISOR: exec_cmd: vm set_disk0 SW2 1 
Nov 27 16:14:56.642 HYPERVISOR: exec_cmd: vm set_config SW2 configs/i2_startup-config.cfg 
Nov 27 16:14:56.646 HYPERVISOR: exec_cmd: vm set_config SW2 configs/i2_startup-config.cfg configs/i2_private-config.cfg 
Nov 27 16:14:56.789 HYPERVISOR: exec_cmd: nio create_udp udp-0e931e5b-9e01-4747-8fd2-b82f84f6cf47 15000 127.0.0.1 15001 
Nov 27 16:14:56.795 HYPERVISOR: exec_cmd: vm slot_add_nio_binding SW2 1 0 udp-0e931e5b-9e01-4747-8fd2-b82f84f6cf47 
Nov 27 16:14:56.795 HYPERVISOR: exec_cmd: vm get_status SW2 
Nov 27 16:14:56.817 HYPERVISOR: exec_cmd: nio create_udp udp-4a49594c-99a6-4314-bfd4-7faa5a5c708b 15003 127.0.0.1 15004 
Nov 27 16:14:56.820 HYPERVISOR: exec_cmd: vm slot_add_nio_binding SW2 1 2 udp-4a49594c-99a6-4314-bfd4-7faa5a5c708b 
Nov 27 16:14:56.821 HYPERVISOR: exec_cmd: vm get_status SW2 
Nov 27 16:14:56.841 HYPERVISOR: exec_cmd: nio create_udp udp-826c1734-6c96-4af9-a4c4-250399d3a3ed 15006 127.0.0.1 15002 
Nov 27 16:14:56.841 HYPERVISOR: exec_cmd: vm slot_add_nio_binding SW2 1 1 udp-826c1734-6c96-4af9-a4c4-250399d3a3ed 
Nov 27 16:14:56.842 HYPERVISOR: exec_cmd: vm get_status SW2 
