Jul 15 18:08:44.804 HYPERVISOR: Release 0.2.16-amd64/Linux (tag 2015060118)
Jul 15 18:08:44.804 HYPERVISOR: Started on IP = 127.0.0.1, TCP port = 52829.
Jul 15 18:08:44.808 HYPERVISOR: exec_cmd: hypervisor version 
Jul 15 18:08:44.808 HYPERVISOR: exec_cmd: hypervisor working_dir /media/actionmystique/SAMSUNG-850-Ext4/Labs/GNS3/CCNP/TBSHOOT/L3-Technologies/IPv6/Routing-Protocols/Redistribution/Jean-Christophe_Manciot/1+/TT 1-solutions-linux/project-files/dynamips 
Jul 15 18:08:44.808 GENERAL: working_dir=/media/actionmystique/SAMSUNG-850-Ext4/Labs/GNS3/CCNP/TBSHOOT/L3-Technologies/IPv6/Routing-Protocols/Redistribution/Jean-Christophe_Manciot/1+/TT 1-solutions-linux/project-files/dynamips
Jul 15 18:08:44.809 HYPERVISOR: exec_cmd: vm create ESW5 5 c3725 
Jul 15 18:08:44.809 VM: VM ESW5 created.
Jul 15 18:08:44.809 HYPERVISOR: exec_cmd: vm set_con_tcp_port ESW5 2010 
Jul 15 18:08:44.810 HYPERVISOR: exec_cmd: c3725 get_mac_addr ESW5 
Jul 15 18:08:44.810 HYPERVISOR: exec_cmd: vm set_ios ESW5 /media/actionmystique/SAMSUNG-850-Ext4/Images/GNS3/IOS/c3725-adventerprisek9-mz.124-15.T10.image 
Jul 15 18:08:44.811 HYPERVISOR: exec_cmd: c3725 set_mac_addr ESW5 c205.6a03.0000 
Jul 15 18:08:44.811 HYPERVISOR: exec_cmd: vm set_nvram ESW5 256 
Jul 15 18:08:44.812 HYPERVISOR: exec_cmd: vm set_disk0 ESW5 1 
Jul 15 18:08:44.813 HYPERVISOR: exec_cmd: vm slot_add_binding ESW5 0 16 WIC-2T 
Jul 15 18:08:44.813 HYPERVISOR: exec_cmd: vm get_status ESW5 
Jul 15 18:08:44.815 HYPERVISOR: exec_cmd: vm slot_add_binding ESW5 1 0 NM-16ESW 
Jul 15 18:08:44.817 HYPERVISOR: exec_cmd: vm get_status ESW5 
Jul 15 18:08:44.818 HYPERVISOR: exec_cmd: vm set_idle_pc ESW5 0x6026b804 
Jul 15 18:08:44.819 HYPERVISOR: exec_cmd: vm set_config ESW5 /configs/ios_base_startup-config.txt 
Jul 15 18:55:46.974 HYPERVISOR: exec_cmd: vm get_status ESW5 
Jul 15 18:55:46.976 HYPERVISOR: exec_cmd: vm extract_config ESW5 
Jul 15 18:55:46.981 HYPERVISOR: exec_cmd: hypervisor stop 
Jul 15 18:55:47.242 HYPERVISOR: Stopped.
Jul 15 18:55:47.242 VM: VM ESW5 destroyed.
Jul 15 18:55:47.242 GENERAL: reset done.
