Nov 27 16:19:19.619 HYPERVISOR: Release 0.2.17-amd64/Linux (tag 2017072410)
Nov 27 16:19:19.619 HYPERVISOR: Started on IP = 127.0.0.1, TCP port = 36853.
Nov 27 16:19:19.638 HYPERVISOR: exec_cmd: hypervisor version 
Nov 27 16:19:19.639 HYPERVISOR: exec_cmd: hypervisor working_dir /media/actionmystique/SAMSUNG5-VMs/Labs/GNS3/git-Public-Labs-Collection/CCNP/TBSHOOT/L3-Technologies/IPv4/High-Availability/GLBP/Jean-Christophe_Manciot/1+/TT 2-linux/project-files/dynamips 
Nov 27 16:19:19.639 GENERAL: working_dir=/media/actionmystique/SAMSUNG5-VMs/Labs/GNS3/git-Public-Labs-Collection/CCNP/TBSHOOT/L3-Technologies/IPv4/High-Availability/GLBP/Jean-Christophe_Manciot/1+/TT 2-linux/project-files/dynamips
Nov 27 16:19:19.640 HYPERVISOR: exec_cmd: vm create SW3 3 c3725 
Nov 27 16:19:19.640 VM: VM SW3 created.
Nov 27 16:19:19.641 HYPERVISOR: exec_cmd: vm set_con_tcp_port SW3 2003 
Nov 27 16:19:19.642 HYPERVISOR: exec_cmd: c3725 get_mac_addr SW3 
Nov 27 16:19:19.642 HYPERVISOR: exec_cmd: vm set_nvram SW3 256 
Nov 27 16:19:19.643 HYPERVISOR: exec_cmd: vm get_status SW3 
Nov 27 16:19:19.644 HYPERVISOR: exec_cmd: vm set_idle_pc SW3 0x60c056e4 
Nov 27 16:19:19.645 HYPERVISOR: exec_cmd: c3725 set_mac_addr SW3 cccc.cccc.cccc 
Nov 27 16:19:19.647 HYPERVISOR: exec_cmd: vm set_exec_area SW3 16 
Nov 27 16:19:19.649 HYPERVISOR: exec_cmd: vm get_status SW3 
Nov 27 16:19:19.652 HYPERVISOR: exec_cmd: vm slot_add_binding SW3 1 0 NM-16ESW 
Nov 27 16:19:19.654 HYPERVISOR: exec_cmd: vm set_ios SW3 /media/actionmystique/SAMSUNG5-VMs/Images/GNS3/IOS/c3725-adventerprisek9-mz.124-15.T10.image 
Nov 27 16:19:19.657 HYPERVISOR: exec_cmd: vm slot_add_binding SW3 0 16 WIC-2T 
Nov 27 16:19:19.658 HYPERVISOR: exec_cmd: vm set_disk0 SW3 1 
Nov 27 16:19:19.659 HYPERVISOR: exec_cmd: vm set_config SW3 configs/i3_startup-config.cfg 
Nov 27 16:19:19.661 HYPERVISOR: exec_cmd: vm set_config SW3 configs/i3_startup-config.cfg configs/i3_private-config.cfg 
Nov 27 16:19:19.882 HYPERVISOR: exec_cmd: nio create_udp udp-be8253de-0848-43fc-9495-53b724a695d7 15002 127.0.0.1 15001 
Nov 27 16:19:19.886 HYPERVISOR: exec_cmd: vm slot_add_nio_binding SW3 1 6 udp-be8253de-0848-43fc-9495-53b724a695d7 
Nov 27 16:19:19.886 HYPERVISOR: exec_cmd: vm get_status SW3 
Nov 27 16:19:19.900 HYPERVISOR: exec_cmd: nio create_udp udp-8501b1b8-e0fc-4d3c-91eb-a0d686fca90f 15000 127.0.0.1 15004 
Nov 27 16:19:19.902 HYPERVISOR: exec_cmd: vm slot_add_nio_binding SW3 1 5 udp-8501b1b8-e0fc-4d3c-91eb-a0d686fca90f 
Nov 27 16:19:19.903 HYPERVISOR: exec_cmd: vm get_status SW3 
Nov 27 16:19:19.937 HYPERVISOR: exec_cmd: nio create_udp udp-1419be52-f33a-4327-94cb-56eb16c72b45 15003 127.0.0.1 15007 
Nov 27 16:19:19.940 HYPERVISOR: exec_cmd: vm slot_add_nio_binding SW3 1 1 udp-1419be52-f33a-4327-94cb-56eb16c72b45 
Nov 27 16:19:19.941 HYPERVISOR: exec_cmd: vm get_status SW3 
Nov 27 16:19:20.021 HYPERVISOR: exec_cmd: nio create_udp udp-e6506d74-8744-43a5-8d27-4b3938dfd986 15014 127.0.0.1 15015 
Nov 27 16:19:20.021 HYPERVISOR: exec_cmd: vm slot_add_nio_binding SW3 1 2 udp-e6506d74-8744-43a5-8d27-4b3938dfd986 
Nov 27 16:19:20.021 HYPERVISOR: exec_cmd: vm get_status SW3 
