Nov 27 16:19:19.621 HYPERVISOR: Release 0.2.17-amd64/Linux (tag 2017072410)
Nov 27 16:19:19.621 HYPERVISOR: Started on IP = 127.0.0.1, TCP port = 42739.
Nov 27 16:19:19.638 HYPERVISOR: exec_cmd: hypervisor version 
Nov 27 16:19:19.639 HYPERVISOR: exec_cmd: hypervisor working_dir /media/actionmystique/SAMSUNG5-VMs/Labs/GNS3/git-Public-Labs-Collection/CCNP/TBSHOOT/L3-Technologies/IPv4/High-Availability/GLBP/Jean-Christophe_Manciot/1+/TT 2-linux/project-files/dynamips 
Nov 27 16:19:19.639 GENERAL: working_dir=/media/actionmystique/SAMSUNG5-VMs/Labs/GNS3/git-Public-Labs-Collection/CCNP/TBSHOOT/L3-Technologies/IPv4/High-Availability/GLBP/Jean-Christophe_Manciot/1+/TT 2-linux/project-files/dynamips
Nov 27 16:19:19.640 HYPERVISOR: exec_cmd: vm create SW1 1 c3725 
Nov 27 16:19:19.640 VM: VM SW1 created.
Nov 27 16:19:19.641 HYPERVISOR: exec_cmd: vm set_con_tcp_port SW1 2001 
Nov 27 16:19:19.642 HYPERVISOR: exec_cmd: c3725 get_mac_addr SW1 
Nov 27 16:19:19.643 HYPERVISOR: exec_cmd: vm set_nvram SW1 256 
Nov 27 16:19:19.644 HYPERVISOR: exec_cmd: vm get_status SW1 
Nov 27 16:19:19.645 HYPERVISOR: exec_cmd: vm set_idle_pc SW1 0x60c056e4 
Nov 27 16:19:19.646 HYPERVISOR: exec_cmd: c3725 set_mac_addr SW1 aaaa.aaaa.aaaa 
Nov 27 16:19:19.647 HYPERVISOR: exec_cmd: vm set_exec_area SW1 16 
Nov 27 16:19:19.650 HYPERVISOR: exec_cmd: vm get_status SW1 
Nov 27 16:19:19.652 HYPERVISOR: exec_cmd: vm slot_add_binding SW1 1 0 NM-16ESW 
Nov 27 16:19:19.655 HYPERVISOR: exec_cmd: vm set_ios SW1 /media/actionmystique/SAMSUNG5-VMs/Images/GNS3/IOS/c3725-adventerprisek9-mz.124-15.T10.image 
Nov 27 16:19:19.657 HYPERVISOR: exec_cmd: vm slot_add_binding SW1 0 16 WIC-2T 
Nov 27 16:19:19.659 HYPERVISOR: exec_cmd: vm set_disk0 SW1 1 
Nov 27 16:19:19.660 HYPERVISOR: exec_cmd: vm set_config SW1 configs/i1_startup-config.cfg 
Nov 27 16:19:19.661 HYPERVISOR: exec_cmd: vm set_config SW1 configs/i1_startup-config.cfg configs/i1_private-config.cfg 
Nov 27 16:19:19.885 HYPERVISOR: exec_cmd: nio create_udp udp-6823e959-5f0c-4ae4-a4d8-6cae49ed249f 15001 127.0.0.1 15002 
Nov 27 16:19:19.886 HYPERVISOR: exec_cmd: vm slot_add_nio_binding SW1 1 6 udp-6823e959-5f0c-4ae4-a4d8-6cae49ed249f 
Nov 27 16:19:19.887 HYPERVISOR: exec_cmd: vm get_status SW1 
Nov 27 16:19:19.895 HYPERVISOR: exec_cmd: nio create_udp udp-dea93816-9f4b-4a84-a384-df6fabe4741d 15004 127.0.0.1 15000 
Nov 27 16:19:19.902 HYPERVISOR: exec_cmd: vm slot_add_nio_binding SW1 1 5 udp-dea93816-9f4b-4a84-a384-df6fabe4741d 
Nov 27 16:19:19.902 HYPERVISOR: exec_cmd: vm get_status SW1 
Nov 27 16:19:19.921 HYPERVISOR: exec_cmd: nio create_udp udp-85d8ac56-efa7-49fc-b147-dc9944771959 15006 127.0.0.1 15005 
Nov 27 16:19:19.921 HYPERVISOR: exec_cmd: vm slot_add_nio_binding SW1 1 0 udp-85d8ac56-efa7-49fc-b147-dc9944771959 
Nov 27 16:19:19.922 HYPERVISOR: exec_cmd: vm get_status SW1 
Nov 27 16:19:19.985 HYPERVISOR: exec_cmd: nio create_udp udp-113b2772-eaee-4cc9-8589-aab6f3017f60 15012 127.0.0.1 15011 
Nov 27 16:19:19.985 HYPERVISOR: exec_cmd: vm slot_add_nio_binding SW1 1 1 udp-113b2772-eaee-4cc9-8589-aab6f3017f60 
Nov 27 16:19:19.986 HYPERVISOR: exec_cmd: vm get_status SW1 
