Dec 04 11:20:04.259 HYPERVISOR: Release 0.2.17-amd64/Linux (tag 2017072410)
Dec 04 11:20:04.260 HYPERVISOR: Started on IP = 127.0.0.1, TCP port = 39741.
Dec 04 11:20:04.290 HYPERVISOR: exec_cmd: hypervisor version 
Dec 04 11:20:04.291 HYPERVISOR: exec_cmd: hypervisor working_dir /media/actionmystique/SAMSUNG5-VMs/Labs/GNS3/Data Center ASA - ASDM - AAA - VMs-linux-/project-files/dynamips 
Dec 04 11:20:04.291 GENERAL: working_dir=/media/actionmystique/SAMSUNG5-VMs/Labs/GNS3/Data Center ASA - ASDM - AAA - VMs-linux-/project-files/dynamips
Dec 04 11:20:04.292 HYPERVISOR: exec_cmd: vm create SW0_VirtualBox 13 c3725 
Dec 04 11:20:04.292 VM: VM SW0_VirtualBox created.
Dec 04 11:20:04.297 HYPERVISOR: exec_cmd: vm set_con_tcp_port SW0_VirtualBox 2114 
Dec 04 11:20:04.298 HYPERVISOR: exec_cmd: vm set_aux_tcp_port SW0_VirtualBox 2514 
Dec 04 11:20:04.299 HYPERVISOR: exec_cmd: c3725 get_mac_addr SW0_VirtualBox 
Dec 04 11:20:04.300 HYPERVISOR: exec_cmd: vm get_status SW0_VirtualBox 
Dec 04 11:20:04.301 HYPERVISOR: exec_cmd: vm slot_add_binding SW0_VirtualBox 1 0 NM-16ESW 
Dec 04 11:20:04.303 HYPERVISOR: exec_cmd: vm set_ios SW0_VirtualBox /media/actionmystique/SAMSUNG5-VMs/Images/GNS3/IOS/c3725-adventerprisek9-mz.124-15.T10.image 
Dec 04 11:20:04.307 HYPERVISOR: exec_cmd: vm set_exec_area SW0_VirtualBox 16 
Dec 04 11:20:04.308 HYPERVISOR: exec_cmd: c3725 set_mac_addr SW0_VirtualBox c20d.09c0.0000 
Dec 04 11:20:04.308 HYPERVISOR: exec_cmd: vm get_status SW0_VirtualBox 
Dec 04 11:20:04.308 HYPERVISOR: exec_cmd: vm set_idle_pc SW0_VirtualBox 0x602649b4 
Dec 04 11:20:04.309 HYPERVISOR: exec_cmd: vm set_config SW0_VirtualBox configs/i13_startup-config.cfg 
Dec 04 11:20:05.899 HYPERVISOR: exec_cmd: nio create_udp udp-bea00d01-2f46-4a34-91ce-3a070ae46057 15068 127.0.0.1 15069 
Dec 04 11:20:05.904 HYPERVISOR: exec_cmd: vm slot_add_nio_binding SW0_VirtualBox 1 0 udp-bea00d01-2f46-4a34-91ce-3a070ae46057 
Dec 04 11:20:05.910 HYPERVISOR: exec_cmd: vm get_status SW0_VirtualBox 
Dec 04 11:20:55.986 HYPERVISOR: exec_cmd: vm get_status SW0_VirtualBox 
Dec 04 11:20:55.992 HYPERVISOR: exec_cmd: vm extract_config SW0_VirtualBox 
Dec 04 11:20:55.997 HYPERVISOR: exec_cmd: vm delete SW0_VirtualBox 
Dec 04 11:20:55.997 VM: VM SW0_VirtualBox destroyed.
Dec 04 11:20:56.005 HYPERVISOR: exec_cmd: hypervisor stop 
Dec 04 11:20:56.345 HYPERVISOR: Stopped.
Dec 04 11:20:56.345 GENERAL: reset done.
