autostart = False
version = 0.8.4-RC3
[127.0.0.1:7200]
    workingdir = working
    udp = 11000
    [[3725]]
        image = C:\Users\ActionMystique\Google Drive\Missions\Certifications\Cisco\IOS\Binaries\c3725-adventerprisek9-mz.124-15.T5.image
        ram = 128
        idlepc = 0x602649b4
        idlemax = 500
        sparsemem = True
        ghostios = True
    [[ROUTER ALS1]]
        model = 3725
        console = 2004
        aux = 2504
        cnfg = configs\ALS1.cfg
        slot1 = NM-16ESW
        f1/6 = NIO_udp:30000:127.0.0.1:20000
        f1/7 = DLS1 f1/7
        f1/8 = DLS1 f1/8
        f1/11 = ALS2 f1/11
        f1/12 = ALS2 f1/12
        symbol = EtherSwitch router
        x = -191.978044441
        y = 90.022248372
        z = 1.0
        hx = 6.13558864609
        hy = 47.173714519
[127.0.0.1:7201]
    workingdir = working
    udp = 11100
    [[3725]]
        image = C:\Users\ActionMystique\Google Drive\Missions\Certifications\Cisco\IOS\Binaries\c3725-adventerprisek9-mz.124-15.T5.image
        ram = 128
        idlepc = 0x602649b4
        idlemax = 500
        sparsemem = True
        ghostios = True
    [[ROUTER ALS2]]
        model = 3725
        console = 2007
        aux = 2507
        cnfg = configs\ALS2.cfg
        slot1 = NM-16ESW
        f1/6 = NIO_udp:30001:127.0.0.1:20001
        f1/9 = DLS1 f1/9
        f1/10 = DLS1 f1/10
        f1/11 = ALS1 f1/11
        f1/12 = ALS1 f1/12
        symbol = EtherSwitch router
        x = 111.630854907
        y = 89.7207731306
        z = 1.0
        hx = 5.0
        hy = 45.0960307126
[127.0.0.1:7205]
    workingdir = working
    udp = 11500
    [[3725]]
        image = C:\Users\ActionMystique\Google Drive\Missions\Certifications\Cisco\IOS\Binaries\c3725-adventerprisek9-mz.124-15.T5.image
        ram = 128
        idlepc = 0x602649b4
        idlemax = 500
        sparsemem = True
        ghostios = True
    [[ROUTER DLS1]]
        model = 3725
        console = 2125
        aux = 2525
        cnfg = configs\DLS1.cfg
        slot1 = NM-16ESW
        f1/7 = ALS1 f1/7
        f1/8 = ALS1 f1/8
        f1/9 = ALS2 f1/9
        f1/10 = ALS2 f1/10
        symbol = EtherSwitch router
        x = -191.15271286
        y = -146.109094558
        z = 1.0
[GNS3-DATA]
    configs = configs
    workdir = working
    m11 = 0.766664172334
    m22 = 0.766664172334
    [[NOTE 1]]
        text = "        All\nEtherChannel\n     802.1Q"
        x = -116.087334209
        y = 2.34845839496
        color = "#0055ff"
    [[NOTE 2]]
        text = "VLAN 1:     172.16.1.1/24\nVLAN 100: 172.16.100.1/24\nVLAN 200: 172.16.200.1/24"
        x = -134.348263186
        y = -181.56576907
    [[NOTE 3]]
        text = "VLAN 1:172.16.1.101/24"
        x = -242.609484976
        y = 154.522541186
        color = "#0055ff"
    [[NOTE 4]]
        text = "4-2 Inter-VLAN Routing with an Internal Route Processor and Monitoring CEF Functions"
        x = -584.472303914
        y = -498.530709063
        font = "MS Shell Dlg 2,20,-1,5,75,0,1,0,0,0"
        color = "#0055ff"
    [[NOTE 5]]
        text = "0: 2 VPCS hosts are used in this lab.\n1: Configure the hosts: Tools -> VPCS-> 1 -> ip <addr> </mask> <gateway>\n                                                                  2 -> ip <addr> </mask> <gateway>\n2: Configure the switches.\n3: Configure trunk links and EtherChannel on switches.\n4: Configure VTP version, domain and modes (client on ALS1 & ALS2, server on DLS1).\n5: Configure VLANs and switch access ports.\n6: Enable routing on DLS1.\n7: Verify inter-VLAN routing by the internal route processor.\n8: Examine the CEF configuration."
        x = -821.741803954
        y = -458.088407861
    [[NOTE 6]]
        text = "         Finance\n       VLAN 100\n172.16.100.101/24"
        x = -382.175156441
        y = 144.087529419
        color = "#0055ff"
    [[NOTE 7]]
        text = "      Engineering\n       VLAN 200\n172.16.200.101/24"
        x = 234.783372558
        y = 142.348458395
        color = "#0055ff"
    [[NOTE 8]]
        text = "VLAN 1:172.16.1.102/24"
        x = 63.9132514186
        y = 151.04420393
        color = "#0055ff"
    [[Cloud VPCS-1]]
        symbol = Host
        x = -349.457552953
        y = 83.9786300697
        z = 1.0
        connections = ALS1:f1/6:NIO_udp:30000:127.0.0.1:20000
    [[Cloud VPCS-2]]
        symbol = Host
        x = 267.500976046
        y = 84.6308061046
        z = 1.0
        connections = ALS2:f1/6:NIO_udp:30001:127.0.0.1:20001
