Nov 27 16:13:47.644 HYPERVISOR: Release 0.2.17-amd64/Linux (tag 2017072410)
Nov 27 16:13:47.644 HYPERVISOR: Started on IP = 127.0.0.1, TCP port = 41307.
Nov 27 16:13:47.676 HYPERVISOR: exec_cmd: hypervisor version 
Nov 27 16:13:47.677 HYPERVISOR: exec_cmd: hypervisor working_dir /media/actionmystique/SAMSUNG5-VMs/Labs/GNS3/TT 1-linux-/project-files/dynamips 
Nov 27 16:13:47.677 GENERAL: working_dir=/media/actionmystique/SAMSUNG5-VMs/Labs/GNS3/TT 1-linux-/project-files/dynamips
Nov 27 16:13:47.678 HYPERVISOR: exec_cmd: vm create SW3 3 c3725 
Nov 27 16:13:47.678 VM: VM SW3 created.
Nov 27 16:13:47.679 HYPERVISOR: exec_cmd: vm set_con_tcp_port SW3 2003 
Nov 27 16:13:47.680 HYPERVISOR: exec_cmd: c3725 get_mac_addr SW3 
Nov 27 16:13:47.680 HYPERVISOR: exec_cmd: vm set_nvram SW3 256 
Nov 27 16:13:47.681 HYPERVISOR: exec_cmd: vm get_status SW3 
Nov 27 16:13:47.682 HYPERVISOR: exec_cmd: vm set_idle_pc SW3 0x614ac2c4 
Nov 27 16:13:47.683 HYPERVISOR: exec_cmd: c3725 set_mac_addr SW3 cccc.cccc.cccc 
Nov 27 16:13:47.684 HYPERVISOR: exec_cmd: vm set_exec_area SW3 16 
Nov 27 16:13:47.685 HYPERVISOR: exec_cmd: vm get_status SW3 
Nov 27 16:13:47.686 HYPERVISOR: exec_cmd: vm slot_add_binding SW3 1 0 NM-16ESW 
Nov 27 16:13:47.687 HYPERVISOR: exec_cmd: vm set_disk0 SW3 1 
Nov 27 16:13:47.688 HYPERVISOR: exec_cmd: vm set_ios SW3 /media/actionmystique/SAMSUNG5-VMs/Images/GNS3/IOS/c3725-adventerprisek9-mz.124-15.T10.image 
Nov 27 16:13:47.689 HYPERVISOR: exec_cmd: vm slot_add_binding SW3 0 16 WIC-2T 
Nov 27 16:13:47.690 HYPERVISOR: exec_cmd: vm set_config SW3 configs/i3_startup-config.cfg 
Nov 27 16:13:47.691 HYPERVISOR: exec_cmd: vm set_config SW3 configs/i3_startup-config.cfg configs/i3_private-config.cfg 
Nov 27 16:13:47.789 HYPERVISOR: exec_cmd: nio create_null null-12c4826a-d317-4eec-87d2-e0a3acbaaefb 
Nov 27 16:13:47.790 HYPERVISOR: exec_cmd: vm slot_add_nio_binding SW3 1 0 null-12c4826a-d317-4eec-87d2-e0a3acbaaefb 
Nov 27 16:13:47.791 HYPERVISOR: exec_cmd: vm get_status SW3 
Nov 27 16:13:47.853 HYPERVISOR: exec_cmd: nio create_udp udp-2c16b2dd-a846-4c36-a8de-0fa0c5590c09 15001 127.0.0.1 15002 
Nov 27 16:13:47.853 HYPERVISOR: exec_cmd: vm slot_add_nio_binding SW3 1 2 udp-2c16b2dd-a846-4c36-a8de-0fa0c5590c09 
Nov 27 16:13:47.854 HYPERVISOR: exec_cmd: vm get_status SW3 
Nov 27 16:13:47.901 HYPERVISOR: exec_cmd: nio create_udp udp-62f528ef-b406-419b-b898-35867de064c8 15004 127.0.0.1 15005 
Nov 27 16:13:47.902 HYPERVISOR: exec_cmd: vm slot_add_nio_binding SW3 1 5 udp-62f528ef-b406-419b-b898-35867de064c8 
Nov 27 16:13:47.909 HYPERVISOR: exec_cmd: vm get_status SW3 
Nov 27 16:13:47.940 HYPERVISOR: exec_cmd: nio create_udp udp-d4f6d012-d298-4bfe-b342-c1dc49644982 15008 127.0.0.1 15006 
Nov 27 16:13:47.941 HYPERVISOR: exec_cmd: vm slot_add_nio_binding SW3 1 6 udp-d4f6d012-d298-4bfe-b342-c1dc49644982 
Nov 27 16:13:47.941 HYPERVISOR: exec_cmd: vm get_status SW3 
Nov 27 16:14:00.101 HYPERVISOR: exec_cmd: vm get_status SW3 
Nov 27 16:14:00.102 HYPERVISOR: exec_cmd: vm extract_config SW3 
Nov 27 16:14:00.105 HYPERVISOR: exec_cmd: vm delete SW3 
Nov 27 16:14:00.105 VM: VM SW3 destroyed.
Nov 27 16:14:00.106 HYPERVISOR: exec_cmd: hypervisor stop 
Nov 27 16:14:00.187 HYPERVISOR: Stopped.
Nov 27 16:14:00.187 GENERAL: reset done.
