Nov 27 16:17:05.126 HYPERVISOR: Release 0.2.17-amd64/Linux (tag 2017072410)
Nov 27 16:17:05.126 HYPERVISOR: Started on IP = 127.0.0.1, TCP port = 37147.
Nov 27 16:17:05.166 HYPERVISOR: exec_cmd: hypervisor version 
Nov 27 16:17:05.166 HYPERVISOR: exec_cmd: hypervisor working_dir /media/actionmystique/SAMSUNG5-VMs/Labs/GNS3/TT 1-linux-/project-files/dynamips 
Nov 27 16:17:05.166 GENERAL: working_dir=/media/actionmystique/SAMSUNG5-VMs/Labs/GNS3/TT 1-linux-/project-files/dynamips
Nov 27 16:17:05.167 HYPERVISOR: exec_cmd: vm create ESW1 1 c3725 
Nov 27 16:17:05.167 VM: VM ESW1 created.
Nov 27 16:17:05.167 HYPERVISOR: exec_cmd: vm set_con_tcp_port ESW1 2004 
Nov 27 16:17:05.167 HYPERVISOR: exec_cmd: c3725 get_mac_addr ESW1 
Nov 27 16:17:05.168 HYPERVISOR: exec_cmd: vm set_nvram ESW1 256 
Nov 27 16:17:05.168 HYPERVISOR: exec_cmd: vm get_status ESW1 
Nov 27 16:17:05.168 HYPERVISOR: exec_cmd: vm set_idle_pc ESW1 0x60c06d20 
Nov 27 16:17:05.169 HYPERVISOR: exec_cmd: c3725 set_mac_addr ESW1 c201.1b91.0000 
Nov 27 16:17:05.169 HYPERVISOR: exec_cmd: vm get_status ESW1 
Nov 27 16:17:05.170 HYPERVISOR: exec_cmd: vm slot_add_binding ESW1 1 0 NM-16ESW 
Nov 27 16:17:05.170 HYPERVISOR: exec_cmd: vm set_disk0 ESW1 1 
Nov 27 16:17:05.171 HYPERVISOR: exec_cmd: vm set_ios ESW1 /media/actionmystique/SAMSUNG5-VMs/Images/GNS3/IOS/c3725-adventerprisek9-mz.124-15.T10.image 
Nov 27 16:17:05.172 HYPERVISOR: exec_cmd: vm slot_add_binding ESW1 0 16 WIC-2T 
Nov 27 16:17:05.172 HYPERVISOR: exec_cmd: vm set_config ESW1 configs/ios_base_startup-config.txt 
Nov 27 16:17:05.173 HYPERVISOR: exec_cmd: vm set_config ESW1 configs/ios_base_startup-config.txt configs/ios_base_private-config.txt 
Nov 27 16:17:05.516 HYPERVISOR: exec_cmd: nio create_udp udp-fe88aedd-12f3-4b05-b7cc-deab8e04273c 15008 127.0.0.1 15007 
Nov 27 16:17:05.520 HYPERVISOR: exec_cmd: vm slot_add_nio_binding ESW1 1 0 udp-fe88aedd-12f3-4b05-b7cc-deab8e04273c 
Nov 27 16:17:05.521 HYPERVISOR: exec_cmd: vm get_status ESW1 
Nov 27 16:17:05.557 HYPERVISOR: exec_cmd: nio create_udp udp-98d20b6d-64bb-4d52-876a-eccf21c84474 15009 127.0.0.1 15006 
Nov 27 16:17:05.557 HYPERVISOR: exec_cmd: vm slot_add_nio_binding ESW1 1 1 udp-98d20b6d-64bb-4d52-876a-eccf21c84474 
Nov 27 16:17:05.557 HYPERVISOR: exec_cmd: vm get_status ESW1 
Nov 27 16:17:23.668 HYPERVISOR: exec_cmd: vm get_status ESW1 
Nov 27 16:17:23.670 HYPERVISOR: exec_cmd: vm extract_config ESW1 
Nov 27 16:17:23.673 HYPERVISOR: exec_cmd: vm delete ESW1 
Nov 27 16:17:23.673 VM: VM ESW1 destroyed.
Nov 27 16:17:23.675 HYPERVISOR: exec_cmd: hypervisor stop 
Nov 27 16:17:23.684 HYPERVISOR: Stopped.
Nov 27 16:17:23.684 GENERAL: reset done.
