Nov 29 15:29:52.461 HYPERVISOR: Release 0.2.17-amd64/Linux (tag 2017072410)
Nov 29 15:29:52.461 HYPERVISOR: Started on IP = 127.0.0.1, TCP port = 55763.
Nov 29 15:29:52.495 HYPERVISOR: exec_cmd: hypervisor version 
Nov 29 15:29:52.503 HYPERVISOR: exec_cmd: hypervisor working_dir /media/actionmystique/SAMSUNG5-VMs/Labs/GNS3/TT 4-solutions-linux-/project-files/dynamips 
Nov 29 15:29:52.504 GENERAL: working_dir=/media/actionmystique/SAMSUNG5-VMs/Labs/GNS3/TT 4-solutions-linux-/project-files/dynamips
Nov 29 15:29:52.506 HYPERVISOR: exec_cmd: vm create ESW3 3 c3725 
Nov 29 15:29:52.506 VM: VM ESW3 created.
Nov 29 15:29:52.507 HYPERVISOR: exec_cmd: vm set_con_tcp_port ESW3 2006 
Nov 29 15:29:52.509 HYPERVISOR: exec_cmd: c3725 get_mac_addr ESW3 
Nov 29 15:29:52.510 HYPERVISOR: exec_cmd: vm set_nvram ESW3 256 
Nov 29 15:29:52.515 HYPERVISOR: exec_cmd: vm slot_add_binding ESW3 0 16 WIC-2T 
Nov 29 15:29:52.516 HYPERVISOR: exec_cmd: c3725 set_mac_addr ESW3 c203.1bfb.0000 
Nov 29 15:29:52.546 HYPERVISOR: exec_cmd: vm set_disk0 ESW3 1 
Nov 29 15:29:52.557 HYPERVISOR: exec_cmd: vm set_ios ESW3 /media/actionmystique/SAMSUNG5-VMs/Images/GNS3/IOS/c3725-adventerprisek9-mz.124-15.T10.image 
Nov 29 15:29:52.560 HYPERVISOR: exec_cmd: vm get_status ESW3 
Nov 29 15:29:52.561 HYPERVISOR: exec_cmd: vm set_idle_pc ESW3 0x6026b804 
Nov 29 15:29:52.562 HYPERVISOR: exec_cmd: vm get_status ESW3 
Nov 29 15:29:52.564 HYPERVISOR: exec_cmd: vm slot_add_binding ESW3 1 0 NM-16ESW 
Nov 29 15:29:52.565 HYPERVISOR: exec_cmd: vm set_config ESW3 configs/ios_base_startup-config.txt 
Nov 29 15:29:52.566 HYPERVISOR: exec_cmd: vm set_config ESW3 configs/ios_base_startup-config.txt configs/ios_base_private-config.txt 
Nov 29 15:29:52.757 HYPERVISOR: exec_cmd: nio create_tap tap-aa3a1bce-bf56-456d-8e3d-bde0f3663059 tap0 
Nov 29 15:29:52.758 HYPERVISOR: exec_cmd: vm slot_add_nio_binding ESW3 1 1 tap-aa3a1bce-bf56-456d-8e3d-bde0f3663059 
Nov 29 15:29:52.758 HYPERVISOR: exec_cmd: vm get_status ESW3 
Nov 29 15:29:53.097 HYPERVISOR: exec_cmd: nio create_udp udp-f345d6af-5eaf-436b-ad31-986c0be02628 15007 127.0.0.1 15005 
Nov 29 15:29:53.098 HYPERVISOR: exec_cmd: vm slot_add_nio_binding ESW3 1 0 udp-f345d6af-5eaf-436b-ad31-986c0be02628 
Nov 29 15:29:53.098 HYPERVISOR: exec_cmd: vm get_status ESW3 
Nov 29 15:30:03.908 HYPERVISOR: exec_cmd: vm get_status ESW3 
Nov 29 15:30:03.912 HYPERVISOR: exec_cmd: vm extract_config ESW3 
Nov 29 15:30:03.914 HYPERVISOR: exec_cmd: vm delete ESW3 
Nov 29 15:30:03.915 VM: VM ESW3 destroyed.
Nov 29 15:30:03.918 HYPERVISOR: exec_cmd: hypervisor stop 
Nov 29 15:30:03.988 HYPERVISOR: Stopped.
Nov 29 15:30:03.988 GENERAL: reset done.
