Nov 29 15:29:52.666 HYPERVISOR: Release 0.2.17-amd64/Linux (tag 2017072410)
Nov 29 15:29:52.666 HYPERVISOR: Started on IP = 127.0.0.1, TCP port = 36901.
Nov 29 15:29:52.681 HYPERVISOR: exec_cmd: hypervisor version 
Nov 29 15:29:52.682 HYPERVISOR: exec_cmd: hypervisor working_dir /media/actionmystique/SAMSUNG5-VMs/Labs/GNS3/TT 4-solutions-linux-/project-files/dynamips 
Nov 29 15:29:52.682 GENERAL: working_dir=/media/actionmystique/SAMSUNG5-VMs/Labs/GNS3/TT 4-solutions-linux-/project-files/dynamips
Nov 29 15:29:52.682 HYPERVISOR: exec_cmd: vm create ESW8 8 c3725 
Nov 29 15:29:52.683 VM: VM ESW8 created.
Nov 29 15:29:52.687 HYPERVISOR: exec_cmd: vm set_con_tcp_port ESW8 2020 
Nov 29 15:29:52.689 HYPERVISOR: exec_cmd: c3725 get_mac_addr ESW8 
Nov 29 15:29:52.690 HYPERVISOR: exec_cmd: vm set_nvram ESW8 256 
Nov 29 15:29:52.690 HYPERVISOR: exec_cmd: vm slot_add_binding ESW8 0 16 WIC-2T 
Nov 29 15:29:52.691 HYPERVISOR: exec_cmd: c3725 set_mac_addr ESW8 c208.2754.0000 
Nov 29 15:29:52.691 HYPERVISOR: exec_cmd: vm set_disk0 ESW8 1 
Nov 29 15:29:52.692 HYPERVISOR: exec_cmd: vm set_ios ESW8 /media/actionmystique/SAMSUNG5-VMs/Images/GNS3/IOS/c3725-adventerprisek9-mz.124-15.T10.image 
Nov 29 15:29:52.692 HYPERVISOR: exec_cmd: vm get_status ESW8 
Nov 29 15:29:52.692 HYPERVISOR: exec_cmd: vm set_idle_pc ESW8 0x6026b804 
Nov 29 15:29:52.693 HYPERVISOR: exec_cmd: vm get_status ESW8 
Nov 29 15:29:52.693 HYPERVISOR: exec_cmd: vm slot_add_binding ESW8 1 0 NM-16ESW 
Nov 29 15:29:52.693 HYPERVISOR: exec_cmd: vm set_config ESW8 configs/i8_startup-config.cfg 
Nov 29 15:29:53.389 HYPERVISOR: exec_cmd: nio create_udp udp-73aeeb3a-c813-4ee9-845c-cae84a85d376 15035 127.0.0.1 15034 
Nov 29 15:29:53.389 HYPERVISOR: exec_cmd: vm slot_add_nio_binding ESW8 1 1 udp-73aeeb3a-c813-4ee9-845c-cae84a85d376 
Nov 29 15:29:53.389 HYPERVISOR: exec_cmd: vm get_status ESW8 
Nov 29 15:29:53.404 HYPERVISOR: exec_cmd: nio create_udp udp-64907c2f-2df7-4309-a03c-1a36c637072c 15037 127.0.0.1 15036 
Nov 29 15:29:53.405 HYPERVISOR: exec_cmd: vm slot_add_nio_binding ESW8 1 0 udp-64907c2f-2df7-4309-a03c-1a36c637072c 
Nov 29 15:29:53.405 HYPERVISOR: exec_cmd: vm get_status ESW8 
Nov 29 15:30:03.908 HYPERVISOR: exec_cmd: vm get_status ESW8 
Nov 29 15:30:03.912 HYPERVISOR: exec_cmd: vm extract_config ESW8 
Nov 29 15:30:03.917 HYPERVISOR: exec_cmd: vm delete ESW8 
Nov 29 15:30:03.917 VM: VM ESW8 destroyed.
Nov 29 15:30:03.919 HYPERVISOR: exec_cmd: hypervisor stop 
Nov 29 15:30:04.192 HYPERVISOR: Stopped.
Nov 29 15:30:04.192 GENERAL: reset done.
