Nov 26 20:48:29.759 HYPERVISOR: Release 0.2.17-amd64/Linux (tag 2017072410)
Nov 26 20:48:29.759 HYPERVISOR: Started on IP = 127.0.0.1, TCP port = 33979.
Nov 26 20:48:29.768 HYPERVISOR: exec_cmd: hypervisor version 
Nov 26 20:48:29.771 HYPERVISOR: exec_cmd: hypervisor working_dir /media/actionmystique/SAMSUNG5-VMs/Labs/GNS3/Multi-Areas/project-files/dynamips 
Nov 26 20:48:29.771 GENERAL: working_dir=/media/actionmystique/SAMSUNG5-VMs/Labs/GNS3/Multi-Areas/project-files/dynamips
Nov 26 20:48:29.773 HYPERVISOR: exec_cmd: frsw create FR1 
Nov 26 20:48:30.861 HYPERVISOR: exec_cmd: nio create_udp udp-a66f0c93-b29e-4c5d-b653-67e11dae0556 15003 127.0.0.1 15000 
Nov 26 20:48:30.883 HYPERVISOR: exec_cmd: nio create_udp udp-dc909ffc-b795-4d69-87bb-b4caf735c965 15005 127.0.0.1 15001 
Nov 26 20:48:30.884 HYPERVISOR: exec_cmd: frsw create_vc FR1 udp-dc909ffc-b795-4d69-87bb-b4caf735c965 203 udp-a66f0c93-b29e-4c5d-b653-67e11dae0556 302 
Nov 26 20:48:30.904 HYPERVISOR: exec_cmd: frsw create_vc FR1 udp-a66f0c93-b29e-4c5d-b653-67e11dae0556 302 udp-dc909ffc-b795-4d69-87bb-b4caf735c965 203 
Nov 26 20:48:30.928 HYPERVISOR: exec_cmd: nio create_udp udp-96bb5745-cee6-4058-a3b4-3889286c0f24 15006 127.0.0.1 15007 
Nov 26 20:48:30.932 HYPERVISOR: exec_cmd: frsw create_vc FR1 udp-96bb5745-cee6-4058-a3b4-3889286c0f24 103 udp-a66f0c93-b29e-4c5d-b653-67e11dae0556 301 
Nov 26 20:48:30.944 HYPERVISOR: exec_cmd: frsw create_vc FR1 udp-a66f0c93-b29e-4c5d-b653-67e11dae0556 301 udp-96bb5745-cee6-4058-a3b4-3889286c0f24 103 
Nov 26 20:48:30.970 HYPERVISOR: exec_cmd: nio create_udp udp-e51406e0-41a5-43b8-9ebc-df912f3eaacd 15011 127.0.0.1 15010 
Nov 26 20:48:30.971 HYPERVISOR: exec_cmd: frsw create_vc FR1 udp-e51406e0-41a5-43b8-9ebc-df912f3eaacd 402 udp-dc909ffc-b795-4d69-87bb-b4caf735c965 204 
Nov 26 20:48:30.984 HYPERVISOR: exec_cmd: frsw create_vc FR1 udp-dc909ffc-b795-4d69-87bb-b4caf735c965 204 udp-e51406e0-41a5-43b8-9ebc-df912f3eaacd 402 
Nov 26 20:48:31.005 HYPERVISOR: exec_cmd: frsw create_vc FR1 udp-e51406e0-41a5-43b8-9ebc-df912f3eaacd 401 udp-96bb5745-cee6-4058-a3b4-3889286c0f24 104 
Nov 26 20:48:31.025 HYPERVISOR: exec_cmd: frsw create_vc FR1 udp-96bb5745-cee6-4058-a3b4-3889286c0f24 104 udp-e51406e0-41a5-43b8-9ebc-df912f3eaacd 401 
Nov 26 20:48:31.049 HYPERVISOR: exec_cmd: nio create_udp udp-442c5415-e523-458a-b9b7-790d8f84c54a 15013 127.0.0.1 15012 
Nov 26 20:48:31.051 HYPERVISOR: exec_cmd: frsw create_vc FR1 udp-442c5415-e523-458a-b9b7-790d8f84c54a 502 udp-dc909ffc-b795-4d69-87bb-b4caf735c965 205 
Nov 26 20:48:31.068 HYPERVISOR: exec_cmd: frsw create_vc FR1 udp-dc909ffc-b795-4d69-87bb-b4caf735c965 205 udp-442c5415-e523-458a-b9b7-790d8f84c54a 502 
Nov 26 20:48:31.085 HYPERVISOR: exec_cmd: frsw create_vc FR1 udp-442c5415-e523-458a-b9b7-790d8f84c54a 501 udp-96bb5745-cee6-4058-a3b4-3889286c0f24 105 
Nov 26 20:48:31.105 HYPERVISOR: exec_cmd: frsw create_vc FR1 udp-96bb5745-cee6-4058-a3b4-3889286c0f24 105 udp-442c5415-e523-458a-b9b7-790d8f84c54a 501 
Nov 26 20:49:00.359 HYPERVISOR: exec_cmd: frsw delete FR1 
Nov 26 20:49:00.600 HYPERVISOR: exec_cmd: hypervisor stop 
Nov 26 20:49:00.795 HYPERVISOR: Stopped.
Nov 26 20:49:00.795 GENERAL: reset done.
