Nov 26 20:48:29.939 HYPERVISOR: Release 0.2.17-amd64/Linux (tag 2017072410)
Nov 26 20:48:29.939 HYPERVISOR: Started on IP = 127.0.0.1, TCP port = 34081.
Nov 26 20:48:29.978 HYPERVISOR: exec_cmd: hypervisor version 
Nov 26 20:48:29.980 HYPERVISOR: exec_cmd: hypervisor working_dir /media/actionmystique/SAMSUNG5-VMs/Labs/GNS3/Multi-Areas/project-files/dynamips 
Nov 26 20:48:29.980 GENERAL: working_dir=/media/actionmystique/SAMSUNG5-VMs/Labs/GNS3/Multi-Areas/project-files/dynamips
Nov 26 20:48:29.982 HYPERVISOR: exec_cmd: vm create ABR15 12 c7200 
Nov 26 20:48:29.982 VM: VM ABR15 created.
Nov 26 20:48:29.984 HYPERVISOR: exec_cmd: vm set_con_tcp_port ABR15 2025 
Nov 26 20:48:29.985 HYPERVISOR: exec_cmd: vm set_aux_tcp_port ABR15 2525 
Nov 26 20:48:29.988 HYPERVISOR: exec_cmd: c7200 get_mac_addr ABR15 
Nov 26 20:48:29.990 HYPERVISOR: exec_cmd: vm get_status ABR15 
Nov 26 20:48:29.992 HYPERVISOR: exec_cmd: vm slot_add_binding ABR15 0 0 C7200-IO-FE 
Nov 26 20:48:29.994 HYPERVISOR: exec_cmd: vm get_status ABR15 
Nov 26 20:48:29.996 HYPERVISOR: exec_cmd: vm slot_remove_binding ABR15 0 0 
Nov 26 20:48:29.997 HYPERVISOR: exec_cmd: vm get_status ABR15 
Nov 26 20:48:29.999 HYPERVISOR: exec_cmd: vm slot_add_binding ABR15 0 0 C7200-IO-GE-E 
Nov 26 20:48:30.000 HYPERVISOR: exec_cmd: vm get_status ABR15 
Nov 26 20:48:30.002 HYPERVISOR: exec_cmd: vm slot_add_binding ABR15 2 0 PA-2FE-TX 
Nov 26 20:48:30.005 HYPERVISOR: exec_cmd: vm set_ram ABR15 512 
Nov 26 20:48:30.007 HYPERVISOR: exec_cmd: vm get_status ABR15 
Nov 26 20:48:30.008 HYPERVISOR: exec_cmd: vm set_idle_pc ABR15 0x60188e14 
Nov 26 20:48:30.010 HYPERVISOR: exec_cmd: vm get_status ABR15 
Nov 26 20:48:30.011 HYPERVISOR: exec_cmd: vm slot_add_binding ABR15 1 0 PA-2FE-TX 
Nov 26 20:48:30.013 HYPERVISOR: exec_cmd: vm get_status ABR15 
Nov 26 20:48:30.019 HYPERVISOR: exec_cmd: vm slot_add_binding ABR15 3 0 PA-GE 
Nov 26 20:48:30.031 HYPERVISOR: exec_cmd: vm set_ios ABR15 /media/actionmystique/SAMSUNG5-VMs/Images/GNS3/IOS/c7200-adventerprisek9-mz.152-4.M2.image 
Nov 26 20:48:30.040 HYPERVISOR: exec_cmd: vm set_config ABR15 configs/i12_startup-config.cfg 
Nov 26 20:48:30.835 HYPERVISOR: exec_cmd: vm extract_config ABR15 
Nov 26 20:48:31.224 HYPERVISOR: exec_cmd: nio create_udp udp-244825cc-e16f-4d69-9bbc-07929ed33955 15036 127.0.0.1 15035 
Nov 26 20:48:31.225 HYPERVISOR: exec_cmd: vm slot_add_nio_binding ABR15 1 0 udp-244825cc-e16f-4d69-9bbc-07929ed33955 
Nov 26 20:48:31.225 HYPERVISOR: exec_cmd: vm get_status ABR15 
Nov 26 20:48:31.320 HYPERVISOR: exec_cmd: nio create_udp udp-79c7f69e-ca7f-45ee-a521-4d9b6bed1031 15046 127.0.0.1 15045 
Nov 26 20:48:31.324 HYPERVISOR: exec_cmd: vm slot_add_nio_binding ABR15 0 0 udp-79c7f69e-ca7f-45ee-a521-4d9b6bed1031 
Nov 26 20:48:31.325 HYPERVISOR: exec_cmd: vm get_status ABR15 
Nov 26 20:48:38.519 HYPERVISOR: exec_cmd: vm extract_config ABR15 
Nov 26 20:49:00.821 HYPERVISOR: exec_cmd: vm get_status ABR15 
Nov 26 20:49:00.827 HYPERVISOR: exec_cmd: vm extract_config ABR15 
Nov 26 20:49:00.831 HYPERVISOR: exec_cmd: vm delete ABR15 
Nov 26 20:49:00.831 VM: VM ABR15 destroyed.
Nov 26 20:49:00.836 HYPERVISOR: exec_cmd: hypervisor stop 
Nov 26 20:49:00.996 HYPERVISOR: Stopped.
Nov 26 20:49:00.996 GENERAL: reset done.
