autostart = False
version = 0.8.2
[127.0.0.1:7200]
    workingdir = C:\Users\ActionMystique\Documents\Missions\GNS3\Temp
    udp = 10000
    [[3725]]
        image = C:\Users\ActionMystique\Documents\Missions\IOS\Binaries\c3725-adventerprisek9-mz.124-15.T5.image
        ram = 128
        idlepc = 0x60bec828
        sparsemem = True
        ghostios = True
    [[ROUTER R1]]
        model = 3725
        console = 2008
        aux = 2113
        cnfg = configs\R1.cfg
        wic0/0 = WIC-2T
        s0/0 = R2 s0/0
        x = -612.0
        y = -100.0
        z = 1.0
    [[ROUTER R2]]
        model = 3725
        console = 2009
        aux = 2114
        cnfg = configs\R2.cfg
        wic0/0 = WIC-2T
        s0/0 = R1 s0/0
        s0/1 = R3 s0/1
        x = -361.0
        y = -409.0
        z = 1.0
    [[ROUTER R3]]
        model = 3725
        console = 2010
        aux = 2115
        cnfg = configs\R3.cfg
        wic0/0 = WIC-2T
        s0/1 = R2 s0/1
        x = -140.0
        y = -98.0
        z = 1.0
[GNS3-DATA]
    configs = configs
    width = 5000
    height = 2500
    [[NOTE 1]]
        text = Lo31: 2002:AC10:1703:31::1/64\nLo32: 2002:AC10:1703:32::1/64
        x = -214.0
        y = -22.5
    [[NOTE 2]]
        text = Lo0: 10.1.3.1/24\nFEC0::3:1/112
        x = -30.0
        y = -108.5
    [[NOTE 3]]
        text = Lo11: 2002:AC10:C01:11::1/64\nLo12: 2002:AC10:C01:12::1/64
        x = -700.0
        y = -27.5
    [[NOTE 4]]
        text = 172.16.12.0/24
        x = -589.0
        y = -278.5
    [[NOTE 5]]
        text = s0/1\nDCE\n.2
        x = -283.0
        y = -392.5
    [[NOTE 6]]
        text = Lo0: 10.1.1.1/24\nFEC0::1:1/112
        x = -766.0
        y = -102.5
    [[NOTE 7]]
        text = s0/1\n.3
        x = -129.0
        y = -172.5
    [[NOTE 8]]
        text = s0/0\nDCE\n.1
        x = -587.0
        y = -183.5
    [[NOTE 9]]
        text = 172.16.23.0/24
        x = -205.0
        y = -276.5
    [[NOTE 10]]
        text = s0/0\n.2
        x = -413.0
        y = -381.5
    [[NOTE 11]]
        text = Lo0: 10.1.2.1/24
        x = -274.0
        y = -424.5
    [[NOTE 12]]
        text = 6to4 Tunnel
        x = -380.0
        y = -90.5
    [[SHAPE 1]]
        type = ellipse
        x = -77.0
        y = -86.0
        width = 25.0
        height = 21.0
        border_style = 2
        z = -2.0
    [[SHAPE 2]]
        type = ellipse
        x = -635.0
        y = -88.0
        width = 25.0
        height = 21.0
        border_style = 2
        z = -2.0
    [[SHAPE 3]]
        type = ellipse
        x = -310.0
        y = -423.0
        width = 25.0
        height = 21.0
        border_style = 2
        z = -2.0
    [[SHAPE 4]]
        type = ellipse
        x = -592.0
        y = -61.0
        width = 25.0
        height = 21.0
        border_style = 2
        z = -2.0
    [[SHAPE 5]]
        type = ellipse
        x = -122.0
        y = -59.0
        width = 25.0
        height = 21.0
        border_style = 2
        z = -2.0
    [[SHAPE 6]]
        type = rectangle
        x = -484.0
        y = -86.0
        width = 300.0
        height = 18.0
        z = -2.0
