Nov 28 08:23:02.413 HYPERVISOR: Release 0.2.17-amd64/Linux (tag 2017072410)
Nov 28 08:23:02.413 HYPERVISOR: Started on IP = 127.0.0.1, TCP port = 54249.
Nov 28 08:23:02.419 HYPERVISOR: exec_cmd: hypervisor version 
Nov 28 08:23:02.419 HYPERVISOR: exec_cmd: hypervisor working_dir /media/actionmystique/SAMSUNG5-VMs/Labs/GNS3/TT 1-solutions-linux-/project-files/dynamips 
Nov 28 08:23:02.419 GENERAL: working_dir=/media/actionmystique/SAMSUNG5-VMs/Labs/GNS3/TT 1-solutions-linux-/project-files/dynamips
Nov 28 08:23:02.419 HYPERVISOR: exec_cmd: vm create ESW1 1 c3725 
Nov 28 08:23:02.419 VM: VM ESW1 created.
Nov 28 08:23:02.420 HYPERVISOR: exec_cmd: vm set_con_tcp_port ESW1 2001 
Nov 28 08:23:02.420 HYPERVISOR: exec_cmd: vm set_aux_tcp_port ESW1 2501 
Nov 28 08:23:02.420 HYPERVISOR: exec_cmd: c3725 get_mac_addr ESW1 
Nov 28 08:23:02.421 HYPERVISOR: exec_cmd: vm set_disk0 ESW1 1 
Nov 28 08:23:02.421 HYPERVISOR: exec_cmd: vm get_status ESW1 
Nov 28 08:23:02.421 HYPERVISOR: exec_cmd: vm slot_add_binding ESW1 1 0 NM-16ESW 
Nov 28 08:23:02.422 HYPERVISOR: exec_cmd: vm set_ios ESW1 /media/actionmystique/SAMSUNG5-VMs/Images/GNS3/IOS/c3725-adventerprisek9-mz.124-15.T10.image 
Nov 28 08:23:02.422 HYPERVISOR: exec_cmd: c3725 set_mac_addr ESW1 c201.3297.0000 
Nov 28 08:23:02.422 HYPERVISOR: exec_cmd: vm slot_add_binding ESW1 0 16 WIC-2T 
Nov 28 08:23:02.423 HYPERVISOR: exec_cmd: vm get_status ESW1 
Nov 28 08:23:02.423 HYPERVISOR: exec_cmd: vm set_idle_pc ESW1 0x60c06d20 
Nov 28 08:23:02.423 HYPERVISOR: exec_cmd: vm set_nvram ESW1 256 
Nov 28 08:23:02.424 HYPERVISOR: exec_cmd: vm set_config ESW1 configs/i1_startup-config.cfg 
Nov 28 08:23:02.424 HYPERVISOR: exec_cmd: vm set_config ESW1 configs/i1_startup-config.cfg configs/i1_private-config.cfg 
Nov 28 08:23:02.539 HYPERVISOR: exec_cmd: nio create_udp udp-f695706d-35ee-4dc3-81e1-194b63a93faa 15000 127.0.0.1 15002 
Nov 28 08:23:02.551 HYPERVISOR: exec_cmd: vm slot_add_nio_binding ESW1 1 1 udp-f695706d-35ee-4dc3-81e1-194b63a93faa 
Nov 28 08:23:02.552 HYPERVISOR: exec_cmd: vm get_status ESW1 
Nov 28 08:23:02.557 HYPERVISOR: exec_cmd: nio create_udp udp-c311fc48-f4ca-4990-a563-fcee3ae4ae65 15003 127.0.0.1 15004 
Nov 28 08:23:02.558 HYPERVISOR: exec_cmd: vm slot_add_nio_binding ESW1 1 2 udp-c311fc48-f4ca-4990-a563-fcee3ae4ae65 
Nov 28 08:23:02.558 HYPERVISOR: exec_cmd: vm get_status ESW1 
Nov 28 08:23:02.579 HYPERVISOR: exec_cmd: nio create_udp udp-e95f0089-6012-4c32-aa8d-28b10ccb61d0 15005 127.0.0.1 15001 
Nov 28 08:23:02.579 HYPERVISOR: exec_cmd: vm slot_add_nio_binding ESW1 1 0 udp-e95f0089-6012-4c32-aa8d-28b10ccb61d0 
Nov 28 08:23:02.580 HYPERVISOR: exec_cmd: vm get_status ESW1 
Nov 28 08:23:08.863 HYPERVISOR: exec_cmd: vm get_status ESW1 
Nov 28 08:23:08.863 HYPERVISOR: exec_cmd: vm extract_config ESW1 
Nov 28 08:23:08.864 HYPERVISOR: exec_cmd: vm delete ESW1 
Nov 28 08:23:08.864 VM: VM ESW1 destroyed.
Nov 28 08:23:08.864 HYPERVISOR: exec_cmd: hypervisor stop 
Nov 28 08:23:08.924 HYPERVISOR: Stopped.
Nov 28 08:23:08.924 GENERAL: reset done.
