Nov 26 20:50:06.482 HYPERVISOR: Release 0.2.17-amd64/Linux (tag 2017072410)
Nov 26 20:50:06.482 HYPERVISOR: Started on IP = 127.0.0.1, TCP port = 46617.
Nov 26 20:50:06.513 HYPERVISOR: exec_cmd: hypervisor version 
Nov 26 20:50:06.515 HYPERVISOR: exec_cmd: hypervisor working_dir /media/actionmystique/SAMSUNG5-VMs/Labs/GNS3/OSPF - EIGRP - RIP/project-files/dynamips 
Nov 26 20:50:06.515 GENERAL: working_dir=/media/actionmystique/SAMSUNG5-VMs/Labs/GNS3/OSPF - EIGRP - RIP/project-files/dynamips
Nov 26 20:50:06.520 HYPERVISOR: exec_cmd: vm create R12 13 c7200 
Nov 26 20:50:06.520 VM: VM R12 created.
Nov 26 20:50:06.532 HYPERVISOR: exec_cmd: vm set_con_tcp_port R12 2013 
Nov 26 20:50:06.535 HYPERVISOR: exec_cmd: vm set_aux_tcp_port R12 2113 
Nov 26 20:50:06.538 HYPERVISOR: exec_cmd: c7200 get_mac_addr R12 
Nov 26 20:50:06.540 HYPERVISOR: exec_cmd: vm get_status R12 
Nov 26 20:50:06.541 HYPERVISOR: exec_cmd: vm slot_add_binding R12 0 0 C7200-IO-FE 
Nov 26 20:50:06.543 HYPERVISOR: exec_cmd: vm get_status R12 
Nov 26 20:50:06.545 HYPERVISOR: exec_cmd: vm slot_remove_binding R12 0 0 
Nov 26 20:50:06.550 HYPERVISOR: exec_cmd: vm get_status R12 
Nov 26 20:50:06.563 HYPERVISOR: exec_cmd: vm slot_add_binding R12 0 0 C7200-IO-2FE 
Nov 26 20:50:06.565 HYPERVISOR: exec_cmd: vm get_status R12 
Nov 26 20:50:06.566 HYPERVISOR: exec_cmd: vm slot_add_binding R12 2 0 PA-2FE-TX 
Nov 26 20:50:06.568 HYPERVISOR: exec_cmd: vm set_ram R12 512 
Nov 26 20:50:06.570 HYPERVISOR: exec_cmd: vm get_status R12 
Nov 26 20:50:06.571 HYPERVISOR: exec_cmd: vm set_idle_pc R12 0x60188e14 
Nov 26 20:50:06.574 HYPERVISOR: exec_cmd: vm get_status R12 
Nov 26 20:50:06.575 HYPERVISOR: exec_cmd: vm slot_add_binding R12 1 0 PA-2FE-TX 
Nov 26 20:50:06.582 HYPERVISOR: exec_cmd: vm get_status R12 
Nov 26 20:50:06.594 HYPERVISOR: exec_cmd: vm slot_add_binding R12 3 0 PA-2FE-TX 
Nov 26 20:50:06.597 HYPERVISOR: exec_cmd: vm set_ios R12 /media/actionmystique/SAMSUNG5-VMs/Images/GNS3/IOS/c7200-adventerprisek9-mz.152-4.M2.image 
Nov 26 20:50:06.599 HYPERVISOR: exec_cmd: vm set_config R12 configs/i13_startup-config.cfg 
Nov 26 20:50:07.244 HYPERVISOR: exec_cmd: vm extract_config R12 
Nov 26 20:50:07.652 HYPERVISOR: exec_cmd: nio create_udp udp-1ac48960-b8ca-46c6-832b-f9360b956376 15033 127.0.0.1 15037 
Nov 26 20:50:07.652 HYPERVISOR: exec_cmd: vm slot_add_nio_binding R12 0 0 udp-1ac48960-b8ca-46c6-832b-f9360b956376 
Nov 26 20:50:07.653 HYPERVISOR: exec_cmd: vm get_status R12 
Nov 26 20:50:07.763 HYPERVISOR: exec_cmd: nio create_udp udp-175aabaf-e34b-42a8-923e-e84145bf7526 15047 127.0.0.1 15046 
Nov 26 20:50:07.764 HYPERVISOR: exec_cmd: vm slot_add_nio_binding R12 1 0 udp-175aabaf-e34b-42a8-923e-e84145bf7526 
Nov 26 20:50:07.765 HYPERVISOR: exec_cmd: vm get_status R12 
Nov 26 20:53:18.109 HYPERVISOR: exec_cmd: vm get_status R12 
Nov 26 20:53:18.115 HYPERVISOR: exec_cmd: vm extract_config R12 
Nov 26 20:53:18.120 HYPERVISOR: exec_cmd: vm delete R12 
Nov 26 20:53:18.120 VM: VM R12 destroyed.
Nov 26 20:53:18.124 HYPERVISOR: exec_cmd: hypervisor stop 
Nov 26 20:53:18.205 HYPERVISOR: Stopped.
Nov 26 20:53:18.205 GENERAL: reset done.
